<?xml  version="1.0" encoding="UTF-8"?>
<!DOCTYPE svg PUBLIC "-//W3C//DTD SVG 1.0//EN" "http://www.w3.org/TR/2001/REC-SVG-20010904/DTD/svg10.dtd" >
<svg xmlns="http://www.w3.org/2000/svg" >
<metadata>
<version>1.0</version>
<id><![CDATA[Ayita W01 SemiBold]]></id>
<vendor>Monotype Imaging Inc.</vendor>
<credits>
<name>Fonts.com WebFonts</name>
<URL>http://webfonts.fonts.com</URL>
<role>Home of the Web fonts</role>
</credits>
<license>
<URL>http://webfonts.fonts.com/Legal</URL>
</license>
<copyright><![CDATA[Copyright © 2010 Ascender Corporation. All Rights Reserved. Designed by Jim Ford.]]></copyright>
<trademark><![CDATA[Ayita is a trademark of Ascender Corporation which may be registered in certain jurisdictions.]]></trademark>
<licensee>
<name></name>
</licensee>
</metadata>
<defs >
<font horiz-adv-x="1042" id="356302a6-b8c4-4d7e-891d-53fc8cb96acc">
<font-face font-family="Ayita W01 SemiBold" panose-1="2 11 7 6 4 5 4 4 2 4" ascent="1925" descent="-418" units-per-em="2048" alphabetic="0">
</font-face>
<missing-glyph horiz-adv-x="0" />

<glyph unicode="&#xA;" />
<glyph unicode="&#xD;" horiz-adv-x="0" />
<glyph unicode=" " horiz-adv-x="569" />
<glyph unicode="!" horiz-adv-x="516" d="M180 406L123 1475H395L338 406H180ZM98 139Q98 212 143 255T258 299Q327 299 372 255T418 139Q418 66 372 23T258 -20Q191 -20 145 22T98 139Z"  />
<glyph unicode="&quot;" horiz-adv-x="874" d="M139 924L86 1475H358L309 924H139ZM565 924L516 1475H788L735 924H565Z"  />
<glyph unicode="#" horiz-adv-x="1231" d="M666 680H440L381 416H227L285 680H66V825H317L375 1085H160V1231H408L463 1475H618L563 1231H788L844 1475H999L944 1231H1165V1085H911L854 825H1071V680H821L762 416H606L666 680ZM473 825H698L756 1085H530L473 825Z"  />
<glyph unicode="$" horiz-adv-x="1026" d="M453 -20V121Q253 131 82 219V403H96Q274 309 453 299V657Q303 719 242 765T146 874T111 1024Q111 1163 197 1247T453 1352V1495H596V1356Q740 1348 915 1282V1090H901Q744 1159 596 1174V823Q749 765 809 721T903 614T938 463Q938 327 847 237T596 127V-20H453ZM338 1042Q338 944 453 885V1169Q338 1144 338 1042ZM711 455Q711 504 679 537T596 596V309Q711 339 711 455Z"  />
<glyph unicode="%" horiz-adv-x="1651" d="M1430 1475L436 0H219L1221 1475H1430ZM53 1036Q53 1259 129 1377T352 1495Q499 1495 572 1385T645 1036Q645 823 570 705T352 586Q194 586 124 699T53 1036ZM258 1038Q258 891 279 827T352 762Q400 762 419 823T438 1038Q438 1148 430 1207T405 1293T348 1319Q299 1319 279 1255T258 1038ZM1006 430Q1006 652 1082 770T1305 889Q1452 889 1524 779T1597 430Q1597 217 1522 99T1305 -20Q1147 -20 1077 92T1006 430ZM1210 432Q1210 285 1231 221T1305 156Q1353 156 1372 217T1391 432Q1391 542 1383 600T1357 686T1300 713Q1251 713 1231 649T1210 432Z"  />
<glyph unicode="&amp;" horiz-adv-x="1442" d="M1237 795Q1257 719 1257 625Q1257 409 1098 229Q1206 166 1309 166H1395V6Q1293 -20 1190 -20Q1116 -20 1051 3T911 80Q738 -20 532 -20Q330 -20 205 95T80 401Q80 512 120 595T233 741T449 864Q434 954 434 1063Q434 1270 534 1382T813 1495Q957 1495 1045 1421T1133 1223Q1133 1118 1094 1045T967 910T705 774Q769 530 942 350Q1028 465 1028 635Q1028 712 1004 786V795H1237ZM492 682Q409 633 372 567T334 416Q334 308 404 246T590 184Q681 184 760 213Q579 407 492 682ZM901 1208Q901 1250 880 1278T813 1307Q735 1307 700 1250T664 1075Q664 996 672 954Q808 1012 854 1065T901 1208Z"  />
<glyph unicode="&apos;" horiz-adv-x="444" d="M139 924L86 1475H358L309 924H139Z"  />
<glyph unicode="(" horiz-adv-x="733" d="M702 1599V1589Q515 1344 441 1116T367 596Q367 317 445 89T702 -375V-385H483Q135 1 135 596Q135 893 223 1148T483 1599H702Z"  />
<glyph unicode=")" horiz-adv-x="733" d="M31 -385V-375Q219 -130 293 98T367 618Q367 892 290 1121T31 1589V1599H250Q423 1410 510 1161T598 618Q598 321 510 66T250 -385H31Z"  />
<glyph unicode="*" horiz-adv-x="940" d="M72 1335L168 1497L406 1319L377 1618H563L532 1319L774 1497L868 1335L604 1212L868 1090L774 928L535 1106L563 807H377L403 1104L168 928L72 1090L338 1212L72 1335Z"  />
<glyph unicode="+" horiz-adv-x="1198" d="M133 813H512V1192H686V813H1065V639H686V260H512V639H133V813Z"  />
<glyph unicode="&#x2c;" horiz-adv-x="528" d="M0 -287V-276Q69 -215 108 -123T147 74Q147 174 104 264V274H371Q397 224 397 133Q397 25 349 -87T213 -287H0Z"  />
<glyph unicode="-" horiz-adv-x="664" d="M61 666H602V479H61V666Z"  />
<glyph unicode="." horiz-adv-x="516" d="M98 139Q98 212 143 255T258 299Q327 299 372 255T418 139Q418 66 372 23T258 -20Q191 -20 145 22T98 139Z"  />
<glyph unicode="/" horiz-adv-x="788" d="M788 1475L238 0H0L559 1475H788Z"  />
<glyph unicode="0" horiz-adv-x="1026" d="M72 729Q72 1109 184 1302T516 1495Q738 1495 846 1316T954 729Q954 363 842 172T516 -20Q356 -20 260 62T118 311T72 729ZM324 735Q324 442 369 308T516 174Q612 174 654 308T696 735Q696 951 679 1072T623 1246T510 1300Q413 1300 369 1164T324 735Z"  />
<glyph unicode="1" horiz-adv-x="1026" d="M129 1120V1305H203Q321 1305 380 1344T463 1475H672V195H930V0H154V195H426V1174H418Q349 1120 223 1120H129Z"  />
<glyph unicode="2" horiz-adv-x="1026" d="M940 0H68V82Q68 189 97 277T179 439T352 619L456 711Q546 789 590 870T635 1042Q635 1154 572 1217T401 1280Q270 1280 137 1192H127V1401Q272 1495 444 1495Q570 1495 670 1443T827 1294T883 1067Q883 982 859 910T794 777T699 660T498 476Q405 396 362 328T319 195H940V0Z"  />
<glyph unicode="3" horiz-adv-x="1026" d="M104 1417Q189 1460 261 1477T426 1495Q557 1495 657 1445T813 1306T868 1112Q868 996 819 919T668 793V784Q782 747 843 660T905 449Q905 301 839 196T651 35T371 -20Q204 -20 63 31V229H74Q217 176 371 176Q506 176 577 242T649 434Q649 530 601 588T477 664H270V858H397Q496 858 557 913T618 1065Q618 1164 556 1225T391 1286Q253 1286 113 1208H104V1417Z"  />
<glyph unicode="4" horiz-adv-x="1026" d="M590 473H33V657L543 1475H836V668H993V473H836V0H590V473ZM252 668H598V889Q598 1023 610 1251H602L252 678V668Z"  />
<glyph unicode="5" horiz-adv-x="1026" d="M940 492Q940 329 869 214T667 39T360 -20Q288 -20 210 -9T74 25V225H84Q222 176 350 176Q508 176 596 251T684 459Q684 580 608 645T385 711Q280 711 152 674H139V1475H903V1280H385V899Q423 905 485 905Q685 905 812 793T940 492Z"  />
<glyph unicode="6" horiz-adv-x="1026" d="M899 1255Q850 1274 798 1288T674 1303Q540 1303 442 1179T313 836H322Q395 896 460 919T594 942Q701 942 788 885T924 721T973 475Q973 328 924 217T781 43T553 -20Q409 -20 299 57T128 281T66 629Q66 887 138 1084T348 1388T672 1495Q810 1495 909 1460V1255H899ZM309 604Q309 418 375 296T547 174Q717 174 717 475Q717 604 659 677T502 750Q400 750 313 686Q309 650 309 604Z"  />
<glyph unicode="7" horiz-adv-x="1026" d="M965 1319Q757 1032 658 721T541 0H291Q302 329 410 663T707 1274V1282H53V1475H965V1319Z"  />
<glyph unicode="8" horiz-adv-x="1026" d="M524 -20Q390 -20 286 33T124 183T66 395Q66 536 133 636T317 788V797Q220 861 173 940T125 1133Q125 1231 174 1315T311 1447T512 1495Q620 1495 710 1450T853 1326T905 1155Q905 934 707 823V815Q836 743 894 650T952 418Q952 300 897 198T744 38T524 -20ZM446 719Q315 632 315 426Q315 309 368 242T516 174Q599 174 646 232T694 391Q694 506 650 574T504 692L446 719ZM580 874Q622 913 645 976T668 1110Q668 1195 627 1247T510 1300Q447 1300 406 1256T365 1141Q365 980 537 897L580 874Z"  />
<glyph unicode="9" horiz-adv-x="1026" d="M59 1001Q59 1143 112 1256T266 1432T498 1495Q721 1495 841 1310T961 784Q961 522 889 342T684 71T360 -20Q241 -20 129 18V215H139Q203 191 250 182T356 172Q509 172 605 295T715 635H707Q656 592 592 562T442 532Q334 532 246 589T109 753T59 1001ZM315 999Q315 871 375 798T539 725Q635 725 721 786Q721 1031 660 1165T485 1300Q407 1300 361 1224T315 999Z"  />
<glyph unicode=":" horiz-adv-x="516" d="M98 139Q98 212 143 255T258 299Q327 299 372 255T418 139Q418 66 372 23T258 -20Q191 -20 145 22T98 139ZM98 954Q98 1027 143 1070T258 1114Q327 1114 372 1070T418 954Q418 881 372 838T258 795Q191 795 145 837T98 954Z"  />
<glyph unicode=";" horiz-adv-x="528" d="M0 -287V-276Q69 -215 108 -123T147 74Q147 174 104 264V274H371Q397 224 397 133Q397 25 349 -87T213 -287H0ZM94 946Q94 1019 139 1062T254 1106Q323 1106 368 1062T414 946Q414 874 369 830T254 786Q185 786 140 830T94 946Z"  />
<glyph unicode="&lt;" horiz-adv-x="1198" d="M133 668V784L1055 1214H1065V1028L422 731V723L1065 416V223H1055L133 668Z"  />
<glyph unicode="=" horiz-adv-x="1198" d="M133 1018H1065V844H133V1018ZM133 608H1065V434H133V608Z"  />
<glyph unicode="&gt;" horiz-adv-x="1198" d="M143 223H133V416L776 723V731L133 1028V1214H143L1065 784V668L143 223Z"  />
<glyph unicode="?" horiz-adv-x="768" d="M209 410V436Q209 632 336 821Q405 924 434 990T463 1122Q463 1205 415 1251T283 1298Q213 1298 161 1277T61 1227H51V1430Q161 1499 328 1499Q492 1499 594 1403T696 1151Q696 1054 663 966T556 775Q479 667 448 584T416 410H209ZM147 139Q147 212 192 255T307 299Q376 299 421 255T467 139Q467 66 421 23T307 -20Q240 -20 194 22T147 139Z"  />
<glyph unicode="@" horiz-adv-x="1796" d="M1352 332Q1419 332 1457 436T1495 729Q1495 995 1348 1145T940 1296Q765 1296 617 1206T385 956T301 604Q301 396 377 247T596 21T930 -57Q1235 -57 1507 80V-100Q1396 -163 1246 -203T915 -244Q662 -244 473 -139T189 156T94 604Q94 850 203 1046T515 1359T948 1475Q1167 1475 1340 1384T1608 1126T1702 735Q1702 546 1657 415T1525 217T1319 150Q1100 150 1042 352H1034Q988 249 925 200T772 150Q686 150 620 201T517 349T479 588Q479 826 608 963T961 1100Q1101 1100 1217 1065V610Q1217 483 1253 408T1352 332ZM821 332Q894 332 950 447T1006 711V918Q984 926 936 926Q822 926 759 838T696 594Q696 468 729 400T821 332Z"  />
<glyph unicode="A" horiz-adv-x="1210" d="M881 0V16Q881 239 842 475H358Q322 246 322 16V0H78V16Q78 411 191 792T508 1475H702Q909 1168 1021 789T1133 16V0H881ZM598 1212Q465 964 399 682H801Q734 965 606 1212H598Z"  />
<glyph unicode="B" horiz-adv-x="1186" d="M1051 1104Q1051 993 997 906T852 780V772Q974 740 1039 654T1104 438Q1104 222 968 111T575 0H160V1456Q312 1495 551 1495Q788 1495 919 1391T1051 1104ZM834 424Q834 535 766 592T571 649H416V201H580Q834 201 834 424ZM793 1075Q793 1183 724 1239T520 1296Q450 1296 416 1288V848H631Q703 863 748 925T793 1075Z"  />
<glyph unicode="C" horiz-adv-x="1141" d="M1071 1231Q920 1282 780 1282Q568 1282 458 1128T348 676Q348 519 395 409T527 243T729 186Q819 186 895 208T1051 274H1059V55Q921 -20 705 -20Q518 -20 375 63T157 303T82 680Q82 921 170 1107T416 1394T770 1495Q926 1495 1079 1448V1231H1071Z"  />
<glyph unicode="D" horiz-adv-x="1370" d="M160 0V1464Q311 1495 549 1495Q901 1495 1094 1308T1288 776Q1288 538 1199 363T942 94T553 0H160ZM1020 758Q1020 1296 524 1296Q465 1296 416 1290V209H532Q774 209 897 349T1020 758Z"  />
<glyph unicode="E" horiz-adv-x="1051" d="M160 1475H958V1264H416V850H907V643H416V211H969V0H160V1475Z"  />
<glyph unicode="F" horiz-adv-x="1030" d="M160 1475H969V1264H416V829H895V623H416V0H160V1475Z"  />
<glyph unicode="G" horiz-adv-x="1272" d="M721 186Q812 186 889 215V647H1143V80Q1036 28 927 4T688 -20Q508 -20 371 63T158 304T82 682Q82 926 170 1111T421 1395T791 1495Q863 1495 931 1485T1098 1444V1225H1090Q999 1257 936 1269T801 1282Q579 1282 464 1128T348 678Q348 522 394 412T526 244T721 186Z"  />
<glyph unicode="H" horiz-adv-x="1399" d="M1239 0H983V662H416V0H160V1475H416V872H983V1475H1239V0Z"  />
<glyph unicode="I" horiz-adv-x="575" d="M160 0V1475H416V0H160Z"  />
<glyph unicode="J" horiz-adv-x="575" d="M160 1475H416V78Q416 -114 336 -213T100 -313Q7 -313 -51 -283V-102H-41Q-2 -121 49 -121Q160 -121 160 68V1475Z"  />
<glyph unicode="K" horiz-adv-x="1268" d="M160 1475H416V754L889 1475H1174L686 762Q829 469 971 318T1239 166H1247V0Q1175 -14 1106 -14Q921 -14 766 154T416 752V0H160V1475Z"  />
<glyph unicode="L" horiz-adv-x="1010" d="M416 211H969V0H160V1475H416V211Z"  />
<glyph unicode="M" horiz-adv-x="1667" d="M160 0V1475H483L774 684Q799 625 825 508H834Q860 624 883 684L1171 1475H1507V0H1262V707Q1262 963 1294 1217H1282L938 274H709L369 1212H360Q385 987 385 709V0H160Z"  />
<glyph unicode="N" horiz-adv-x="1399" d="M1239 1475V0H946L393 1116H375Q397 775 397 565V0H160V1475H463L1008 375H1026Q997 619 997 887V1475H1239Z"  />
<glyph unicode="O" horiz-adv-x="1417" d="M705 -20Q513 -20 373 66T158 320T82 723Q82 948 162 1123T387 1397T713 1495Q905 1495 1045 1409T1260 1155T1335 754Q1335 529 1255 352T1031 77T705 -20ZM713 1288Q542 1288 445 1135T348 723Q348 478 443 332T707 186Q875 186 972 339T1069 754Q1069 1007 976 1147T713 1288Z"  />
<glyph unicode="P" horiz-adv-x="1149" d="M1071 1042Q1071 810 918 675T506 539H416V0H160V1462Q320 1495 512 1495Q784 1495 927 1379T1071 1042ZM805 1028Q805 1155 732 1224T512 1294Q458 1294 416 1284V739H473Q633 739 719 813T805 1028Z"  />
<glyph unicode="Q" horiz-adv-x="1417" d="M1335 -127V-326Q1226 -385 1090 -385Q901 -385 754 -287T489 12Q285 87 184 267T82 723Q82 948 162 1123T387 1397T713 1495Q905 1495 1045 1409T1260 1155T1335 754Q1335 542 1264 373T1060 102T754 -12V-20Q806 -92 887 -129T1106 -166Q1216 -166 1325 -127H1335ZM713 1288Q542 1288 445 1135T348 723Q348 478 443 332T707 186Q875 186 972 339T1069 754Q1069 1007 976 1147T713 1288Z"  />
<glyph unicode="R" horiz-adv-x="1243" d="M160 1452Q229 1472 329 1483T528 1495Q793 1495 933 1391T1073 1083Q1073 934 1003 826T799 659Q918 414 1021 290T1223 166H1231V0Q1167 -20 1098 -20Q947 -20 820 121T559 584Q503 575 416 575V0H160V1452ZM813 1057Q813 1180 742 1238T520 1296Q472 1296 416 1288V770H598Q697 795 755 871T813 1057Z"  />
<glyph unicode="S" horiz-adv-x="993" d="M86 1100Q86 1282 214 1388T555 1495Q743 1495 893 1421V1200H883Q713 1284 553 1284Q455 1284 402 1240T348 1114Q348 1047 391 993T529 884Q674 801 731 760T829 668T895 551T920 395Q920 198 793 89T440 -20Q206 -20 61 59V274H74Q138 237 236 212T422 186Q536 186 596 235T657 375Q657 449 613 508T477 620Q337 700 277 741T177 832T111 947T86 1100Z"  />
<glyph unicode="T" horiz-adv-x="981" d="M362 0V1264H20V1475H961V1264H618V0H362Z"  />
<glyph unicode="U" horiz-adv-x="1323" d="M565 -20Q354 -20 253 111T152 537V1475H408V563Q408 366 459 276T614 186Q762 186 835 351T909 879V1475H1163V565Q1163 435 1171 319T1210 0H983Q955 171 952 281H944Q839 -20 565 -20Z"  />
<glyph unicode="V" horiz-adv-x="1210" d="M500 0Q296 307 187 688T78 1458V1475H330V1458Q330 1148 403 832T606 266H614Q742 513 815 827T889 1458V1475H1133V1458Q1133 1065 1019 686T702 0H500Z"  />
<glyph unicode="W" horiz-adv-x="1860" d="M1782 1458Q1782 1036 1680 656T1391 0H1188Q1002 365 930 748H922Q851 369 664 0H469Q283 274 181 658T78 1458V1475H330V1458Q330 1108 392 802T563 266H571Q689 488 749 775T809 1456V1475H1053V1456Q1053 1167 1077 974T1154 604T1294 266H1303Q1411 505 1470 812T1530 1458V1475H1782V1458Z"  />
<glyph unicode="X" horiz-adv-x="1176" d="M866 0V8Q866 170 795 327T592 608H584Q463 493 387 326T311 8V0H57V10Q57 195 155 382T440 737Q258 925 178 1097T98 1464V1475H352V1466Q352 1272 412 1131T590 874H598Q680 954 729 1044T802 1231T825 1466V1475H1077V1464Q1077 1272 997 1099T743 745Q931 571 1024 386T1118 10V0H866Z"  />
<glyph unicode="Y" horiz-adv-x="1114" d="M430 0V483Q257 664 163 916T68 1462V1475H324V1464Q324 1207 382 1016T555 684H563Q675 823 736 1014T797 1464V1475H1047V1462Q1047 1180 952 927T686 487V0H430Z"  />
<glyph unicode="Z" horiz-adv-x="997" d="M616 1260V1268Q477 1255 365 1255H106V1475H928V1362L371 213V205Q474 219 641 219H911V0H66V131L616 1260Z"  />
<glyph unicode="[" horiz-adv-x="733" d="M147 -385V1599H651V1436H371V-221H651V-385H147Z"  />
<glyph unicode="\" horiz-adv-x="788" d="M229 1475L788 0H551L0 1475H229Z"  />
<glyph unicode="]" horiz-adv-x="733" d="M82 -385V-221H362V1436H82V1599H586V-385H82Z"  />
<glyph unicode="^" horiz-adv-x="1024" d="M567 1475L950 862V852H741L522 1208H514L283 852H74V862L473 1475H567Z"  />
<glyph unicode="_" horiz-adv-x="989" d="M-20 -119H1010V-305H-20V-119Z"  />
<glyph unicode="`" horiz-adv-x="666" d="M500 1233H330Q193 1367 76 1542V1565H340Q400 1426 430 1368T500 1247V1233Z"  />
<glyph unicode="a" horiz-adv-x="1120" d="M954 453Q954 335 963 274T992 188T1061 162V0Q999 -20 938 -20Q850 -20 797 42T739 203H731Q678 89 604 35T422 -20Q323 -20 247 41T132 215T94 483Q94 786 247 961T666 1137Q812 1137 954 1092V453ZM498 182Q588 182 652 317T717 631V924Q683 934 633 934Q493 934 419 824T344 510Q344 348 383 265T498 182Z"  />
<glyph unicode="b" horiz-adv-x="1151" d="M162 1599H408V1184Q408 1011 387 881H395Q453 1012 533 1074T731 1137Q885 1137 971 999T1057 606Q1057 299 915 140T510 -20Q317 -20 162 45V1599ZM662 928Q594 928 535 857T442 658T408 369V188Q461 168 535 168Q809 168 809 586Q809 754 775 841T662 928Z"  />
<glyph unicode="c" horiz-adv-x="915" d="M344 528Q344 363 415 269T604 174Q667 174 719 191T834 248H842V53Q769 11 704 -4T557 -20Q420 -20 315 43T152 225T94 508Q94 798 236 967T623 1137Q765 1137 850 1110V901H842Q729 942 637 942Q494 942 419 838T344 528Z"  />
<glyph unicode="d" horiz-adv-x="1149" d="M94 483Q94 680 155 828T324 1055T565 1135Q663 1135 731 1114V1599H977V393Q977 307 986 259T1016 189T1085 168V6Q1029 -14 969 -14Q877 -14 823 49T768 225H760Q672 -20 455 -20Q287 -20 191 114T94 483ZM344 510Q344 340 388 262T518 184Q616 184 673 310T731 659V915Q676 936 606 936Q481 936 413 823T344 510Z"  />
<glyph unicode="e" horiz-adv-x="1026" d="M344 625Q539 625 620 669T702 821Q702 874 677 908T594 942Q529 942 475 905T386 797T344 625ZM348 446Q357 324 426 254T612 184Q661 184 703 192T783 213T901 266H911V68Q820 19 740 0T561 -20Q422 -20 316 44T152 228T94 514Q94 700 158 842T340 1060T606 1137Q760 1137 852 1054T944 831Q944 639 802 543T381 446H348Z"  />
<glyph unicode="f" horiz-adv-x="625" d="M162 930H20V1028L162 1116V1190Q162 1397 255 1508T518 1620Q620 1620 698 1595V1403H690Q628 1423 567 1423Q484 1423 446 1365T408 1169V1114H612V930H408V53Q408 -87 363 -185T237 -334T53 -385Q-26 -385 -104 -356V-172H-96Q-59 -186 -4 -186Q80 -186 121 -125T162 80V930Z"  />
<glyph unicode="g" horiz-adv-x="1110" d="M473 -385Q292 -385 131 -291V-94H139Q253 -152 324 -171T473 -190Q590 -190 652 -125T715 66Q715 129 716 161T725 272L715 274Q604 33 420 33Q258 33 176 154T94 508Q94 692 164 835T361 1057T651 1135Q802 1135 954 1094V92Q954 -145 837 -265T473 -385ZM344 535Q344 385 375 315T473 244Q537 244 591 294T677 438T709 655V924Q679 932 633 932Q495 932 420 827T344 535Z"  />
<glyph unicode="h" horiz-adv-x="1180" d="M408 0H162V1599H408V1229Q408 1074 389 840H397Q453 996 532 1065T739 1135Q867 1135 937 1050T1008 807V377Q1008 251 1030 208T1116 164V4Q1049 -16 985 -16Q878 -16 820 57T762 276V791Q762 926 668 926Q596 926 535 825T441 552T408 193V0Z"  />
<glyph unicode="i" horiz-adv-x="580" d="M162 1114H408V377Q408 290 417 244T446 180T514 162V0Q450 -20 385 -20Q275 -20 219 55T162 272V1114ZM139 1438Q139 1503 180 1544T287 1585Q349 1585 391 1546T434 1438Q434 1371 394 1331T289 1290Q225 1290 182 1330T139 1438Z"  />
<glyph unicode="j" horiz-adv-x="575" d="M162 1114H408V-33Q408 -201 330 -293T111 -385Q15 -385 -55 -356V-174H-45Q16 -195 59 -195Q114 -195 138 -149T162 14V1114ZM137 1438Q137 1503 178 1544T285 1585Q347 1585 389 1546T432 1438Q432 1371 392 1331T287 1290Q223 1290 180 1330T137 1438Z"  />
<glyph unicode="k" horiz-adv-x="1069" d="M162 1599H408V1307Q408 1144 397 1001H406Q458 1075 520 1105T668 1135Q746 1135 811 1097T914 988T952 827Q952 733 902 654T752 524Q806 330 863 247T1001 164H1026V4Q976 -20 905 -20Q812 -20 749 27T637 179T545 467Q497 459 408 459V0H162V1599ZM588 946Q509 946 459 887T408 725V621H492Q599 621 660 673T721 815Q721 875 687 910T588 946Z"  />
<glyph unicode="l" horiz-adv-x="580" d="M162 1599H408V385Q408 295 417 248T447 183T514 164V4Q450 -16 385 -16Q275 -16 219 59T162 276V1599Z"  />
<glyph unicode="m" horiz-adv-x="1657" d="M944 0H702V791Q702 928 618 928Q526 928 465 739T403 260V0H162V696Q162 974 147 1114H367Q384 1014 389 856H397Q489 1135 694 1135Q921 1135 936 856H944Q980 991 1054 1063T1229 1135Q1347 1135 1416 1055T1485 807V350Q1485 275 1494 237T1523 182T1593 166V4Q1529 -16 1466 -16Q1356 -16 1300 59T1243 276V791Q1243 928 1157 928Q1098 928 1049 843T972 602T944 260V0Z"  />
<glyph unicode="n" horiz-adv-x="1180" d="M408 0H162V696Q162 974 147 1114H362Q369 1086 379 986T389 836H397Q453 991 532 1063T739 1135Q867 1135 937 1050T1008 807V377Q1008 251 1030 208T1116 164V4Q1049 -16 985 -16Q878 -16 820 57T762 276V791Q762 926 668 926Q596 926 535 825T441 552T408 193V0Z"  />
<glyph unicode="o" horiz-adv-x="1137" d="M578 1135Q796 1135 919 995T1042 596Q1042 310 911 145T557 -20Q339 -20 217 120T94 520Q94 808 221 971T578 1135ZM561 174Q675 174 733 282T791 596Q791 760 735 850T573 940Q463 940 404 831T344 520Q344 360 402 267T561 174Z"  />
<glyph unicode="p" horiz-adv-x="1161" d="M1067 606Q1067 419 1009 277T848 58T623 -20Q499 -20 408 51V-385H162V752Q162 985 147 1114H362Q383 1019 389 840H393Q441 984 518 1059T713 1135Q822 1135 900 1075T1022 899T1067 606ZM670 926Q601 926 538 834T437 583T399 229Q473 170 582 170Q695 170 757 280T819 586Q819 765 783 845T670 926Z"  />
<glyph unicode="q" horiz-adv-x="1133" d="M977 -385H731V-53Q731 64 739 180H731Q680 75 612 28T430 -20Q330 -20 255 39T137 212T94 483Q94 691 162 836T358 1058T659 1135Q821 1135 977 1087V-385ZM344 510Q344 184 514 184Q580 184 631 240T711 401T739 653V920Q685 934 621 934Q488 934 416 823T344 510Z"  />
<glyph unicode="r" horiz-adv-x="797" d="M403 0H162V766Q162 949 147 1114H360Q379 976 379 801H387Q429 934 471 1000T569 1100T700 1135Q747 1135 768 1128V901H758Q723 909 696 909Q547 909 475 727T403 164V0Z"  />
<glyph unicode="s" horiz-adv-x="864" d="M94 815Q94 913 138 984T262 1095T442 1135Q526 1135 596 1125T741 1087V885H733Q670 910 607 926T465 942Q334 942 334 840Q334 790 378 748T556 630Q665 568 721 488T778 307Q778 149 682 62T416 -25Q330 -25 239 -7T78 47V244H86Q180 202 251 186T385 170Q537 170 537 289Q537 368 397 451Q269 526 213 574T125 683T94 815Z"  />
<glyph unicode="t" horiz-adv-x="735" d="M162 930H23V1028L162 1112V1415L408 1444V1114H686V930H408V362Q408 176 522 176Q606 176 688 211H696V41Q594 -20 467 -20Q325 -20 244 69T162 319V930Z"  />
<glyph unicode="u" horiz-adv-x="1169" d="M459 -20Q313 -20 235 81T156 367V1114H401V451Q401 315 426 253T518 190Q629 190 691 361T754 856V1114H997V393Q997 300 1006 252T1035 184T1106 164V4Q1035 -16 977 -16Q877 -16 822 44T764 211H756Q718 97 646 39T459 -20Z"  />
<glyph unicode="v" horiz-adv-x="1032" d="M389 0Q224 208 153 466T82 1114H336V1094Q336 776 381 555T518 190H530Q619 329 662 554T705 1114H950Q950 698 883 448T659 0H389Z"  />
<glyph unicode="w" horiz-adv-x="1604" d="M997 0Q939 94 897 185T817 414H809Q763 263 726 183T627 0H369Q209 246 146 484T82 1114H324V1087Q324 464 506 190H516Q614 332 657 560T700 1114H928V1092Q928 472 1116 190H1126Q1207 319 1243 537T1280 1114H1522Q1522 735 1466 498T1255 0H997Z"  />
<glyph unicode="x" horiz-adv-x="1028" d="M705 0Q694 106 647 217T514 432H506Q422 334 373 223T311 0H61Q84 163 160 297T379 559Q103 817 82 1114H328Q346 971 384 878T508 684H516Q607 788 646 884T700 1114H938Q928 967 858 832T647 559Q791 429 866 298T967 0H705Z"  />
<glyph unicode="y" horiz-adv-x="1157" d="M401 1114V481Q401 363 429 305T520 246Q642 246 699 405T756 877V1114H1001V88Q1001 -150 883 -267T508 -385Q327 -385 178 -303V-94H186Q281 -141 324 -156T414 -181T516 -190Q762 -190 762 70Q762 179 772 272L762 274Q705 148 629 91T444 33Q307 33 232 135T156 420V1114H401Z"  />
<glyph unicode="z" horiz-adv-x="889" d="M82 0V152L485 922V930Q385 920 317 920H102V1114H756V958L352 193V184Q464 195 578 195H807V0H82Z"  />
<glyph unicode="{" horiz-adv-x="733" d="M287 604Q389 575 433 500T477 260V-25Q477 -121 518 -169T647 -217H684V-381Q654 -385 610 -385Q426 -385 340 -296T254 -23V287Q254 405 211 460T74 516H47V700H74Q170 700 212 756T254 930V1217Q254 1599 598 1599Q650 1599 684 1595V1432H647Q559 1432 518 1379T477 1219V956Q477 792 434 717T287 612V604Z"  />
<glyph unicode="|" horiz-adv-x="569" d="M373 -385H197V1599H373V-385Z"  />
<glyph unicode="}" horiz-adv-x="733" d="M446 602Q344 631 300 706T256 946V1219Q256 1325 215 1378T86 1432H49V1595Q83 1599 135 1599Q479 1599 479 1217V920Q479 801 521 746T659 690H686V506H659Q563 506 521 450T479 276V-23Q479 -207 393 -296T123 -385Q81 -385 49 -381V-217H86Q174 -217 215 -169T256 -25V250Q256 415 299 489T446 594V602Z"  />
<glyph unicode="~" horiz-adv-x="1212" d="M360 696Q301 696 242 666T135 582V788Q220 891 360 891Q429 891 492 870T616 825T735 779T850 758Q919 758 978 788T1077 872V666Q994 563 850 563Q735 563 585 630Q507 664 454 680T360 696Z"  />
<glyph unicode="&#xA0;" horiz-adv-x="569" />
<glyph unicode="&#xA1;" horiz-adv-x="516" d="M336 696L393 -373H121L178 696H336ZM418 963Q418 891 373 847T258 803Q189 803 144 847T98 963Q98 1036 144 1079T258 1122Q326 1122 372 1080T418 963Z"  />
<glyph unicode="&#xA2;" horiz-adv-x="1026" d="M557 170Q434 181 339 248T193 431T141 707Q141 940 252 1102T557 1311V1495H713V1325Q830 1318 903 1294V1100H893Q799 1124 713 1128V367Q788 380 893 438H903V250Q795 192 713 180V-20H557V170ZM377 711Q377 568 427 474T557 367V1114Q475 1082 426 970T377 711Z"  />
<glyph unicode="&#xA3;" horiz-adv-x="1026" d="M100 680H311Q303 767 294 858T285 1059Q285 1185 336 1284T484 1439T709 1495Q846 1495 954 1440V1239H944Q827 1294 711 1294Q613 1294 564 1229T514 1042Q514 935 534 765L543 680H877V516H553Q553 396 526 326T440 203V195H954V0H61V166H82Q201 166 262 247T324 479V516H100V680Z"  />
<glyph unicode="&#xA4;" horiz-adv-x="1026" d="M51 367L170 485Q96 591 96 727Q96 862 166 965L51 1081L158 1186L272 1071Q378 1145 512 1145Q650 1145 756 1071L870 1188L975 1083L858 967Q930 866 930 727Q930 588 858 485L975 369L870 262L752 381Q649 311 512 311Q373 311 272 383L154 264L51 367ZM305 727Q305 627 361 565T512 502Q607 502 664 564T721 727Q721 829 663 891T512 954Q418 954 362 891T305 727Z"  />
<glyph unicode="&#xA5;" horiz-adv-x="1026" d="M86 696H262Q63 1048 63 1462V1475H309V1464Q309 1251 363 1045T516 682H526Q618 828 667 1027T717 1464V1475H961V1462Q961 1048 764 696H944V532H659L633 498V369H944V205H633V0H397V205H86V369H397V498Q387 508 371 532H86V696Z"  />
<glyph unicode="&#xA6;" horiz-adv-x="569" d="M197 -385V373H373V-385H197ZM373 842H197V1599H373V842Z"  />
<glyph unicode="&#xA7;" horiz-adv-x="1171" d="M696 111Q696 184 648 266T502 444Q288 654 221 744T119 926T84 1114Q84 1266 157 1389T358 1575T655 1638Q859 1638 1020 1567V1364H1010Q844 1450 696 1450Q596 1450 544 1403T492 1262Q492 1189 539 1112T685 940Q834 797 897 727T1005 587T1075 436T1102 260Q1102 94 1023 -34T794 -235T467 -307Q364 -307 277 -287T100 -221V-23H113Q196 -63 281 -88T469 -113Q575 -113 635 -54T696 111ZM369 1438Q312 1393 275 1321T238 1155Q238 1063 268 985T352 833T548 626Q693 488 746 417T828 268T858 100Q858 34 829 -20L836 -25Q899 35 923 103T948 252Q948 331 918 404T832 552T640 760Q499 899 445 969T362 1109T332 1253Q332 1352 383 1427L369 1438Z"  />
<glyph unicode="&#xA8;" horiz-adv-x="666" d="M20 1395Q20 1455 52 1486T137 1518Q191 1518 223 1487T256 1395Q256 1336 225 1305T137 1274Q85 1274 53 1305T20 1395ZM397 1395Q397 1455 428 1486T514 1518Q567 1518 600 1487T633 1395Q633 1336 601 1305T516 1274Q460 1274 429 1305T397 1395Z"  />
<glyph unicode="&#xA9;" horiz-adv-x="1659" d="M1593 745Q1593 527 1495 352T1222 79T829 -20Q614 -20 438 79T164 354T66 745Q66 960 163 1131T436 1398T829 1495Q1045 1495 1221 1400T1495 1132T1593 745ZM209 745Q209 562 288 417T509 191T829 111Q1005 111 1148 190T1371 416T1450 745Q1450 928 1371 1070T1149 1288T829 1364Q650 1364 508 1287T288 1068T209 745ZM1118 555V387Q984 319 844 319Q725 319 631 371T485 520T432 745Q432 874 484 971T629 1121T844 1174Q988 1174 1118 1110V938H1108Q1023 981 970 994T856 1008Q750 1008 695 942T639 750Q639 622 694 554T856 485Q916 485 968 498T1108 555H1118Z"  />
<glyph unicode="&#xAA;" horiz-adv-x="788" d="M350 850Q407 850 441 917T475 1081V1319Q454 1325 426 1325Q344 1325 297 1254T250 1053Q250 850 350 850ZM446 1495Q506 1495 570 1486T672 1462V1071Q672 929 689 890T756 850V698Q712 678 653 678Q596 678 554 711T498 819Q422 676 285 676Q216 676 163 717T77 836T45 1034Q45 1241 153 1368T446 1495Z"  />
<glyph unicode="&#xAB;" horiz-adv-x="1071" d="M301 123L76 559L301 995H539L297 561L539 123H301ZM750 123L524 559L750 995H987L745 561L987 123H750Z"  />
<glyph unicode="&#xAC;" horiz-adv-x="1198" d="M133 813H1065V260H891V639H133V813Z"  />
<glyph unicode="&#xAD;" horiz-adv-x="664" d="M61 666H602V479H61V666Z"  />
<glyph unicode="&#xAE;" horiz-adv-x="1659" d="M801 1188Q968 1188 1057 1121T1147 928Q1147 852 1117 799T1008 688Q1044 605 1079 555T1146 483T1225 461V328Q1188 317 1137 317Q1075 317 1028 344T943 425T838 627H743V322H567V1165Q675 1188 801 1188ZM958 905Q958 973 916 1006T807 1040Q769 1040 743 1036V774H874Q923 803 940 833T958 905ZM1593 745Q1593 527 1495 352T1222 79T829 -20Q614 -20 438 79T164 354T66 745Q66 960 163 1131T436 1398T829 1495Q1045 1495 1221 1400T1495 1132T1593 745ZM209 745Q209 562 288 417T509 191T829 111Q1005 111 1148 190T1371 416T1450 745Q1450 928 1371 1070T1149 1288T829 1364Q650 1364 508 1287T288 1068T209 745Z"  />
<glyph unicode="&#xAF;" horiz-adv-x="666" d="M27 1323V1497H625V1323H27Z"  />
<glyph unicode="&#xB0;" horiz-adv-x="682" d="M342 1495Q463 1495 546 1414T629 1208Q629 1083 548 1003T340 922Q213 922 133 1002T53 1208Q53 1331 136 1413T342 1495ZM463 1208Q463 1267 429 1304T342 1341Q289 1341 255 1304T221 1208Q221 1149 255 1114T342 1079Q396 1079 429 1114T463 1208Z"  />
<glyph unicode="&#xB1;" horiz-adv-x="1198" d="M133 813H512V1192H686V813H1065V639H686V260H512V639H133V813ZM133 174H1065V0H133V174Z"  />
<glyph unicode="&#xB2;" horiz-adv-x="819" d="M686 598H102V678Q102 770 148 845T284 985Q381 1055 423 1108T465 1223Q465 1275 430 1307T336 1339Q282 1339 237 1324T150 1290V1440Q258 1495 383 1495Q505 1495 579 1427T653 1245Q653 1070 477 940Q368 859 335 824T301 752H686V598Z"  />
<glyph unicode="&#xB3;" horiz-adv-x="819" d="M647 1262Q647 1132 530 1065V1057Q682 1002 682 858Q682 723 591 648T332 573Q193 573 102 608V762Q137 749 196 739T319 729Q411 729 449 761T487 858Q487 905 451 929T358 954H215V1108H356Q407 1108 434 1141T461 1225Q461 1280 424 1309T322 1339Q237 1339 139 1294V1444Q235 1495 375 1495Q498 1495 572 1432T647 1262Z"  />
<glyph unicode="&#xB4;" horiz-adv-x="666" d="M168 1247Q211 1317 241 1376T328 1565H592V1542Q475 1367 338 1233H168V1247Z"  />
<glyph unicode="&#xB5;" horiz-adv-x="1176" d="M162 1114H408V412Q408 296 435 243T524 190Q635 190 697 361T760 856V1114H1004V393Q1004 302 1012 254T1041 185T1112 164V4Q1041 -16 983 -16Q883 -16 828 44T770 211H762Q722 93 654 40T479 -14Q436 -14 408 0L401 -2Q408 -91 408 -246V-385H162V1114Z"  />
<glyph unicode="&#xB6;" horiz-adv-x="1167" d="M82 993Q82 1139 158 1251T379 1428T700 1493Q867 1493 1008 1464V-211H852V1319Q768 1331 666 1331V-211H510V563Q296 588 189 699T82 993Z"  />
<glyph unicode="&#xB7;" horiz-adv-x="516" d="M98 778Q98 851 143 894T258 938Q327 938 372 894T418 778Q418 706 373 662T258 618Q189 618 144 662T98 778Z"  />
<glyph unicode="&#xB8;" horiz-adv-x="666" d="M385 -176Q385 -144 355 -130T268 -113L176 -106L221 55H336L319 2Q436 -6 489 -53T543 -182Q543 -272 472 -328T281 -385Q189 -385 133 -358V-215H143Q196 -240 276 -240Q385 -240 385 -176Z"  />
<glyph unicode="&#xB9;" horiz-adv-x="819" d="M123 1233V1384H186Q247 1384 289 1416T344 1495H492V598H315V1270Q272 1233 186 1233H123Z"  />
<glyph unicode="&#xBA;" horiz-adv-x="776" d="M389 850Q526 850 526 1112Q526 1219 494 1271T391 1323Q250 1323 250 1061Q250 960 286 905T389 850ZM395 1495Q553 1495 642 1395T731 1112Q731 906 638 792T381 678Q227 678 136 781T45 1061Q45 1259 140 1377T395 1495Z"  />
<glyph unicode="&#xBB;" horiz-adv-x="1071" d="M770 995L995 559L770 123H532L774 557L532 995H770ZM322 995L547 559L322 123H84L326 557L84 995H322Z"  />
<glyph unicode="&#xBC;" horiz-adv-x="1505" d="M41 1233V1384H104Q164 1384 206 1414T262 1495H410V598H233V1270Q190 1233 104 1233H41ZM1167 1475L311 0H127L985 1475H1167ZM1094 702L858 373H1094V702ZM1094 219H672V346L1059 899H1270V373H1393V219H1270V0H1094V219Z"  />
<glyph unicode="&#xBD;" horiz-adv-x="1542" d="M1413 2H829V82Q829 174 875 249T1011 389Q1108 459 1150 512T1192 627Q1192 679 1157 711T1063 743Q1009 743 964 728T877 694V844Q985 899 1110 899Q1232 899 1306 831T1380 649Q1380 474 1204 344Q1095 263 1062 228T1028 156H1413V2ZM41 1233V1384H104Q164 1384 206 1414T262 1495H410V598H233V1270Q190 1233 104 1233H41ZM1167 1475L311 0H127L985 1475H1167Z"  />
<glyph unicode="&#xBE;" horiz-adv-x="1651" d="M618 1262Q618 1132 502 1065V1057Q653 1001 653 858Q653 723 562 648T303 573Q163 573 74 608V762Q108 749 169 739T291 729Q383 729 421 761T459 858Q459 903 423 928T330 954H186V1108H328Q379 1108 405 1141T432 1225Q432 1280 395 1309T293 1339Q209 1339 111 1294V1444Q205 1495 346 1495Q469 1495 543 1432T618 1262ZM1372 1475L516 0H332L1190 1475H1372ZM1298 702L1063 373H1298V702ZM1298 219H877V346L1264 899H1475V373H1597V219H1475V0H1298V219Z"  />
<glyph unicode="&#xBF;" horiz-adv-x="768" d="M559 692V666Q559 470 432 281Q363 178 334 112T305 -20Q305 -104 353 -150T485 -197Q597 -197 707 -125H717V-328Q607 -397 440 -397Q276 -397 174 -301T72 -49Q72 48 105 136T212 327Q289 435 320 518T352 692H559ZM621 963Q621 891 576 847T461 803Q392 803 347 847T301 963Q301 1036 347 1079T461 1122Q529 1122 575 1080T621 963Z"  />
<glyph unicode="&#xC0;" horiz-adv-x="1210" d="M881 0V16Q881 239 842 475H358Q322 246 322 16V0H78V16Q78 411 191 792T508 1475H702Q909 1168 1021 789T1133 16V0H881ZM598 1212Q465 964 399 682H801Q734 965 606 1212H598ZM756 1593H586Q449 1727 332 1902V1925H596Q656 1786 686 1728T756 1607V1593Z"  />
<glyph unicode="&#xC1;" horiz-adv-x="1210" d="M881 0V16Q881 239 842 475H358Q322 246 322 16V0H78V16Q78 411 191 792T508 1475H702Q909 1168 1021 789T1133 16V0H881ZM598 1212Q465 964 399 682H801Q734 965 606 1212H598ZM455 1607Q498 1677 528 1736T615 1925H879V1902Q762 1727 625 1593H455V1607Z"  />
<glyph unicode="&#xC2;" horiz-adv-x="1210" d="M881 0V16Q881 239 842 475H358Q322 246 322 16V0H78V16Q78 411 191 792T508 1475H702Q909 1168 1021 789T1133 16V0H881ZM598 1212Q465 964 399 682H801Q734 965 606 1212H598ZM912 1593H744Q669 1712 605 1751Q536 1701 467 1593H299V1628Q397 1806 545 1925H666Q820 1795 912 1628V1593Z"  />
<glyph unicode="&#xC3;" horiz-adv-x="1210" d="M881 0V16Q881 239 842 475H358Q322 246 322 16V0H78V16Q78 411 191 792T508 1475H702Q909 1168 1021 789T1133 16V0H881ZM598 1212Q465 964 399 682H801Q734 965 606 1212H598ZM742 1597Q663 1597 566 1673Q501 1722 482 1722Q460 1722 443 1688T422 1597H263Q263 1737 325 1820T484 1904Q520 1904 552 1892T654 1830Q694 1801 713 1792T746 1783Q766 1783 783 1814T803 1904H965Q961 1761 899 1679T742 1597Z"  />
<glyph unicode="&#xC4;" horiz-adv-x="1210" d="M881 0V16Q881 239 842 475H358Q322 246 322 16V0H78V16Q78 411 191 792T508 1475H702Q909 1168 1021 789T1133 16V0H881ZM598 1212Q465 964 399 682H801Q734 965 606 1212H598ZM299 1755Q299 1815 331 1846T416 1878Q470 1878 502 1847T535 1755Q535 1696 504 1665T416 1634Q364 1634 332 1665T299 1755ZM676 1755Q676 1815 707 1846T793 1878Q846 1878 879 1847T912 1755Q912 1696 880 1665T795 1634Q739 1634 708 1665T676 1755Z"  />
<glyph unicode="&#xC5;" horiz-adv-x="1210" d="M365 1567Q365 1670 433 1736T604 1802Q706 1802 774 1736T842 1567Q842 1453 760 1382Q945 1074 1039 723T1133 16V0H881V16Q881 239 842 475H358Q322 246 322 16V0H78V16Q78 378 173 729T449 1382Q365 1449 365 1567ZM598 1212Q465 964 399 682H801Q734 965 606 1212H598ZM508 1567Q508 1526 536 1501T604 1475H612Q650 1477 674 1501T698 1567Q698 1609 671 1633T604 1657Q564 1657 536 1633T508 1567Z"  />
<glyph unicode="&#xC6;" horiz-adv-x="1597" d="M322 0H78V16Q78 411 191 792T508 1475H1505V1264H963V850H1454V643H963V211H1516V0H707V475H358Q322 246 322 16V0ZM707 1264H627Q468 973 399 682H707V1264Z"  />
<glyph unicode="&#xC7;" horiz-adv-x="1141" d="M743 -197Q743 -165 714 -151T627 -133L535 -127L567 -8Q336 34 209 214T82 680Q82 921 170 1107T416 1394T770 1495Q926 1495 1079 1448V1231H1071Q920 1282 780 1282Q568 1282 458 1128T348 676Q348 519 395 409T527 243T729 186Q819 186 895 208T1051 274H1059V55Q921 -20 705 -20H702Q806 -33 853 -79T901 -203Q901 -294 830 -350T639 -406Q548 -406 492 -379V-236H502Q553 -260 635 -260Q743 -260 743 -197Z"  />
<glyph unicode="&#xC8;" horiz-adv-x="1051" d="M160 1475H958V1264H416V850H907V643H416V211H969V0H160V1475ZM697 1593H527Q390 1727 273 1902V1925H537Q597 1786 627 1728T697 1607V1593Z"  />
<glyph unicode="&#xC9;" horiz-adv-x="1051" d="M160 1475H958V1264H416V850H907V643H416V211H969V0H160V1475ZM440 1607Q483 1677 513 1736T600 1925H864V1902Q747 1727 610 1593H440V1607Z"  />
<glyph unicode="&#xCA;" horiz-adv-x="1051" d="M160 1475H958V1264H416V850H907V643H416V211H969V0H160V1475ZM873 1593H705Q630 1712 566 1751Q497 1701 428 1593H260V1628Q358 1806 506 1925H627Q781 1795 873 1628V1593Z"  />
<glyph unicode="&#xCB;" horiz-adv-x="1051" d="M160 1475H958V1264H416V850H907V643H416V211H969V0H160V1475ZM260 1755Q260 1815 292 1846T377 1878Q431 1878 463 1847T496 1755Q496 1696 465 1665T377 1634Q325 1634 293 1665T260 1755ZM637 1755Q637 1815 668 1846T754 1878Q807 1878 840 1847T873 1755Q873 1696 841 1665T756 1634Q700 1634 669 1665T637 1755Z"  />
<glyph unicode="&#xCC;" horiz-adv-x="575" d="M160 0V1475H416V0H160ZM461 1593H291Q154 1727 37 1902V1925H301Q361 1786 391 1728T461 1607V1593Z"  />
<glyph unicode="&#xCD;" horiz-adv-x="575" d="M160 0V1475H416V0H160ZM121 1607Q164 1677 194 1736T281 1925H545V1902Q428 1727 291 1593H121V1607Z"  />
<glyph unicode="&#xCE;" horiz-adv-x="575" d="M160 0V1475H416V0H160ZM596 1593H428Q353 1712 289 1751Q220 1701 151 1593H-17V1628Q81 1806 229 1925H350Q504 1795 596 1628V1593Z"  />
<glyph unicode="&#xCF;" horiz-adv-x="575" d="M160 0V1475H416V0H160ZM-17 1755Q-17 1815 15 1846T100 1878Q154 1878 186 1847T219 1755Q219 1696 188 1665T100 1634Q48 1634 16 1665T-17 1755ZM360 1755Q360 1815 391 1846T477 1878Q530 1878 563 1847T596 1755Q596 1696 564 1665T479 1634Q423 1634 392 1665T360 1755Z"  />
<glyph unicode="&#xD0;" horiz-adv-x="1370" d="M160 0V643H20V850H160V1464Q311 1495 549 1495Q901 1495 1094 1308T1288 776Q1288 538 1199 363T942 94T553 0H160ZM1020 758Q1020 1296 524 1296Q465 1296 416 1290V850H686V643H416V209H532Q774 209 897 349T1020 758Z"  />
<glyph unicode="&#xD1;" horiz-adv-x="1399" d="M1239 1475V0H946L393 1116H375Q397 775 397 565V0H160V1475H463L1008 375H1026Q997 619 997 887V1475H1239ZM846 1597Q767 1597 670 1673Q605 1722 586 1722Q564 1722 547 1688T526 1597H367Q367 1737 429 1820T588 1904Q624 1904 656 1892T758 1830Q798 1801 817 1792T850 1783Q870 1783 887 1814T907 1904H1069Q1065 1761 1003 1679T846 1597Z"  />
<glyph unicode="&#xD2;" horiz-adv-x="1417" d="M705 -20Q513 -20 373 66T158 320T82 723Q82 948 162 1123T387 1397T713 1495Q905 1495 1045 1409T1260 1155T1335 754Q1335 529 1255 352T1031 77T705 -20ZM713 1288Q542 1288 445 1135T348 723Q348 478 443 332T707 186Q875 186 972 339T1069 754Q1069 1007 976 1147T713 1288ZM881 1593H711Q574 1727 457 1902V1925H721Q781 1786 811 1728T881 1607V1593Z"  />
<glyph unicode="&#xD3;" horiz-adv-x="1417" d="M705 -20Q513 -20 373 66T158 320T82 723Q82 948 162 1123T387 1397T713 1495Q905 1495 1045 1409T1260 1155T1335 754Q1335 529 1255 352T1031 77T705 -20ZM713 1288Q542 1288 445 1135T348 723Q348 478 443 332T707 186Q875 186 972 339T1069 754Q1069 1007 976 1147T713 1288ZM539 1607Q582 1677 612 1736T699 1925H963V1902Q846 1727 709 1593H539V1607Z"  />
<glyph unicode="&#xD4;" horiz-adv-x="1417" d="M705 -20Q513 -20 373 66T158 320T82 723Q82 948 162 1123T387 1397T713 1495Q905 1495 1045 1409T1260 1155T1335 754Q1335 529 1255 352T1031 77T705 -20ZM713 1288Q542 1288 445 1135T348 723Q348 478 443 332T707 186Q875 186 972 339T1069 754Q1069 1007 976 1147T713 1288ZM1016 1593H848Q773 1712 709 1751Q640 1701 571 1593H403V1628Q501 1806 649 1925H770Q924 1795 1016 1628V1593Z"  />
<glyph unicode="&#xD5;" horiz-adv-x="1417" d="M705 -20Q513 -20 373 66T158 320T82 723Q82 948 162 1123T387 1397T713 1495Q905 1495 1045 1409T1260 1155T1335 754Q1335 529 1255 352T1031 77T705 -20ZM713 1288Q542 1288 445 1135T348 723Q348 478 443 332T707 186Q875 186 972 339T1069 754Q1069 1007 976 1147T713 1288ZM848 1597Q769 1597 672 1673Q607 1722 588 1722Q566 1722 549 1688T528 1597H369Q369 1737 431 1820T590 1904Q626 1904 658 1892T760 1830Q800 1801 819 1792T852 1783Q872 1783 889 1814T909 1904H1071Q1067 1761 1005 1679T848 1597Z"  />
<glyph unicode="&#xD6;" horiz-adv-x="1417" d="M705 -20Q513 -20 373 66T158 320T82 723Q82 948 162 1123T387 1397T713 1495Q905 1495 1045 1409T1260 1155T1335 754Q1335 529 1255 352T1031 77T705 -20ZM713 1288Q542 1288 445 1135T348 723Q348 478 443 332T707 186Q875 186 972 339T1069 754Q1069 1007 976 1147T713 1288ZM405 1755Q405 1815 437 1846T522 1878Q576 1878 608 1847T641 1755Q641 1696 610 1665T522 1634Q470 1634 438 1665T405 1755ZM782 1755Q782 1815 813 1846T899 1878Q952 1878 985 1847T1018 1755Q1018 1696 986 1665T901 1634Q845 1634 814 1665T782 1755Z"  />
<glyph unicode="&#xD7;" horiz-adv-x="1198" d="M145 395L475 725L145 1055L270 1178L598 850L928 1180L1053 1055L723 725L1051 399L928 274L598 602L270 274L145 395Z"  />
<glyph unicode="&#xD8;" horiz-adv-x="1417" d="M705 -20Q512 -20 373 66L315 -20H106L242 180Q82 376 82 723Q82 948 162 1123T387 1397T713 1495Q916 1495 1057 1401L1120 1495H1325L1184 1282Q1335 1091 1335 754Q1335 529 1255 352T1031 77T705 -20ZM713 1288Q542 1288 445 1135T348 723Q348 546 399 418L928 1206Q837 1288 713 1288ZM707 186Q875 186 972 339T1069 754Q1069 921 1026 1044L504 262Q586 186 707 186Z"  />
<glyph unicode="&#xD9;" horiz-adv-x="1323" d="M565 -20Q354 -20 253 111T152 537V1475H408V563Q408 366 459 276T614 186Q762 186 835 351T909 879V1475H1163V565Q1163 435 1171 319T1210 0H983Q955 171 952 281H944Q839 -20 565 -20ZM836 1593H666Q529 1727 412 1902V1925H676Q736 1786 766 1728T836 1607V1593Z"  />
<glyph unicode="&#xDA;" horiz-adv-x="1323" d="M565 -20Q354 -20 253 111T152 537V1475H408V563Q408 366 459 276T614 186Q762 186 835 351T909 879V1475H1163V565Q1163 435 1171 319T1210 0H983Q955 171 952 281H944Q839 -20 565 -20ZM494 1607Q537 1677 567 1736T654 1925H918V1902Q801 1727 664 1593H494V1607Z"  />
<glyph unicode="&#xDB;" horiz-adv-x="1323" d="M565 -20Q354 -20 253 111T152 537V1475H408V563Q408 366 459 276T614 186Q762 186 835 351T909 879V1475H1163V565Q1163 435 1171 319T1210 0H983Q955 171 952 281H944Q839 -20 565 -20ZM969 1593H801Q726 1712 662 1751Q593 1701 524 1593H356V1628Q454 1806 602 1925H723Q877 1795 969 1628V1593Z"  />
<glyph unicode="&#xDC;" horiz-adv-x="1323" d="M565 -20Q354 -20 253 111T152 537V1475H408V563Q408 366 459 276T614 186Q762 186 835 351T909 879V1475H1163V565Q1163 435 1171 319T1210 0H983Q955 171 952 281H944Q839 -20 565 -20ZM356 1755Q356 1815 388 1846T473 1878Q527 1878 559 1847T592 1755Q592 1696 561 1665T473 1634Q421 1634 389 1665T356 1755ZM733 1755Q733 1815 764 1846T850 1878Q903 1878 936 1847T969 1755Q969 1696 937 1665T852 1634Q796 1634 765 1665T733 1755Z"  />
<glyph unicode="&#xDD;" horiz-adv-x="1114" d="M430 0V483Q257 664 163 916T68 1462V1475H324V1464Q324 1207 382 1016T555 684H563Q675 823 736 1014T797 1464V1475H1047V1462Q1047 1180 952 927T686 487V0H430ZM408 1607Q451 1677 481 1736T568 1925H832V1902Q715 1727 578 1593H408V1607Z"  />
<glyph unicode="&#xDE;" horiz-adv-x="1153" d="M1071 797Q1071 563 918 422T506 281H416V0H160V1475H416V1233Q456 1237 512 1237Q790 1237 930 1122T1071 797ZM805 782Q805 1036 512 1036Q458 1036 416 1026V481H473Q629 481 717 560T805 782Z"  />
<glyph unicode="&#xDF;" horiz-adv-x="1296" d="M563 825Q563 900 592 957T685 1068Q749 1121 778 1170T807 1282Q807 1357 762 1399T639 1442Q530 1442 469 1364T408 1145V53Q408 -87 363 -185T237 -334T53 -385Q-26 -385 -104 -356V-172H-96Q-59 -186 -4 -186Q80 -186 121 -125T162 80V1133Q162 1365 294 1501T651 1638Q836 1638 944 1543T1053 1290Q1053 1206 1022 1141T930 1024Q856 960 832 923T807 840Q807 795 848 754T1009 632Q1210 495 1210 307Q1210 149 1114 62T848 -25Q676 -25 537 47V244H545L600 219Q704 170 817 170Q969 170 969 289Q969 334 939 376T841 465Q698 562 654 608T587 708T563 825Z"  />
<glyph unicode="&#xE0;" horiz-adv-x="1120" d="M954 453Q954 335 963 274T992 188T1061 162V0Q999 -20 938 -20Q850 -20 797 42T739 203H731Q678 89 604 35T422 -20Q323 -20 247 41T132 215T94 483Q94 786 247 961T666 1137Q812 1137 954 1092V453ZM498 182Q588 182 652 317T717 631V924Q683 934 633 934Q493 934 419 824T344 510Q344 348 383 265T498 182ZM731 1233H561Q424 1367 307 1542V1565H571Q631 1426 661 1368T731 1247V1233Z"  />
<glyph unicode="&#xE1;" horiz-adv-x="1120" d="M954 453Q954 335 963 274T992 188T1061 162V0Q999 -20 938 -20Q850 -20 797 42T739 203H731Q678 89 604 35T422 -20Q323 -20 247 41T132 215T94 483Q94 786 247 961T666 1137Q812 1137 954 1092V453ZM498 182Q588 182 652 317T717 631V924Q683 934 633 934Q493 934 419 824T344 510Q344 348 383 265T498 182ZM451 1247Q494 1317 524 1376T611 1565H875V1542Q758 1367 621 1233H451V1247Z"  />
<glyph unicode="&#xE2;" horiz-adv-x="1120" d="M954 453Q954 335 963 274T992 188T1061 162V0Q999 -20 938 -20Q850 -20 797 42T739 203H731Q678 89 604 35T422 -20Q323 -20 247 41T132 215T94 483Q94 786 247 961T666 1137Q812 1137 954 1092V453ZM498 182Q588 182 652 317T717 631V924Q683 934 633 934Q493 934 419 824T344 510Q344 348 383 265T498 182ZM901 1233H733Q658 1352 594 1391Q525 1341 456 1233H288V1268Q386 1446 534 1565H655Q809 1435 901 1268V1233Z"  />
<glyph unicode="&#xE3;" horiz-adv-x="1120" d="M954 453Q954 335 963 274T992 188T1061 162V0Q999 -20 938 -20Q850 -20 797 42T739 203H731Q678 89 604 35T422 -20Q323 -20 247 41T132 215T94 483Q94 786 247 961T666 1137Q812 1137 954 1092V453ZM498 182Q588 182 652 317T717 631V924Q683 934 633 934Q493 934 419 824T344 510Q344 348 383 265T498 182ZM735 1237Q656 1237 559 1313Q494 1362 475 1362Q453 1362 436 1328T415 1237H256Q256 1377 318 1460T477 1544Q513 1544 545 1532T647 1470Q687 1441 706 1432T739 1423Q759 1423 776 1454T796 1544H958Q954 1401 892 1319T735 1237Z"  />
<glyph unicode="&#xE4;" horiz-adv-x="1120" d="M954 453Q954 335 963 274T992 188T1061 162V0Q999 -20 938 -20Q850 -20 797 42T739 203H731Q678 89 604 35T422 -20Q323 -20 247 41T132 215T94 483Q94 786 247 961T666 1137Q812 1137 954 1092V453ZM498 182Q588 182 652 317T717 631V924Q683 934 633 934Q493 934 419 824T344 510Q344 348 383 265T498 182ZM307 1395Q307 1455 339 1486T424 1518Q478 1518 510 1487T543 1395Q543 1336 512 1305T424 1274Q372 1274 340 1305T307 1395ZM684 1395Q684 1455 715 1486T801 1518Q854 1518 887 1487T920 1395Q920 1336 888 1305T803 1274Q747 1274 716 1305T684 1395Z"  />
<glyph unicode="&#xE5;" horiz-adv-x="1120" d="M954 453Q954 335 963 274T992 188T1061 162V0Q999 -20 938 -20Q850 -20 797 42T739 203H731Q678 89 604 35T422 -20Q323 -20 247 41T132 215T94 483Q94 786 247 961T666 1137Q812 1137 954 1092V453ZM498 182Q588 182 652 317T717 631V924Q683 934 633 934Q493 934 419 824T344 510Q344 348 383 265T498 182ZM362 1468Q362 1571 431 1637T602 1704Q702 1704 770 1638T839 1468Q839 1363 771 1297T602 1231Q501 1231 432 1297T362 1468ZM505 1468Q505 1428 533 1402T602 1376Q642 1376 669 1401T696 1468Q696 1510 669 1534T602 1559Q561 1559 533 1535T505 1468Z"  />
<glyph unicode="&#xE6;" horiz-adv-x="1599" d="M928 446Q939 321 1010 253T1194 184Q1243 184 1285 192T1365 213T1483 266H1493V68Q1402 19 1322 0T1143 -20Q1038 -20 944 23T784 154Q700 52 619 14T424 -25Q277 -25 186 61T94 295Q94 407 150 489T308 614T537 657Q605 657 682 645V758Q682 842 639 885T492 928Q426 928 346 906T199 846H188V1040Q351 1137 557 1137Q765 1137 860 1010Q995 1137 1188 1137Q1342 1137 1434 1054T1526 831Q1526 639 1384 543T963 446H928ZM584 492Q471 492 407 445T342 309Q342 244 383 206T492 168Q632 168 713 293Q684 379 680 483Q623 492 584 492ZM926 625Q1123 625 1203 670T1284 821Q1284 874 1259 908T1176 942Q1111 942 1057 905T968 797T926 625Z"  />
<glyph unicode="&#xE7;" horiz-adv-x="915" d="M594 -197Q594 -165 564 -151T477 -133L385 -127L420 -2Q265 43 180 176T94 508Q94 798 236 967T623 1137Q765 1137 850 1110V901H842Q729 942 637 942Q494 942 419 838T344 528Q344 363 415 269T604 174Q667 174 719 191T834 248H842V53Q769 11 704 -4T557 -20H553Q657 -33 704 -79T752 -203Q752 -293 681 -349T489 -406Q398 -406 342 -379V-236H352Q403 -260 485 -260Q594 -260 594 -197Z"  />
<glyph unicode="&#xE8;" horiz-adv-x="1026" d="M344 625Q539 625 620 669T702 821Q702 874 677 908T594 942Q529 942 475 905T386 797T344 625ZM348 446Q357 324 426 254T612 184Q661 184 703 192T783 213T901 266H911V68Q820 19 740 0T561 -20Q422 -20 316 44T152 228T94 514Q94 700 158 842T340 1060T606 1137Q760 1137 852 1054T944 831Q944 639 802 543T381 446H348ZM721 1233H551Q414 1367 297 1542V1565H561Q621 1426 651 1368T721 1247V1233Z"  />
<glyph unicode="&#xE9;" horiz-adv-x="1026" d="M344 625Q539 625 620 669T702 821Q702 874 677 908T594 942Q529 942 475 905T386 797T344 625ZM348 446Q357 324 426 254T612 184Q661 184 703 192T783 213T901 266H911V68Q820 19 740 0T561 -20Q422 -20 316 44T152 228T94 514Q94 700 158 842T340 1060T606 1137Q760 1137 852 1054T944 831Q944 639 802 543T381 446H348ZM426 1247Q469 1317 499 1376T586 1565H850V1542Q733 1367 596 1233H426V1247Z"  />
<glyph unicode="&#xEA;" horiz-adv-x="1026" d="M344 625Q539 625 620 669T702 821Q702 874 677 908T594 942Q529 942 475 905T386 797T344 625ZM348 446Q357 324 426 254T612 184Q661 184 703 192T783 213T901 266H911V68Q820 19 740 0T561 -20Q422 -20 316 44T152 228T94 514Q94 700 158 842T340 1060T606 1137Q760 1137 852 1054T944 831Q944 639 802 543T381 446H348ZM877 1233H709Q634 1352 570 1391Q501 1341 432 1233H264V1268Q362 1446 510 1565H631Q785 1435 877 1268V1233Z"  />
<glyph unicode="&#xEB;" horiz-adv-x="1026" d="M344 625Q539 625 620 669T702 821Q702 874 677 908T594 942Q529 942 475 905T386 797T344 625ZM348 446Q357 324 426 254T612 184Q661 184 703 192T783 213T901 266H911V68Q820 19 740 0T561 -20Q422 -20 316 44T152 228T94 514Q94 700 158 842T340 1060T606 1137Q760 1137 852 1054T944 831Q944 639 802 543T381 446H348ZM258 1395Q258 1455 290 1486T375 1518Q429 1518 461 1487T494 1395Q494 1336 463 1305T375 1274Q323 1274 291 1305T258 1395ZM635 1395Q635 1455 666 1486T752 1518Q805 1518 838 1487T871 1395Q871 1336 839 1305T754 1274Q698 1274 667 1305T635 1395Z"  />
<glyph unicode="&#xEC;" horiz-adv-x="580" d="M162 1114H408V377Q408 290 417 244T446 180T514 162V0Q450 -20 385 -20Q275 -20 219 55T162 272V1114ZM420 1233H250Q113 1367 -4 1542V1565H260Q320 1426 350 1368T420 1247V1233Z"  />
<glyph unicode="&#xED;" horiz-adv-x="580" d="M162 1114H408V377Q408 290 417 244T446 180T514 162V0Q450 -20 385 -20Q275 -20 219 55T162 272V1114ZM160 1247Q203 1317 233 1376T320 1565H584V1542Q467 1367 330 1233H160V1247Z"  />
<glyph unicode="&#xEE;" horiz-adv-x="580" d="M162 1114H408V377Q408 290 417 244T446 180T514 162V0Q450 -20 385 -20Q275 -20 219 55T162 272V1114ZM596 1233H428Q353 1352 289 1391Q220 1341 151 1233H-17V1268Q81 1446 229 1565H350Q504 1435 596 1268V1233Z"  />
<glyph unicode="&#xEF;" horiz-adv-x="580" d="M162 1114H408V377Q408 290 417 244T446 180T514 162V0Q450 -20 385 -20Q275 -20 219 55T162 272V1114ZM-19 1395Q-19 1455 13 1486T98 1518Q152 1518 184 1487T217 1395Q217 1336 186 1305T98 1274Q46 1274 14 1305T-19 1395ZM358 1395Q358 1455 389 1486T475 1518Q528 1518 561 1487T594 1395Q594 1336 562 1305T477 1274Q421 1274 390 1305T358 1395Z"  />
<glyph unicode="&#xF0;" horiz-adv-x="1137" d="M352 1300L469 1368Q385 1408 266 1417V1618Q508 1600 676 1487L905 1618V1415L817 1364Q1042 1110 1042 633Q1042 433 984 285T816 59T561 -20Q342 -20 218 109T94 479Q94 652 150 781T311 979T549 1049Q674 1049 762 977Q723 1147 625 1253L352 1098V1300ZM559 174Q671 174 731 272T791 549Q791 693 735 773T573 854Q463 854 403 756T342 481Q342 333 399 254T559 174Z"  />
<glyph unicode="&#xF1;" horiz-adv-x="1180" d="M408 0H162V696Q162 974 147 1114H362Q369 1086 379 986T389 836H397Q453 991 532 1063T739 1135Q867 1135 937 1050T1008 807V377Q1008 251 1030 208T1116 164V4Q1049 -16 985 -16Q878 -16 820 57T762 276V791Q762 926 668 926Q596 926 535 825T441 552T408 193V0ZM725 1237Q646 1237 549 1313Q484 1362 465 1362Q443 1362 426 1328T405 1237H246Q246 1377 308 1460T467 1544Q503 1544 535 1532T637 1470Q677 1441 696 1432T729 1423Q749 1423 766 1454T786 1544H948Q944 1401 882 1319T725 1237Z"  />
<glyph unicode="&#xF2;" horiz-adv-x="1137" d="M578 1135Q796 1135 919 995T1042 596Q1042 310 911 145T557 -20Q339 -20 217 120T94 520Q94 808 221 971T578 1135ZM561 174Q675 174 733 282T791 596Q791 760 735 850T573 940Q463 940 404 831T344 520Q344 360 402 267T561 174ZM719 1233H549Q412 1367 295 1542V1565H559Q619 1426 649 1368T719 1247V1233Z"  />
<glyph unicode="&#xF3;" horiz-adv-x="1137" d="M578 1135Q796 1135 919 995T1042 596Q1042 310 911 145T557 -20Q339 -20 217 120T94 520Q94 808 221 971T578 1135ZM561 174Q675 174 733 282T791 596Q791 760 735 850T573 940Q463 940 404 831T344 520Q344 360 402 267T561 174ZM418 1247Q461 1317 491 1376T578 1565H842V1542Q725 1367 588 1233H418V1247Z"  />
<glyph unicode="&#xF4;" horiz-adv-x="1137" d="M578 1135Q796 1135 919 995T1042 596Q1042 310 911 145T557 -20Q339 -20 217 120T94 520Q94 808 221 971T578 1135ZM561 174Q675 174 733 282T791 596Q791 760 735 850T573 940Q463 940 404 831T344 520Q344 360 402 267T561 174ZM881 1233H713Q638 1352 574 1391Q505 1341 436 1233H268V1268Q366 1446 514 1565H635Q789 1435 881 1268V1233Z"  />
<glyph unicode="&#xF5;" horiz-adv-x="1137" d="M578 1135Q796 1135 919 995T1042 596Q1042 310 911 145T557 -20Q339 -20 217 120T94 520Q94 808 221 971T578 1135ZM561 174Q675 174 733 282T791 596Q791 760 735 850T573 940Q463 940 404 831T344 520Q344 360 402 267T561 174ZM705 1237Q626 1237 529 1313Q464 1362 445 1362Q423 1362 406 1328T385 1237H226Q226 1377 288 1460T447 1544Q483 1544 515 1532T617 1470Q657 1441 676 1432T709 1423Q729 1423 746 1454T766 1544H928Q924 1401 862 1319T705 1237Z"  />
<glyph unicode="&#xF6;" horiz-adv-x="1137" d="M578 1135Q796 1135 919 995T1042 596Q1042 310 911 145T557 -20Q339 -20 217 120T94 520Q94 808 221 971T578 1135ZM561 174Q675 174 733 282T791 596Q791 760 735 850T573 940Q463 940 404 831T344 520Q344 360 402 267T561 174ZM268 1395Q268 1455 300 1486T385 1518Q439 1518 471 1487T504 1395Q504 1336 473 1305T385 1274Q333 1274 301 1305T268 1395ZM645 1395Q645 1455 676 1486T762 1518Q815 1518 848 1487T881 1395Q881 1336 849 1305T764 1274Q708 1274 677 1305T645 1395Z"  />
<glyph unicode="&#xF7;" horiz-adv-x="1198" d="M133 813H1065V639H133V813ZM461 1122Q461 1185 500 1222T598 1260Q657 1260 696 1222T735 1122Q735 1059 696 1022T598 985Q540 985 501 1022T461 1122ZM461 330Q461 393 500 430T598 467Q656 467 695 430T735 330Q735 267 696 230T598 193Q540 193 501 230T461 330Z"  />
<glyph unicode="&#xF8;" horiz-adv-x="1137" d="M578 1135Q703 1135 809 1081L848 1141H1053L940 969Q1042 830 1042 596Q1042 310 911 145T557 -20Q428 -20 328 31L293 -20H84L195 147Q94 286 94 520Q94 808 221 971T578 1135ZM573 940Q463 940 404 831T344 520Q344 449 354 391L690 899Q640 940 573 940ZM561 174Q675 174 733 282T791 596Q791 661 780 723L446 215Q494 174 561 174Z"  />
<glyph unicode="&#xF9;" horiz-adv-x="1169" d="M459 -20Q313 -20 235 81T156 367V1114H401V451Q401 315 426 253T518 190Q629 190 691 361T754 856V1114H997V393Q997 300 1006 252T1035 184T1106 164V4Q1035 -16 977 -16Q877 -16 822 44T764 211H756Q718 97 646 39T459 -20ZM736 1233H566Q429 1367 312 1542V1565H576Q636 1426 666 1368T736 1247V1233Z"  />
<glyph unicode="&#xFA;" horiz-adv-x="1169" d="M459 -20Q313 -20 235 81T156 367V1114H401V451Q401 315 426 253T518 190Q629 190 691 361T754 856V1114H997V393Q997 300 1006 252T1035 184T1106 164V4Q1035 -16 977 -16Q877 -16 822 44T764 211H756Q718 97 646 39T459 -20ZM434 1247Q477 1317 507 1376T594 1565H858V1542Q741 1367 604 1233H434V1247Z"  />
<glyph unicode="&#xFB;" horiz-adv-x="1169" d="M459 -20Q313 -20 235 81T156 367V1114H401V451Q401 315 426 253T518 190Q629 190 691 361T754 856V1114H997V393Q997 300 1006 252T1035 184T1106 164V4Q1035 -16 977 -16Q877 -16 822 44T764 211H756Q718 97 646 39T459 -20ZM891 1233H723Q648 1352 584 1391Q515 1341 446 1233H278V1268Q376 1446 524 1565H645Q799 1435 891 1268V1233Z"  />
<glyph unicode="&#xFC;" horiz-adv-x="1169" d="M459 -20Q313 -20 235 81T156 367V1114H401V451Q401 315 426 253T518 190Q629 190 691 361T754 856V1114H997V393Q997 300 1006 252T1035 184T1106 164V4Q1035 -16 977 -16Q877 -16 822 44T764 211H756Q718 97 646 39T459 -20ZM278 1395Q278 1455 310 1486T395 1518Q449 1518 481 1487T514 1395Q514 1336 483 1305T395 1274Q343 1274 311 1305T278 1395ZM655 1395Q655 1455 686 1486T772 1518Q825 1518 858 1487T891 1395Q891 1336 859 1305T774 1274Q718 1274 687 1305T655 1395Z"  />
<glyph unicode="&#xFD;" horiz-adv-x="1157" d="M401 1114V481Q401 363 429 305T520 246Q642 246 699 405T756 877V1114H1001V88Q1001 -150 883 -267T508 -385Q327 -385 178 -303V-94H186Q281 -141 324 -156T414 -181T516 -190Q762 -190 762 70Q762 179 772 272L762 274Q705 148 629 91T444 33Q307 33 232 135T156 420V1114H401ZM428 1247Q471 1317 501 1376T588 1565H852V1542Q735 1367 598 1233H428V1247Z"  />
<glyph unicode="&#xFE;" horiz-adv-x="1161" d="M1067 606Q1067 419 1009 277T848 58T623 -20Q499 -20 408 51V-385H162V1599H408V1270Q408 1051 385 840H393Q441 984 518 1059T713 1135Q822 1135 900 1075T1022 899T1067 606ZM670 926Q601 926 538 834T437 583T399 229Q473 170 582 170Q695 170 757 280T819 586Q819 765 783 845T670 926Z"  />
<glyph unicode="&#xFF;" horiz-adv-x="1157" d="M401 1114V481Q401 363 429 305T520 246Q642 246 699 405T756 877V1114H1001V88Q1001 -150 883 -267T508 -385Q327 -385 178 -303V-94H186Q281 -141 324 -156T414 -181T516 -190Q762 -190 762 70Q762 179 772 272L762 274Q705 148 629 91T444 33Q307 33 232 135T156 420V1114H401ZM272 1395Q272 1455 304 1486T389 1518Q443 1518 475 1487T508 1395Q508 1336 477 1305T389 1274Q337 1274 305 1305T272 1395ZM649 1395Q649 1455 680 1486T766 1518Q819 1518 852 1487T885 1395Q885 1336 853 1305T768 1274Q712 1274 681 1305T649 1395Z"  />
<glyph unicode="&#x131;" horiz-adv-x="580" d="M162 1114H408V377Q408 290 417 244T446 180T514 162V0Q450 -20 385 -20Q275 -20 219 55T162 272V1114Z"  />
<glyph unicode="&#x152;" horiz-adv-x="1673" d="M705 -16Q408 -16 245 178T82 723Q82 950 160 1124T384 1395T713 1491Q766 1491 883 1475H1581V1264H1038V850H1530V643H1038V211H1591V0H885Q811 -16 705 -16ZM713 1284Q540 1284 444 1133T348 723Q348 477 444 334T707 190Q740 190 782 197V1280Q748 1284 713 1284Z"  />
<glyph unicode="&#x153;" horiz-adv-x="1716" d="M578 1135Q812 1135 938 971Q1007 1052 1101 1094T1305 1137Q1459 1137 1550 1055T1642 831Q1642 639 1500 543T1079 446H1047Q1056 324 1125 254T1311 184Q1376 184 1439 200T1599 266H1610V68Q1519 19 1440 0T1260 -20Q1153 -20 1062 19T905 137Q774 -20 557 -20Q339 -20 217 120T94 520Q94 808 221 971T578 1135ZM561 174Q675 174 733 282T791 596Q791 760 735 850T573 940Q463 940 404 831T344 520Q344 360 402 267T561 174ZM1042 625Q1240 625 1320 670T1401 821Q1401 874 1375 908T1292 942Q1190 942 1121 856T1042 625Z"  />
<glyph unicode="&#x160;" horiz-adv-x="993" d="M86 1100Q86 1282 214 1388T555 1495Q743 1495 893 1421V1200H883Q713 1284 553 1284Q455 1284 402 1240T348 1114Q348 1047 391 993T529 884Q674 801 731 760T829 668T895 551T920 395Q920 198 793 89T440 -20Q206 -20 61 59V274H74Q138 237 236 212T422 186Q536 186 596 235T657 375Q657 449 613 508T477 620Q337 700 277 741T177 832T111 947T86 1100ZM198 1925H366Q438 1804 504 1767Q574 1817 643 1925H811V1890Q714 1717 565 1593H444Q284 1724 198 1890V1925Z"  />
<glyph unicode="&#x161;" horiz-adv-x="864" d="M94 815Q94 913 138 984T262 1095T442 1135Q526 1135 596 1125T741 1087V885H733Q670 910 607 926T465 942Q334 942 334 840Q334 790 378 748T556 630Q665 568 721 488T778 307Q778 149 682 62T416 -25Q330 -25 239 -7T78 47V244H86Q180 202 251 186T385 170Q537 170 537 289Q537 368 397 451Q269 526 213 574T125 683T94 815ZM126 1565H294Q366 1444 432 1407Q502 1457 571 1565H739V1530Q642 1357 493 1233H372Q212 1364 126 1530V1565Z"  />
<glyph unicode="&#x178;" horiz-adv-x="1114" d="M430 0V483Q257 664 163 916T68 1462V1475H324V1464Q324 1207 382 1016T555 684H563Q675 823 736 1014T797 1464V1475H1047V1462Q1047 1180 952 927T686 487V0H430ZM249 1755Q249 1815 281 1846T366 1878Q420 1878 452 1847T485 1755Q485 1696 454 1665T366 1634Q314 1634 282 1665T249 1755ZM626 1755Q626 1815 657 1846T743 1878Q796 1878 829 1847T862 1755Q862 1696 830 1665T745 1634Q689 1634 658 1665T626 1755Z"  />
<glyph unicode="&#x17D;" horiz-adv-x="997" d="M616 1260V1268Q477 1255 365 1255H106V1475H928V1362L371 213V205Q474 219 641 219H911V0H66V131L616 1260ZM213 1925H381Q453 1804 519 1767Q589 1817 658 1925H826V1890Q729 1717 580 1593H459Q299 1724 213 1890V1925Z"  />
<glyph unicode="&#x17E;" horiz-adv-x="889" d="M82 0V152L485 922V930Q385 920 317 920H102V1114H756V958L352 193V184Q464 195 578 195H807V0H82ZM137 1565H305Q377 1444 443 1407Q513 1457 582 1565H750V1530Q653 1357 504 1233H383Q223 1364 137 1530V1565Z"  />
<glyph unicode="&#x192;" horiz-adv-x="989" d="M397 932H240V1067L420 1116L436 1229Q467 1437 568 1537T831 1638Q941 1638 1018 1614L993 1421H985Q930 1442 864 1442Q775 1442 733 1384T676 1202L666 1116H860V932H643L530 20Q504 -192 405 -305T143 -418Q52 -418 -6 -389V-205H4Q56 -223 123 -223Q192 -223 231 -163T289 47L397 932Z"  />
<glyph unicode="&#x2C6;" horiz-adv-x="666" d="M633 1233H465Q390 1352 326 1391Q257 1341 188 1233H20V1268Q118 1446 266 1565H387Q541 1435 633 1268V1233Z"  />
<glyph unicode="&#x2C7;" horiz-adv-x="666" d="M20 1565H188Q260 1444 326 1407Q396 1457 465 1565H633V1530Q536 1357 387 1233H266Q106 1364 20 1530V1565Z"  />
<glyph unicode="&#x2DA;" horiz-adv-x="666" d="M88 1468Q88 1571 157 1637T328 1704Q428 1704 496 1638T565 1468Q565 1363 497 1297T328 1231Q227 1231 158 1297T88 1468ZM231 1468Q231 1428 259 1402T328 1376Q368 1376 395 1401T422 1468Q422 1510 395 1534T328 1559Q287 1559 259 1535T231 1468Z"  />
<glyph unicode="&#x2DC;" horiz-adv-x="666" d="M463 1237Q384 1237 287 1313Q222 1362 203 1362Q181 1362 164 1328T143 1237H-16Q-16 1377 46 1460T205 1544Q241 1544 273 1532T375 1470Q415 1441 434 1432T467 1423Q487 1423 504 1454T524 1544H686Q682 1401 620 1319T463 1237Z"  />
<glyph unicode="&#x3BC;" horiz-adv-x="1176" d="M162 1114H408V412Q408 296 435 243T524 190Q635 190 697 361T760 856V1114H1004V393Q1004 302 1012 254T1041 185T1112 164V4Q1041 -16 983 -16Q883 -16 828 44T770 211H762Q722 93 654 40T479 -14Q436 -14 408 0L401 -2Q408 -91 408 -246V-385H162V1114Z"  />
<glyph unicode="&#x2013;" horiz-adv-x="1024" d="M61 655H963V469H61V655Z"  />
<glyph unicode="&#x2014;" horiz-adv-x="1610" d="M61 655H1548V469H61V655Z"  />
<glyph unicode="&#x2018;" horiz-adv-x="451" d="M451 1475V1464Q372 1392 331 1314T289 1139Q289 1043 326 969V958H68Q41 1027 41 1104Q41 1207 90 1304T231 1475H451Z"  />
<glyph unicode="&#x2019;" horiz-adv-x="451" d="M0 958V969Q78 1041 120 1119T162 1294Q162 1390 125 1464V1475H383Q410 1406 410 1329Q410 1226 361 1129T219 958H0Z"  />
<glyph unicode="&#x201A;" horiz-adv-x="451" d="M0 -240V-229Q78 -157 120 -79T162 96Q162 192 125 266V277H383Q410 208 410 131Q410 28 361 -69T219 -240H0Z"  />
<glyph unicode="&#x201C;" horiz-adv-x="911" d="M451 1475V1464Q372 1392 331 1314T289 1139Q289 1043 326 969V958H68Q41 1027 41 1104Q41 1207 90 1304T231 1475H451ZM911 1475V1464Q833 1392 792 1314T750 1139Q750 1045 786 969V958H528Q502 1025 502 1104Q502 1207 550 1304T692 1475H911Z"  />
<glyph unicode="&#x201D;" horiz-adv-x="911" d="M461 958V969Q539 1041 581 1119T623 1294Q623 1386 586 1464V1475H844Q870 1408 870 1329Q870 1226 822 1129T680 958H461ZM0 958V969Q78 1041 120 1119T162 1294Q162 1390 125 1464V1475H383Q410 1406 410 1329Q410 1226 361 1129T219 958H0Z"  />
<glyph unicode="&#x201E;" horiz-adv-x="911" d="M461 -240V-229Q539 -157 581 -79T623 96Q623 188 586 266V277H844Q870 210 870 131Q870 28 822 -69T680 -240H461ZM0 -240V-229Q78 -157 120 -79T162 96Q162 192 125 266V277H383Q410 208 410 131Q410 28 361 -69T219 -240H0Z"  />
<glyph unicode="&#x2020;" horiz-adv-x="1024" d="M139 1114H395L385 1475H639L629 1114H885V928H623L598 -20H426L399 928H139V1114Z"  />
<glyph unicode="&#x2021;" horiz-adv-x="1024" d="M139 1114H395L385 1475H639L629 1114H885V928H623L616 662H885V475H610L598 -20H426L412 475H139V662H408L399 928H139V1114Z"  />
<glyph unicode="&#x2022;" horiz-adv-x="989" d="M215 754Q215 868 296 951T494 1034Q609 1034 691 952T774 754Q774 638 692 556T494 473Q378 473 297 556T215 754Z"  />
<glyph unicode="&#x2026;" horiz-adv-x="1597" d="M98 139Q98 212 143 255T258 299Q327 299 372 255T418 139Q418 66 372 23T258 -20Q191 -20 145 22T98 139ZM639 139Q639 212 684 255T799 299Q869 299 913 255T958 139Q958 66 913 23T799 -20Q732 -20 686 22T639 139ZM1180 139Q1180 210 1224 254T1339 299Q1408 299 1453 255T1499 139Q1499 66 1453 23T1339 -20Q1271 -20 1226 23T1180 139Z"  />
<glyph unicode="&#x2030;" horiz-adv-x="2347" d="M1430 1475L436 0H219L1221 1475H1430ZM53 1036Q53 1259 129 1377T352 1495Q499 1495 572 1385T645 1036Q645 823 570 705T352 586Q194 586 124 699T53 1036ZM258 1038Q258 891 279 827T352 762Q400 762 419 823T438 1038Q438 1148 430 1207T405 1293T348 1319Q299 1319 279 1255T258 1038ZM1006 430Q1006 652 1082 770T1305 889Q1452 889 1524 779T1597 430Q1597 217 1522 99T1305 -20Q1147 -20 1077 92T1006 430ZM1210 432Q1210 285 1231 221T1305 156Q1353 156 1372 217T1391 432Q1391 542 1383 600T1357 686T1300 713Q1251 713 1231 649T1210 432ZM1702 430Q1702 653 1778 771T2001 889Q2149 889 2221 778T2294 430Q2294 217 2219 99T2001 -20Q1843 -20 1773 92T1702 430ZM1907 432Q1907 285 1928 221T2001 156Q2049 156 2068 217T2087 432Q2087 542 2079 601T2054 687T1997 713Q1948 713 1928 649T1907 432Z"  />
<glyph unicode="&#x2039;" horiz-adv-x="623" d="M301 123L76 559L301 995H539L297 561L539 123H301Z"  />
<glyph unicode="&#x203A;" horiz-adv-x="623" d="M322 995L547 559L322 123H84L326 557L84 995H322Z"  />
<glyph unicode="&#x20AC;" horiz-adv-x="1026" d="M68 657H211L209 699Q209 793 211 813H68V977H231Q280 1219 422 1357T760 1495Q893 1495 1008 1458V1249H999Q895 1294 793 1294Q547 1294 481 977H836V813H465Q461 779 461 735Q461 676 463 657H836V494H475Q499 338 567 259T745 180Q822 180 878 198T987 244H997V45Q884 -20 696 -20Q498 -20 379 111T223 494H68V657Z"  />
<glyph unicode="&#x2122;" horiz-adv-x="1616" d="M659 692V1475H938L1065 1087H1073L1202 1475H1475V692H1303V1079L1313 1335H1309L1135 817H989L817 1335H811L819 1069V692H659ZM209 692V1335H12V1475H580V1335H381V692H209Z"  />

<hkern u1="A" u2="T" k="102" />
<hkern u1="A" u2="U" k="20" />
<hkern u1="A" u2="V" k="61" />
<hkern u1="A" u2="W" k="41" />
<hkern u1="A" u2="Y" k="102" />
<hkern u1="A" u2="&apos;" k="122" />
<hkern u1="A" u2="&#x2019;" k="102" />
<hkern u1="A" u2="\" k="122" />
<hkern u1="&#xc6;" u2="J" k="-61" />
<hkern u1="&#xc6;" u2="&apos;" k="-20" />
<hkern u1="B" u2="T" k="20" />
<hkern u1="B" u2="V" k="20" />
<hkern u1="B" u2="X" k="20" />
<hkern u1="B" u2="Y" k="20" />
<hkern u1="C" u2="C" k="41" />
<hkern u1="C" u2="G" k="41" />
<hkern u1="C" u2="O" k="41" />
<hkern u1="C" u2="&#x152;" k="41" />
<hkern u1="C" u2="&apos;" k="-61" />
<hkern u1="C" u2="&#x2019;" k="-61" />
<hkern u1="C" u2="-" k="41" />
<hkern u1="C" u2=")" k="-41" />
<hkern u1="D" u2="&#xc6;" k="61" />
<hkern u1="D" u2="T" k="61" />
<hkern u1="D" u2="W" k="20" />
<hkern u1="D" u2="X" k="20" />
<hkern u1="D" u2="Y" k="41" />
<hkern u1="D" u2="Z" k="20" />
<hkern u1="D" u2="&#x2c;" k="61" />
<hkern u1="F" u2="A" k="61" />
<hkern u1="F" u2="&#xc6;" k="61" />
<hkern u1="F" u2="&amp;" k="41" />
<hkern u1="F" u2="a" k="20" />
<hkern u1="F" u2="c" k="20" />
<hkern u1="F" u2="d" k="20" />
<hkern u1="F" u2="&#xf0;" k="20" />
<hkern u1="F" u2="e" k="20" />
<hkern u1="F" u2="g" k="20" />
<hkern u1="F" u2="o" k="20" />
<hkern u1="F" u2="q" k="20" />
<hkern u1="F" u2="s" k="20" />
<hkern u1="F" u2="?" k="-41" />
<hkern u1="F" u2="&#x2c;" k="102" />
<hkern u1="F" u2="&apos;" k="-41" />
<hkern u1="F" u2="&#x2019;" k="-61" />
<hkern u1="F" u2=")" k="-41" />
<hkern u1="G" u2="&apos;" k="20" />
<hkern u1="K" u2="C" k="61" />
<hkern u1="K" u2="G" k="41" />
<hkern u1="K" u2="O" k="41" />
<hkern u1="K" u2="&#x152;" k="41" />
<hkern u1="K" u2="T" k="41" />
<hkern u1="K" u2="U" k="20" />
<hkern u1="K" u2="V" k="61" />
<hkern u1="K" u2="W" k="41" />
<hkern u1="K" u2="Y" k="61" />
<hkern u1="K" u2="c" k="20" />
<hkern u1="K" u2="&#xf0;" k="20" />
<hkern u1="K" u2="e" k="20" />
<hkern u1="K" u2="o" k="20" />
<hkern u1="K" u2="v" k="82" />
<hkern u1="K" u2="w" k="82" />
<hkern u1="K" u2="y" k="20" />
<hkern u1="K" u2="&apos;" k="-41" />
<hkern u1="K" u2="&#x2019;" k="41" />
<hkern u1="K" u2="-" k="61" />
<hkern u1="L" u2="C" k="20" />
<hkern u1="L" u2="G" k="20" />
<hkern u1="L" u2="O" k="20" />
<hkern u1="L" u2="&#x152;" k="20" />
<hkern u1="L" u2="T" k="122" />
<hkern u1="L" u2="U" k="20" />
<hkern u1="L" u2="V" k="122" />
<hkern u1="L" u2="W" k="102" />
<hkern u1="L" u2="Y" k="122" />
<hkern u1="L" u2="v" k="82" />
<hkern u1="L" u2="w" k="61" />
<hkern u1="L" u2="&apos;" k="102" />
<hkern u1="L" u2="&#x2019;" k="102" />
<hkern u1="L" u2="\" k="204" />
<hkern u1="L" u2="-" k="61" />
<hkern u1="O" u2="&#xc6;" k="41" />
<hkern u1="O" u2="X" k="41" />
<hkern u1="O" u2="Y" k="10" />
<hkern u1="O" u2="Z" k="20" />
<hkern u1="O" u2="&#x2c;" k="41" />
<hkern u1="P" u2="A" k="82" />
<hkern u1="P" u2="&#xc6;" k="82" />
<hkern u1="P" u2="C" k="20" />
<hkern u1="P" u2="G" k="20" />
<hkern u1="P" u2="O" k="20" />
<hkern u1="P" u2="&#x152;" k="20" />
<hkern u1="P" u2="X" k="20" />
<hkern u1="P" u2="Z" k="61" />
<hkern u1="P" u2="&amp;" k="61" />
<hkern u1="P" u2="a" k="41" />
<hkern u1="P" u2="c" k="51" />
<hkern u1="P" u2="d" k="41" />
<hkern u1="P" u2="&#xf0;" k="61" />
<hkern u1="P" u2="e" k="51" />
<hkern u1="P" u2="g" k="41" />
<hkern u1="P" u2="o" k="41" />
<hkern u1="P" u2="q" k="41" />
<hkern u1="P" u2="&#x2c;" k="204" />
<hkern u1="P" u2="&apos;" k="-20" />
<hkern u1="P" u2="&#x2019;" k="-41" />
<hkern u1="P" u2="/" k="143" />
<hkern u1="P" u2="-" k="41" />
<hkern u1="&#xde;" u2="A" k="10" />
<hkern u1="&#xde;" u2="Z" k="82" />
<hkern u1="&#xde;" u2="/" k="61" />
<hkern u1="R" u2="C" k="61" />
<hkern u1="R" u2="O" k="41" />
<hkern u1="R" u2="T" k="20" />
<hkern u1="R" u2="U" k="31" />
<hkern u1="R" u2="V" k="41" />
<hkern u1="R" u2="W" k="41" />
<hkern u1="R" u2="Y" k="41" />
<hkern u1="R" u2="c" k="20" />
<hkern u1="R" u2="&#xf0;" k="20" />
<hkern u1="R" u2="e" k="20" />
<hkern u1="R" u2="o" k="20" />
<hkern u1="R" u2="t" k="20" />
<hkern u1="R" u2="v" k="20" />
<hkern u1="R" u2="w" k="20" />
<hkern u1="R" u2="&apos;" k="41" />
<hkern u1="R" u2="/" k="-20" />
<hkern u1="R" u2="-" k="41" />
<hkern u1="S" u2="v" k="20" />
<hkern u1="S" u2="w" k="20" />
<hkern u1="S" u2="/" k="-41" />
<hkern u1="T" u2="A" k="102" />
<hkern u1="T" u2="&#xc6;" k="143" />
<hkern u1="T" u2="C" k="20" />
<hkern u1="T" u2="G" k="61" />
<hkern u1="T" u2="&#x152;" k="61" />
<hkern u1="T" u2="&amp;" k="102" />
<hkern u1="T" u2="a" k="143" />
<hkern u1="T" u2="&#xe6;" k="163" />
<hkern u1="T" u2="c" k="143" />
<hkern u1="T" u2="d" k="143" />
<hkern u1="T" u2="&#xf0;" k="143" />
<hkern u1="T" u2="e" k="143" />
<hkern u1="T" u2="g" k="143" />
<hkern u1="T" u2="m" k="122" />
<hkern u1="T" u2="n" k="122" />
<hkern u1="T" u2="o" k="143" />
<hkern u1="T" u2="p" k="122" />
<hkern u1="T" u2="q" k="143" />
<hkern u1="T" u2="r" k="122" />
<hkern u1="T" u2="s" k="143" />
<hkern u1="T" u2="&#x161;" k="122" />
<hkern u1="T" u2="u" k="122" />
<hkern u1="T" u2="v" k="102" />
<hkern u1="T" u2="w" k="102" />
<hkern u1="T" u2="x" k="102" />
<hkern u1="T" u2="y" k="122" />
<hkern u1="T" u2="z" k="102" />
<hkern u1="T" u2="?" k="-41" />
<hkern u1="T" u2="&#x2c;" k="102" />
<hkern u1="T" u2="&apos;" k="-82" />
<hkern u1="T" u2="&#x2019;" k="-82" />
<hkern u1="T" u2="/" k="82" />
<hkern u1="T" u2="\" k="-41" />
<hkern u1="T" u2="-" k="41" />
<hkern u1="U" u2="A" k="20" />
<hkern u1="U" u2="&#xc6;" k="41" />
<hkern u1="U" u2="&#x2c;" k="41" />
<hkern u1="V" u2="A" k="61" />
<hkern u1="V" u2="&#xc6;" k="122" />
<hkern u1="V" u2="&#x152;" k="41" />
<hkern u1="V" u2="&amp;" k="61" />
<hkern u1="V" u2="a" k="61" />
<hkern u1="V" u2="c" k="61" />
<hkern u1="V" u2="d" k="61" />
<hkern u1="V" u2="&#xf0;" k="61" />
<hkern u1="V" u2="e" k="61" />
<hkern u1="V" u2="g" k="61" />
<hkern u1="V" u2="m" k="41" />
<hkern u1="V" u2="n" k="41" />
<hkern u1="V" u2="o" k="61" />
<hkern u1="V" u2="p" k="41" />
<hkern u1="V" u2="q" k="61" />
<hkern u1="V" u2="r" k="41" />
<hkern u1="V" u2="s" k="20" />
<hkern u1="V" u2="u" k="41" />
<hkern u1="V" u2="y" k="41" />
<hkern u1="V" u2="?" k="-41" />
<hkern u1="V" u2="&#x2c;" k="102" />
<hkern u1="V" u2="&apos;" k="-82" />
<hkern u1="V" u2="&#x2019;" k="-82" />
<hkern u1="V" u2="/" k="122" />
<hkern u1="W" u2="A" k="41" />
<hkern u1="W" u2="&#xc6;" k="82" />
<hkern u1="W" u2="&#xd2;" k="20" />
<hkern u1="W" u2="&#xd3;" k="20" />
<hkern u1="W" u2="&#xd4;" k="20" />
<hkern u1="W" u2="&#xd6;" k="20" />
<hkern u1="W" u2="&#xd8;" k="20" />
<hkern u1="W" u2="&#x152;" k="20" />
<hkern u1="W" u2="&amp;" k="41" />
<hkern u1="W" u2="a" k="41" />
<hkern u1="W" u2="c" k="41" />
<hkern u1="W" u2="d" k="41" />
<hkern u1="W" u2="&#xf0;" k="41" />
<hkern u1="W" u2="e" k="41" />
<hkern u1="W" u2="g" k="41" />
<hkern u1="W" u2="m" k="20" />
<hkern u1="W" u2="n" k="20" />
<hkern u1="W" u2="o" k="41" />
<hkern u1="W" u2="p" k="20" />
<hkern u1="W" u2="q" k="41" />
<hkern u1="W" u2="r" k="20" />
<hkern u1="W" u2="s" k="10" />
<hkern u1="W" u2="u" k="20" />
<hkern u1="W" u2="y" k="20" />
<hkern u1="W" u2="&#x2c;" k="82" />
<hkern u1="W" u2="&apos;" k="-82" />
<hkern u1="W" u2="&#x2019;" k="-82" />
<hkern u1="W" u2="/" k="102" />
<hkern u1="X" u2="C" k="41" />
<hkern u1="X" u2="G" k="41" />
<hkern u1="X" u2="O" k="41" />
<hkern u1="X" u2="&#x152;" k="41" />
<hkern u1="X" u2="&apos;" k="-41" />
<hkern u1="X" u2="&#x2019;" k="-41" />
<hkern u1="Y" u2="A" k="102" />
<hkern u1="Y" u2="&#xc6;" k="143" />
<hkern u1="Y" u2="C" k="41" />
<hkern u1="Y" u2="G" k="41" />
<hkern u1="Y" u2="O" k="10" />
<hkern u1="Y" u2="&#x152;" k="41" />
<hkern u1="Y" u2="&amp;" k="102" />
<hkern u1="Y" u2="a" k="102" />
<hkern u1="Y" u2="c" k="102" />
<hkern u1="Y" u2="d" k="102" />
<hkern u1="Y" u2="&#xf0;" k="102" />
<hkern u1="Y" u2="e" k="102" />
<hkern u1="Y" u2="g" k="102" />
<hkern u1="Y" u2="m" k="41" />
<hkern u1="Y" u2="n" k="41" />
<hkern u1="Y" u2="o" k="102" />
<hkern u1="Y" u2="p" k="41" />
<hkern u1="Y" u2="q" k="102" />
<hkern u1="Y" u2="r" k="41" />
<hkern u1="Y" u2="s" k="51" />
<hkern u1="Y" u2="u" k="41" />
<hkern u1="Y" u2="y" k="41" />
<hkern u1="Y" u2="?" k="-41" />
<hkern u1="Y" u2="&#x2c;" k="163" />
<hkern u1="Y" u2="&apos;" k="-82" />
<hkern u1="Y" u2="&#x2019;" k="-82" />
<hkern u1="Y" u2="/" k="163" />
<hkern u1="Y" u2="-" k="41" />
<hkern u1="Z" u2="C" k="20" />
<hkern u1="Z" u2="G" k="20" />
<hkern u1="Z" u2="O" k="20" />
<hkern u1="Z" u2="&#x152;" k="41" />
<hkern u1="Z" u2="c" k="20" />
<hkern u1="Z" u2="&#xf0;" k="20" />
<hkern u1="Z" u2="e" k="20" />
<hkern u1="Z" u2="o" k="20" />
<hkern u1="Z" u2="t" k="20" />
<hkern u1="Z" u2="u" k="20" />
<hkern u1="Z" u2="v" k="20" />
<hkern u1="Z" u2="w" k="20" />
<hkern u1="Z" u2="y" k="20" />
<hkern u1="Z" u2="&apos;" k="-41" />
<hkern u1="Z" u2="&#x2019;" k="-41" />
<hkern u1="Z" u2="-" k="82" />
<hkern u1="&amp;" u2="T" k="102" />
<hkern u1="&amp;" u2="V" k="61" />
<hkern u1="&amp;" u2="W" k="61" />
<hkern u1="&amp;" u2="Y" k="102" />
<hkern u1="a" u2="&apos;" k="41" />
<hkern u1="b" u2="&apos;" k="20" />
<hkern u1="b" u2="\" k="102" />
<hkern u1="c" u2="c" k="20" />
<hkern u1="c" u2="e" k="20" />
<hkern u1="c" u2="o" k="20" />
<hkern u1="c" u2="&apos;" k="-61" />
<hkern u1="c" u2="&#x2019;" k="-61" />
<hkern u1="f" u2="a" k="20" />
<hkern u1="f" u2="c" k="41" />
<hkern u1="f" u2="e" k="41" />
<hkern u1="f" u2="g" k="20" />
<hkern u1="f" u2="o" k="31" />
<hkern u1="f" u2="v" k="-20" />
<hkern u1="f" u2="w" k="-20" />
<hkern u1="f" u2="y" k="-20" />
<hkern u1="f" u2="&#x2c;" k="61" />
<hkern u1="f" u2="&apos;" k="-102" />
<hkern u1="f" u2="&#x2019;" k="-102" />
<hkern u1="f" u2="\" k="-143" />
<hkern u1="f" u2="-" k="41" />
<hkern u1="g" u2="&apos;" k="-41" />
<hkern u1="g" u2="&#x2019;" k="-41" />
<hkern u1="h" u2="&apos;" k="61" />
<hkern u1="h" u2="\" k="102" />
<hkern u1="k" u2="a" k="20" />
<hkern u1="k" u2="c" k="41" />
<hkern u1="k" u2="d" k="20" />
<hkern u1="k" u2="e" k="41" />
<hkern u1="k" u2="o" k="41" />
<hkern u1="k" u2="q" k="20" />
<hkern u1="k" u2="y" k="20" />
<hkern u1="k" u2="&apos;" k="31" />
<hkern u1="k" u2="&#x2019;" k="-41" />
<hkern u1="k" u2="\" k="102" />
<hkern u1="m" u2="&apos;" k="41" />
<hkern u1="m" u2="\" k="102" />
<hkern u1="n" u2="&apos;" k="61" />
<hkern u1="n" u2="\" k="122" />
<hkern u1="o" u2="x" k="51" />
<hkern u1="o" u2="z" k="20" />
<hkern u1="o" u2="&apos;" k="41" />
<hkern u1="o" u2="\" k="102" />
<hkern u1="p" u2="x" k="20" />
<hkern u1="p" u2="&apos;" k="41" />
<hkern u1="p" u2="\" k="102" />
<hkern u1="r" u2="a" k="20" />
<hkern u1="r" u2="c" k="20" />
<hkern u1="r" u2="e" k="20" />
<hkern u1="r" u2="g" k="20" />
<hkern u1="r" u2="o" k="20" />
<hkern u1="r" u2="z" k="20" />
<hkern u1="r" u2="&#x2c;" k="102" />
<hkern u1="r" u2="&apos;" k="-61" />
<hkern u1="r" u2="&#x2019;" k="-102" />
<hkern u1="r" u2="-" k="41" />
<hkern u1="s" u2="c" k="10" />
<hkern u1="s" u2="e" k="10" />
<hkern u1="s" u2="&apos;" k="-61" />
<hkern u1="s" u2="&#x2019;" k="-41" />
<hkern u1="&#xdf;" u2="v" k="41" />
<hkern u1="&#xdf;" u2="w" k="41" />
<hkern u1="&#xdf;" u2="&#x2019;" k="41" />
<hkern u1="&#xdf;" u2="\" k="61" />
<hkern u1="t" u2="c" k="20" />
<hkern u1="t" u2="e" k="20" />
<hkern u1="t" u2="o" k="20" />
<hkern u1="t" u2="t" k="41" />
<hkern u1="t" u2="&apos;" k="-41" />
<hkern u1="t" u2="&#x2019;" k="-82" />
<hkern u1="t" u2="-" k="41" />
<hkern u1="u" u2="&apos;" k="20" />
<hkern u1="v" u2="f" k="-20" />
<hkern u1="v" u2="&#x2c;" k="61" />
<hkern u1="v" u2="&apos;" k="-41" />
<hkern u1="v" u2="&#x2019;" k="-82" />
<hkern u1="w" u2="f" k="-20" />
<hkern u1="w" u2="&#x2c;" k="51" />
<hkern u1="w" u2="&apos;" k="-82" />
<hkern u1="w" u2="&#x2019;" k="-82" />
<hkern u1="x" u2="a" k="20" />
<hkern u1="x" u2="c" k="51" />
<hkern u1="x" u2="d" k="20" />
<hkern u1="x" u2="e" k="51" />
<hkern u1="x" u2="g" k="20" />
<hkern u1="x" u2="o" k="51" />
<hkern u1="x" u2="q" k="20" />
<hkern u1="x" u2="u" k="20" />
<hkern u1="x" u2="y" k="31" />
<hkern u1="x" u2="&apos;" k="-41" />
<hkern u1="x" u2="&#x2019;" k="-41" />
<hkern u1="x" u2="-" k="61" />
<hkern u1="y" u2="f" k="-20" />
<hkern u1="y" u2="&apos;" k="-41" />
<hkern u1="y" u2="&#x2019;" k="-61" />
<hkern u1="z" u2="a" k="41" />
<hkern u1="z" u2="c" k="41" />
<hkern u1="z" u2="d" k="41" />
<hkern u1="z" u2="e" k="41" />
<hkern u1="z" u2="g" k="41" />
<hkern u1="z" u2="o" k="41" />
<hkern u1="z" u2="q" k="41" />
<hkern u1="z" u2="s" k="20" />
<hkern u1="z" u2="t" k="20" />
<hkern u1="z" u2="u" k="20" />
<hkern u1="z" u2="v" k="20" />
<hkern u1="z" u2="w" k="20" />
<hkern u1="z" u2="y" k="41" />
<hkern u1="z" u2="-" k="61" />
<hkern u1="&#x2c;" u2="C" k="61" />
<hkern u1="&#x2c;" u2="G" k="61" />
<hkern u1="&#x2c;" u2="O" k="61" />
<hkern u1="&#x2c;" u2="T" k="102" />
<hkern u1="&#x2c;" u2="U" k="41" />
<hkern u1="&#x2c;" u2="V" k="102" />
<hkern u1="&#x2c;" u2="W" k="82" />
<hkern u1="&#x2c;" u2="Y" k="102" />
<hkern u1="." u2="C" k="20" />
<hkern u1="." u2="G" k="41" />
<hkern u1="." u2="O" k="41" />
<hkern u1="." u2="T" k="102" />
<hkern u1="." u2="U" k="41" />
<hkern u1="." u2="V" k="102" />
<hkern u1="." u2="W" k="82" />
<hkern u1="." u2="Y" k="163" />
<hkern u1="." u2="t" k="20" />
<hkern u1="." u2="u" k="20" />
<hkern u1="." u2="v" k="61" />
<hkern u1="." u2="w" k="51" />
<hkern u1="." u2="y" k="20" />
<hkern u1="." u2="1" k="41" />
<hkern u1="." u2="4" k="41" />
<hkern u1="." u2="7" k="122" />
<hkern u1="." u2="8" k="-20" />
<hkern u1="&apos;" u2="A" k="122" />
<hkern u1="&apos;" u2="&#xc6;" k="163" />
<hkern u1="&apos;" u2="T" k="-82" />
<hkern u1="&apos;" u2="V" k="-82" />
<hkern u1="&apos;" u2="W" k="-82" />
<hkern u1="&apos;" u2="X" k="-41" />
<hkern u1="&apos;" u2="Y" k="-82" />
<hkern u1="&apos;" u2="a" k="41" />
<hkern u1="&apos;" u2="c" k="41" />
<hkern u1="&apos;" u2="d" k="41" />
<hkern u1="&apos;" u2="e" k="41" />
<hkern u1="&apos;" u2="g" k="41" />
<hkern u1="&apos;" u2="o" k="41" />
<hkern u1="&apos;" u2="q" k="41" />
<hkern u1="&apos;" u2="t" k="-41" />
<hkern u1="&apos;" u2="u" k="10" />
<hkern u1="&apos;" u2="v" k="-41" />
<hkern u1="&apos;" u2="w" k="-20" />
<hkern u1="&apos;" u2="y" k="10" />
<hkern u1="&#x2018;" u2="A" k="102" />
<hkern u1="&#x2018;" u2="&#xc6;" k="102" />
<hkern u1="&#x2018;" u2="C" k="20" />
<hkern u1="&#x2018;" u2="T" k="-82" />
<hkern u1="&#x2018;" u2="V" k="-82" />
<hkern u1="&#x2018;" u2="W" k="-82" />
<hkern u1="&#x2018;" u2="X" k="-41" />
<hkern u1="&#x2018;" u2="Y" k="-82" />
<hkern u1="&#x2018;" u2="Z" k="-41" />
<hkern u1="&#x2018;" u2="a" k="82" />
<hkern u1="&#x2018;" u2="c" k="82" />
<hkern u1="&#x2018;" u2="d" k="82" />
<hkern u1="&#x2018;" u2="&#xf0;" k="82" />
<hkern u1="&#x2018;" u2="e" k="82" />
<hkern u1="&#x2018;" u2="g" k="82" />
<hkern u1="&#x2018;" u2="o" k="61" />
<hkern u1="&#x2018;" u2="q" k="82" />
<hkern u1="&#x2018;" u2="t" k="-41" />
<hkern u1="&#x2018;" u2="u" k="20" />
<hkern u1="&#x2018;" u2="v" k="-41" />
<hkern u1="&#x2018;" u2="w" k="-41" />
<hkern u1="&#x2018;" u2="y" k="20" />
<hkern u1="/" u2="A" k="122" />
<hkern u1="/" u2="&#xc6;" k="122" />
<hkern u1="/" u2="S" k="-41" />
<hkern u1="/" u2="T" k="-41" />
<hkern u1="/" u2="a" k="102" />
<hkern u1="/" u2="c" k="102" />
<hkern u1="/" u2="d" k="102" />
<hkern u1="/" u2="&#xf0;" k="102" />
<hkern u1="/" u2="e" k="102" />
<hkern u1="/" u2="g" k="102" />
<hkern u1="/" u2="o" k="102" />
<hkern u1="/" u2="q" k="102" />
<hkern u1="/" u2="s" k="20" />
<hkern u1="/" u2="u" k="20" />
<hkern u1="/" u2="y" k="20" />
<hkern u1="\" u2="V" k="122" />
<hkern u1="\" u2="W" k="102" />
<hkern u1="\" u2="Y" k="163" />
<hkern u1="-" u2="T" k="41" />
<hkern u1="-" u2="Y" k="41" />
<hkern u1="-" u2="x" k="61" />
<hkern u1="-" u2="z" k="61" />
<hkern u1="-" u2="1" k="143" />
<hkern u1="(" u2="J" k="-122" />
<hkern u1="1" u2="-" k="61" />
<hkern u1="3" u2="&#x2c;" k="41" />
<hkern u1="4" u2="&#x2c;" k="41" />
<hkern u1="7" u2="&#x2c;" k="286" />
<hkern u1="8" u2="&#x2c;" k="-20" />
<hkern u1="9" u2="&#x2c;" k="41" />

</font>
</defs>
<text x="40" y="40" font-family="Ayita W01 SemiBold" font-size="30" fill="#933" >ABCDEFGHIJKLMNOPQRSTUVWXYZ abcdefghijklmnopqrstuvwxyz AÁÀÂÄÅÃÆ CÇ DÐ EÉÈÊË I Í Ì Î Ï NÑ</text>
<text x="40" y="80" font-family="Ayita W01 SemiBold" font-size="30" fill="#933" >OÓÒÔÖÕØŒ SŠ UÚÙÛÜ YÝŸ ZŽ Þ aáàâäåãæ cç dð eéèêë i ı í ì î ï nñ oóòôöõøœ sšß uúùûü yýÿ zž</text>
<text x="40" y="120" font-family="Ayita W01 SemiBold" font-size="30" fill="#933" >þ 1234567890 ½ ¼ ¾ % ‰ $¢£¥ƒ€¤ † ‡ § ¶ # ^~µ +×± &lt; = &gt; ÷¬ !¡?¿ &quot; &amp; &apos; * ° . , : ; () [ \ ] {} / |</text>
<text x="40" y="160" font-family="Ayita W01 SemiBold" font-size="30" fill="#933" >¦ _ ‚ „ … ‹› «» ‘ ’ “ ” • ­ - – — @ © ® ™ ªº ¹²³ ´ ` ˆ ˜ ¨ ¯ · ¸</text>
</svg>
