<?xml  version="1.0" encoding="UTF-8"?>
<!DOCTYPE svg PUBLIC "-//W3C//DTD SVG 1.0//EN" "http://www.w3.org/TR/2001/REC-SVG-20010904/DTD/svg10.dtd" >
<svg xmlns="http://www.w3.org/2000/svg" >
<metadata>
<version>1.0</version>
<id><![CDATA[Ayita W01 Thin]]></id>
<vendor>Monotype Imaging Inc.</vendor>
<credits>
<name>Fonts.com WebFonts</name>
<URL>http://webfonts.fonts.com</URL>
<role>Home of the Web fonts</role>
</credits>
<license>
<URL>http://webfonts.fonts.com/Legal</URL>
</license>
<copyright><![CDATA[Copyright © 2010 Ascender Corporation. All Rights Reserved. Designed by Jim Ford.]]></copyright>
<trademark><![CDATA[Ayita is a trademark of Ascender Corporation which may be registered in certain jurisdictions.]]></trademark>
<licensee>
<name></name>
</licensee>
</metadata>
<defs >
<font horiz-adv-x="998" id="98c93d24-2ed7-4ac3-990b-18ddab8816ae">
<font-face font-family="Ayita W01 Thin" panose-1="2 11 2 6 3 5 4 2 2 4" ascent="1944" descent="-385" units-per-em="2048" alphabetic="0">
</font-face>
<missing-glyph horiz-adv-x="0" />

<glyph unicode="&#xA;" />
<glyph unicode="&#xD;" horiz-adv-x="0" />
<glyph unicode=" " horiz-adv-x="524" />
<glyph unicode="!" horiz-adv-x="459" d="M207 406L195 1475H264L252 406H207ZM174 43Q174 68 190 83T229 98Q252 98 268 83T285 43Q285 18 269 3T229 -12Q206 -12 190 3T174 43Z"  />
<glyph unicode="&quot;" horiz-adv-x="639" d="M141 1020L129 1475H199L186 1020H141ZM453 1020L440 1475H510L498 1020H453Z"  />
<glyph unicode="#" horiz-adv-x="1192" d="M911 1475L840 1163H1110V1106H827L760 805H1020V748H745L672 416H610L686 748H416L342 416H281L356 748H82V805H369L438 1106H172V1163H451L522 1475H582L510 1163H780L852 1475H911ZM430 805H698L768 1106H498L430 805Z"  />
<glyph unicode="$" horiz-adv-x="1026" d="M543 1354Q614 1354 677 1341T829 1292V1241H825Q678 1294 543 1294V799Q673 737 731 692T820 590T852 463Q852 339 769 260T543 166V-16H483V162H473Q378 162 303 182T145 242V289H150Q322 221 473 221H483V756Q352 813 297 852T212 940T182 1051Q182 1180 262 1259T483 1350V1491H543V1354ZM784 459Q784 537 732 600T543 729V225Q660 243 722 306T784 459ZM250 1055Q250 1009 273 972T341 903T483 825V1290Q373 1279 312 1217T250 1055Z"  />
<glyph unicode="%" horiz-adv-x="1554" d="M365 1491Q497 1491 567 1373T637 1036Q637 821 567 702T365 582Q233 582 163 700T92 1036Q92 1253 162 1372T365 1491ZM1190 893Q1322 893 1392 775T1462 438Q1462 223 1392 104T1190 -16Q1058 -16 988 102T918 438Q918 655 988 774T1190 893ZM571 1036Q571 1227 519 1330T365 1434Q263 1434 211 1331T158 1036Q158 846 210 743T365 639Q466 639 518 742T571 1036ZM1397 438Q1397 629 1345 732T1190 836Q1088 836 1036 733T983 438Q983 248 1035 145T1190 41Q1292 41 1344 144T1397 438ZM317 -16L1161 1475H1229L383 -16H317Z"  />
<glyph unicode="&amp;" horiz-adv-x="1401" d="M1151 748Q1100 375 934 172Q1084 49 1225 49Q1280 49 1348 61V14Q1276 -8 1198 -8Q1056 -8 891 125Q746 -16 539 -16Q356 -16 243 97T129 397Q129 546 212 655T481 838Q461 936 461 1061Q461 1263 553 1383T801 1503Q916 1503 986 1433T1057 1247Q1057 1152 1019 1085T898 962T598 819L557 803Q597 627 685 472T887 211Q1041 402 1087 748H1151ZM494 778Q335 709 266 618T197 401Q197 293 241 212T365 87T545 43Q719 43 844 164Q721 276 629 437T494 778ZM989 1247Q989 1335 936 1389T801 1444Q720 1444 659 1399T563 1268T528 1061Q528 944 545 862Q650 904 732 939T872 1017T959 1113T989 1247Z"  />
<glyph unicode="&apos;" horiz-adv-x="328" d="M141 1020L129 1475H199L186 1020H141Z"  />
<glyph unicode="(" horiz-adv-x="573" d="M559 1599V1595Q375 1357 299 1125T223 596Q223 311 304 79T559 -379V-385H504Q331 -196 244 54T156 596Q156 893 244 1148T504 1599H559Z"  />
<glyph unicode=")" horiz-adv-x="573" d="M14 -385V-381Q198 -143 274 89T350 618Q350 903 270 1132T14 1593V1599H70Q418 1213 418 618Q418 321 330 66T70 -385H14Z"  />
<glyph unicode="*" horiz-adv-x="737" d="M412 1286L655 1157L625 1102L389 1249L401 973H338L348 1249L115 1102L82 1157L326 1286L82 1415L115 1470L348 1321L338 1599H401L389 1321L625 1470L655 1415L412 1286Z"  />
<glyph unicode="+" horiz-adv-x="1026" d="M104 614H483V993H543V614H922V555H543V174H483V555H104V614Z"  />
<glyph unicode="&#x2c;" horiz-adv-x="311" d="M33 -248V-244Q87 -160 111 -95T135 43Q135 127 100 203V207H168Q203 132 203 53Q203 5 192 -37T159 -120T78 -248H33Z"  />
<glyph unicode="-" horiz-adv-x="705" d="M104 616H600V557H104V616Z"  />
<glyph unicode="." horiz-adv-x="319" d="M104 43Q104 68 120 83T160 98Q183 98 199 83T215 43Q215 18 199 3T160 -12Q137 -12 121 3T104 43Z"  />
<glyph unicode="/" horiz-adv-x="623" d="M623 1491L66 -16H0L559 1491H623Z"  />
<glyph unicode="0" horiz-adv-x="1026" d="M922 735Q922 362 822 173T512 -16Q300 -16 202 169T104 735Q104 1104 208 1297T512 1491Q711 1491 816 1301T922 735ZM172 735Q172 391 255 218T512 45Q687 45 770 218T854 735Q854 1083 767 1256T512 1430Q343 1430 258 1255T172 735Z"  />
<glyph unicode="1" horiz-adv-x="1026" d="M205 1188V1249H221Q352 1249 425 1298T539 1475H580V61H889V0H164V61H514V1298H512Q457 1237 390 1213T221 1188H205Z"  />
<glyph unicode="2" horiz-adv-x="1026" d="M889 0H109V74Q109 161 141 239T233 393T442 607Q601 753 656 821T743 959T774 1104Q774 1252 690 1341T469 1430Q399 1430 338 1415T184 1356H180V1407Q263 1452 333 1471T479 1491Q581 1491 664 1444T794 1310T842 1110Q842 1027 810 951T720 800T509 584Q350 436 294 367T207 228T176 82V61H889V0Z"  />
<glyph unicode="3" horiz-adv-x="1026" d="M817 1124Q817 878 592 774V772Q724 741 797 649T870 420Q870 210 748 97T391 -16Q248 -16 113 47V100H117Q261 45 389 45Q591 45 697 140T803 418Q803 562 702 648T438 735H285V797H438Q528 797 600 840T711 957T750 1120Q750 1263 665 1346T432 1430Q367 1430 312 1416T156 1356H152V1407Q226 1447 295 1469T444 1491Q609 1491 713 1390T817 1124Z"  />
<glyph unicode="4" horiz-adv-x="1026" d="M682 557H68V598L702 1475H748V618H958V557H748V0H682V557ZM160 618H682V1341H680L160 623V618Z"  />
<glyph unicode="5" horiz-adv-x="1026" d="M879 463Q879 237 744 111T385 -16Q222 -16 94 47V100H98Q232 45 383 45Q583 45 696 155T809 459Q809 565 759 646T620 772T424 817Q311 817 184 772H178V1475H846V1413H244V848Q348 874 436 874Q561 874 663 823T822 677T879 463Z"  />
<glyph unicode="6" horiz-adv-x="1026" d="M932 469Q932 248 824 116T535 -16Q330 -16 222 159T113 696Q113 938 175 1114T366 1391T662 1491Q769 1491 868 1452V1401H862Q767 1430 664 1430Q522 1430 413 1348T245 1117T176 762H180Q363 899 541 899Q656 899 744 849T882 701T932 469ZM862 463Q862 642 775 740T535 838Q439 838 353 805T176 702Q180 377 270 211T535 45Q683 45 772 157T862 463Z"  />
<glyph unicode="7" horiz-adv-x="1026" d="M936 1434Q477 806 444 0H375Q391 388 506 737T842 1409V1413H90V1475H936V1434Z"  />
<glyph unicode="8" horiz-adv-x="1026" d="M512 -16Q390 -16 297 38T154 187T104 401Q104 543 173 643T401 807V811Q270 873 208 952T145 1139Q145 1296 248 1393T514 1491Q677 1491 779 1393T881 1141Q881 1015 818 930T621 786V784Q777 722 849 631T922 403Q922 284 871 187T727 37T512 -16ZM512 45Q665 45 758 143T852 401Q852 525 784 605T557 745L457 782Q311 727 243 637T174 401Q174 242 267 144T512 45ZM512 1430Q381 1430 298 1350T215 1141Q215 1040 282 965T498 834L569 807Q694 869 752 950T811 1141Q811 1270 727 1350T512 1430Z"  />
<glyph unicode="9" horiz-adv-x="1026" d="M94 1006Q94 1227 202 1359T492 1491Q696 1491 804 1315T913 778Q913 535 854 357T675 82T391 -16Q260 -16 125 47V100H129Q185 79 249 62T391 45Q595 45 715 218T850 713H846Q662 575 485 575Q369 575 280 626T143 775T94 1006ZM164 1012Q164 836 251 737T492 637Q587 637 673 670T850 772Q846 1096 756 1263T492 1430Q342 1430 253 1317T164 1012Z"  />
<glyph unicode=":" horiz-adv-x="319" d="M104 43Q104 68 120 83T160 98Q183 98 199 83T215 43Q215 18 199 3T160 -12Q137 -12 121 3T104 43ZM104 766Q104 791 120 806T160 821Q183 821 199 806T215 766Q215 741 199 726T160 711Q137 711 121 726T104 766Z"  />
<glyph unicode=";" horiz-adv-x="319" d="M37 -248V-244Q91 -160 115 -95T139 43Q139 127 104 203V207H172Q207 137 207 53Q207 5 197 -36T166 -119T82 -248H37ZM104 766Q104 791 120 806T160 821Q183 821 199 806T215 766Q215 741 199 726T160 711Q137 711 121 726T104 766Z"  />
<glyph unicode="&lt;" horiz-adv-x="1026" d="M922 178L104 567V604L922 993V930L184 586L922 242V178Z"  />
<glyph unicode="=" horiz-adv-x="1026" d="M104 408H922V348H104V408ZM104 821H922V762H104V821Z"  />
<glyph unicode="&gt;" horiz-adv-x="1026" d="M104 993L922 604V567L104 178V242L842 586L104 930V993Z"  />
<glyph unicode="?" horiz-adv-x="645" d="M201 406V434Q201 534 234 624T337 813Q410 918 441 995T473 1157Q473 1286 407 1358T229 1430Q172 1430 126 1417T12 1370H6V1419Q73 1460 128 1475T242 1491Q374 1491 457 1400T541 1163Q541 1071 507 985T401 800Q329 702 295 616T260 434V406H201ZM174 43Q174 68 190 83T229 98Q252 98 268 83T285 43Q285 18 269 3T229 -12Q206 -12 190 3T174 43Z"  />
<glyph unicode="@" horiz-adv-x="1612" d="M1239 209Q1299 209 1346 271T1418 450T1444 729Q1444 916 1374 1060T1170 1283T860 1362Q666 1362 505 1258T256 976T168 582Q168 357 251 199T487 -40T850 -121Q1142 -121 1411 23V-29Q1256 -111 1124 -144T848 -178Q617 -178 447 -86T190 176T104 582Q104 814 201 1004T474 1306T860 1419Q1052 1419 1200 1332T1428 1087T1507 729Q1507 452 1436 302T1231 152Q1129 152 1075 220T1020 422V463Q914 152 727 152Q644 152 584 200T490 342T455 578Q455 811 574 955T881 1100Q986 1100 1079 1065V430Q1079 325 1120 267T1239 209ZM737 209Q803 209 866 275T972 462T1016 690V1026Q954 1042 881 1042Q717 1042 619 913T520 575Q520 400 576 305T737 209Z"  />
<glyph unicode="A" horiz-adv-x="1145" d="M106 16Q106 408 221 788T547 1475H598Q808 1171 923 792T1038 16V0H971V16Q971 296 905 590H238Q174 296 174 16V0H106V16ZM571 1397Q356 1064 254 651H891Q785 1071 573 1397H571Z"  />
<glyph unicode="B" horiz-adv-x="1147" d="M958 1100Q958 988 902 902T737 768V766Q872 734 942 646T1012 424Q1012 216 895 108T565 0H225V1462Q339 1491 512 1491Q642 1491 743 1445T901 1311T958 1100ZM942 424Q942 576 846 655T555 735H293V61H565Q942 61 942 424ZM889 1098Q889 1206 841 1279T705 1391T504 1430Q391 1430 293 1413V797H676Q779 832 834 911T889 1098Z"  />
<glyph unicode="C" horiz-adv-x="1114" d="M1040 1386Q961 1411 903 1420T774 1430Q622 1430 495 1339T297 1085T225 717Q225 518 280 368T445 131T696 45Q782 45 855 62T1018 127H1022V74Q947 30 870 7T698 -16Q536 -16 413 69T223 318T156 711Q156 934 237 1113T460 1392T772 1491Q919 1491 1044 1444V1386H1040Z"  />
<glyph unicode="D" horiz-adv-x="1366" d="M225 0V1462Q350 1491 518 1491Q723 1491 880 1404T1124 1150T1210 764Q1210 395 1033 198T524 0H225ZM1141 758Q1141 963 1062 1115T838 1349T508 1430Q400 1430 293 1413V61H524Q825 61 983 240T1141 758Z"  />
<glyph unicode="E" horiz-adv-x="1049" d="M225 1475H915V1413H293V797H823V735H293V61H926V0H225V1475Z"  />
<glyph unicode="F" horiz-adv-x="1049" d="M225 1475H915V1413H293V750H823V688H293V0H225V1475Z"  />
<glyph unicode="G" horiz-adv-x="1300" d="M696 45Q888 45 1036 106V637H1104V74Q920 -16 690 -16Q529 -16 408 70T222 320T156 709Q156 941 241 1119T477 1394T815 1491Q897 1491 961 1478T1090 1444V1386H1085Q1027 1403 964 1416T815 1430Q647 1430 512 1342T301 1092T225 717Q225 515 284 362T450 127T696 45Z"  />
<glyph unicode="H" horiz-adv-x="1362" d="M1137 0H1069V735H293V0H225V1475H293V797H1069V1475H1137V0Z"  />
<glyph unicode="I" horiz-adv-x="518" d="M293 0H225V1475H293V0Z"  />
<glyph unicode="J" horiz-adv-x="518" d="M225 1475H293V68Q293 -89 234 -172T63 -256Q-5 -256 -63 -227V-182H-59Q-3 -195 39 -195Q136 -195 180 -128T225 92V1475Z"  />
<glyph unicode="K" horiz-adv-x="1153" d="M225 1475H293V672L987 1475H1071L508 834Q711 392 851 218T1122 43H1153V2Q1113 -8 1079 -8Q993 -8 901 69T709 305T461 782L293 596V0H225V1475Z"  />
<glyph unicode="L" horiz-adv-x="1049" d="M293 61H926V0H225V1475H293V61Z"  />
<glyph unicode="M" horiz-adv-x="1552" d="M750 342L291 1333H287Q291 1182 291 940V0H225V1475H293L694 606L774 422H778L858 606L1260 1475H1327V0H1260V940Q1260 1182 1264 1333H1260L801 342H750Z"  />
<glyph unicode="N" horiz-adv-x="1362" d="M1069 137H1073Q1069 263 1069 403V1475H1137V0H1075L293 1343H289Q293 1217 293 1077V0H225V1475H287L1069 137Z"  />
<glyph unicode="O" horiz-adv-x="1397" d="M698 1491Q862 1491 985 1404T1174 1151T1241 752Q1241 527 1172 352T978 80T698 -16Q532 -16 410 71T222 325T156 723Q156 947 225 1123T419 1395T698 1491ZM698 1430Q559 1430 452 1342T285 1092T225 723Q225 523 281 369T445 130T698 45Q910 45 1040 239T1171 752Q1171 953 1114 1108T950 1346T698 1430Z"  />
<glyph unicode="P" horiz-adv-x="1124" d="M969 1057Q969 836 838 723T446 610H293V0H225V1462Q345 1491 485 1491Q705 1491 837 1373T969 1057ZM899 1053Q899 1169 846 1254T697 1384T479 1430Q391 1430 293 1413V672H449Q899 672 899 1053Z"  />
<glyph unicode="Q" horiz-adv-x="1397" d="M698 1491Q862 1491 985 1404T1174 1151T1241 752Q1241 527 1172 352T978 80T698 -16H674Q755 -135 849 -193T1073 -252Q1180 -252 1257 -225H1262V-270Q1163 -313 1051 -313Q786 -313 596 -6Q388 33 272 222T156 723Q156 947 225 1123T419 1395T698 1491ZM698 1430Q559 1430 452 1342T285 1092T225 723Q225 523 281 369T445 130T698 45Q910 45 1040 239T1171 752Q1171 953 1114 1108T950 1346T698 1430Z"  />
<glyph unicode="R" horiz-adv-x="1188" d="M479 1491Q705 1491 837 1375T969 1057Q969 799 698 688Q810 379 927 211T1161 43H1188V2Q1148 -8 1114 -8Q1000 -8 876 172T635 674Q515 664 352 664H293V0H225V1462Q343 1491 479 1491ZM899 1055Q899 1173 847 1257T699 1386T479 1430Q391 1430 293 1413V725H662Q794 785 846 863T899 1055Z"  />
<glyph unicode="S" horiz-adv-x="1012" d="M123 1116Q123 1282 233 1386T518 1491Q675 1491 825 1434V1376H823Q748 1403 680 1416T518 1430Q376 1430 285 1345T193 1120Q193 1049 221 996T304 897T502 782Q663 704 727 652T827 533T864 375Q864 190 752 87T442 -16Q350 -16 277 1T90 74V127H94Q197 82 272 64T442 45Q607 45 701 133T795 369Q795 442 768 495T695 589T590 662T469 725Q309 805 249 855T156 969T123 1116Z"  />
<glyph unicode="T" horiz-adv-x="952" d="M442 0V1413H20V1475H932V1413H510V0H442Z"  />
<glyph unicode="U" horiz-adv-x="1348" d="M623 -16Q413 -16 312 120T211 535V1475H279V537Q279 286 363 167T625 47Q837 47 946 235T1055 797V1475H1122V565Q1122 251 1151 0H1090Q1069 154 1061 358H1057Q949 -16 623 -16Z"  />
<glyph unicode="V" horiz-adv-x="1145" d="M1038 1458Q1038 1060 923 681T598 0H547Q338 301 222 683T106 1458V1475H174V1458Q174 1091 278 729T571 78H573Q762 368 866 729T971 1458V1475H1038V1458Z"  />
<glyph unicode="W" horiz-adv-x="1784" d="M858 1401H924V1309Q924 1014 1011 687T1255 78H1257Q1421 366 1512 727T1604 1458V1475H1671V1458Q1671 1071 1571 690T1284 0H1233Q1105 204 1017 453T893 967H889Q854 710 767 462T549 0H498Q315 304 214 684T113 1458V1475H180V1458Q180 1099 271 734T526 78H528Q684 348 771 671T858 1309V1401Z"  />
<glyph unicode="X" horiz-adv-x="1042" d="M883 1475H948V1466Q948 1338 910 1228T801 1014T569 750Q748 575 821 472T934 257T973 14V0H905Q905 127 867 238T753 454T522 707Q363 558 288 454T174 237T135 0H70V14Q70 145 109 256T222 472T475 750Q316 907 244 1011T133 1225T94 1466V1475H162Q162 1352 200 1242T311 1028T522 791Q663 928 735 1031T845 1243T883 1475Z"  />
<glyph unicode="Y" horiz-adv-x="1116" d="M524 0V524Q315 738 211 975T106 1462V1475H174V1464Q174 1235 270 1010T555 580H561Q746 781 844 1007T942 1464V1475H1010V1462Q1010 1212 906 975T592 524V0H524Z"  />
<glyph unicode="Z" horiz-adv-x="942" d="M860 1475V1434L131 61V57Q250 61 397 61H860V0H47V41L778 1415V1419Q654 1413 492 1413H88V1475H860Z"  />
<glyph unicode="[" horiz-adv-x="573" d="M225 -385V1599H553V1540H291V-326H553V-385H225Z"  />
<glyph unicode="\" horiz-adv-x="623" d="M63 1491L623 -16H557L0 1491H63Z"  />
<glyph unicode="]" horiz-adv-x="573" d="M20 -385V-326H283V1540H20V1599H348V-385H20Z"  />
<glyph unicode="^" horiz-adv-x="1081" d="M541 1403L147 737H82L522 1475H559L999 737H934L541 1403Z"  />
<glyph unicode="_" horiz-adv-x="788" d="M-14 -139H803V-199H-14V-139Z"  />
<glyph unicode="`" horiz-adv-x="1047" d="M676 1255H635Q481 1401 365 1575V1579H438Q491 1490 540 1423T676 1260V1255Z"  />
<glyph unicode="a" horiz-adv-x="1087" d="M129 485Q129 683 189 829T356 1053T600 1130Q731 1130 870 1077V315Q870 168 908 106T1036 43V2Q1008 -8 977 -8Q811 -8 811 303V428H809Q751 211 657 98T440 -16Q293 -16 211 114T129 485ZM197 496Q197 282 263 163T446 43Q538 43 622 142T755 411T805 776V1034Q705 1071 592 1071Q477 1071 387 1001T247 799T197 496Z"  />
<glyph unicode="b" horiz-adv-x="1100" d="M207 1599H272V1114Q272 918 266 686H270Q408 1130 645 1130Q802 1130 886 993T971 606Q971 420 917 283T752 65T502 -16Q347 -16 207 37V1599ZM643 1071Q552 1071 466 969T326 693T272 319V80Q361 43 498 43Q616 43 708 110T852 300T903 588Q903 823 837 947T643 1071Z"  />
<glyph unicode="c" horiz-adv-x="872" d="M195 524Q195 299 292 171T557 43Q608 43 651 51T786 96H791V53Q665 -16 532 -16Q415 -16 323 48T179 232T127 512Q127 694 186 835T354 1053T604 1130Q697 1130 797 1096V1044H793Q685 1071 602 1071Q476 1071 385 1002T245 808T195 524Z"  />
<glyph unicode="d" horiz-adv-x="1100" d="M129 485Q129 683 189 828T358 1051T608 1130Q711 1130 817 1090V1599H883V315Q883 164 921 104T1049 43V2Q1021 -8 989 -8Q823 -8 823 303V428H821Q699 -16 446 -16Q297 -16 213 115T129 485ZM197 496Q197 287 264 165T453 43Q546 43 631 142T767 410T817 776V1034Q713 1071 600 1071Q482 1071 390 1000T248 797T197 496Z"  />
<glyph unicode="e" horiz-adv-x="993" d="M285 565Q558 565 683 633T809 858Q809 955 749 1013T582 1071Q482 1071 397 1011T259 838T195 565H285ZM195 512Q199 292 294 168T553 43Q617 43 680 57T834 115H840V74Q754 25 683 5T535 -16Q416 -16 323 47T179 229T127 512Q127 694 186 834T350 1052T584 1130Q717 1130 795 1056T874 860Q874 679 729 596T285 512H195Z"  />
<glyph unicode="f" horiz-adv-x="580" d="M227 1055H37V1096L227 1114V1176Q227 1387 300 1501T508 1616Q579 1616 645 1589V1538H641Q583 1556 522 1556Q406 1556 350 1460T293 1159V1114H532V1055H293V8Q293 -174 213 -279T-8 -385Q-37 -385 -70 -377T-125 -356V-315H-121Q-75 -326 -29 -326Q227 -326 227 25V1055Z"  />
<glyph unicode="g" horiz-adv-x="1090" d="M883 104Q883 -129 771 -257T453 -385Q323 -385 188 -332V-283H193Q296 -312 346 -319T449 -326Q629 -326 723 -215T817 106Q817 254 823 428H821Q762 211 667 102T451 -8Q299 -8 214 121T129 494Q129 682 186 824T353 1048T592 1130Q745 1130 883 1077V104ZM453 51Q551 51 635 150T768 420T817 786V1034Q721 1071 596 1071Q482 1071 391 1001T249 800T197 502Q197 291 264 171T453 51Z"  />
<glyph unicode="h" horiz-adv-x="1130" d="M272 0H207V1599H272V1114Q272 910 266 686H270Q336 894 434 1012T645 1130Q774 1130 843 1047T913 807V287Q913 190 927 139T973 65T1073 43V2Q1045 -8 1016 -8Q928 -8 888 57T848 262V791Q848 1071 643 1071Q554 1071 469 965T328 685T272 354V0Z"  />
<glyph unicode="i" horiz-adv-x="489" d="M375 -8Q287 -8 247 57T207 262V1114H272V287Q272 190 286 139T332 65T432 43V2Q404 -8 375 -8ZM289 1382Q289 1359 275 1346T240 1333Q220 1333 205 1346T190 1382Q190 1405 205 1418T240 1432Q260 1432 274 1419T289 1382Z"  />
<glyph unicode="j" horiz-adv-x="489" d="M61 -326Q207 -326 207 -33V1114H272V-47Q272 -215 220 -300T68 -385Q17 -385 -37 -356V-309H-33Q11 -326 61 -326ZM289 1382Q289 1359 275 1346T240 1333Q220 1333 205 1346T190 1382Q190 1405 205 1418T240 1432Q260 1432 274 1419T289 1382Z"  />
<glyph unicode="k" horiz-adv-x="1073" d="M207 1599H272V1130Q272 987 262 817H266Q335 972 434 1051T653 1130Q781 1130 860 1056T940 858Q940 620 674 549Q754 294 845 169T1051 43H1073V2Q1045 -8 1010 -8Q891 -8 794 128T614 535Q472 512 272 512V0H207V1599ZM649 1071Q554 1071 465 1003T324 820T272 573V565H362Q628 565 751 634T874 856Q874 958 814 1014T649 1071Z"  />
<glyph unicode="l" horiz-adv-x="489" d="M375 -8Q287 -8 247 57T207 262V1599H272V287Q272 190 286 139T332 65T432 43V2Q404 -8 375 -8Z"  />
<glyph unicode="m" horiz-adv-x="1722" d="M889 0H823V791Q823 1071 643 1071Q554 1071 469 965T328 685T272 354V0H207V696Q207 979 197 1114H258Q266 994 266 686H270Q336 894 434 1012T645 1130Q762 1130 825 1045T889 807V688H893Q961 907 1055 1018T1262 1130Q1380 1130 1442 1045T1505 807V287Q1505 190 1519 139T1565 65T1665 43V2Q1637 -8 1608 -8Q1520 -8 1480 57T1440 262V791Q1440 1071 1260 1071Q1171 1071 1086 965T945 685T889 354V0Z"  />
<glyph unicode="n" horiz-adv-x="1130" d="M272 0H207V688Q207 979 197 1114H258Q266 975 266 686H270Q336 894 434 1012T645 1130Q774 1130 843 1047T913 807V287Q913 190 927 139T973 65T1073 43V2Q1045 -8 1016 -8Q928 -8 888 57T848 262V791Q848 1071 643 1071Q554 1071 469 965T328 685T272 354V0Z"  />
<glyph unicode="o" horiz-adv-x="1085" d="M543 -16Q422 -16 327 52T181 248T129 539Q129 817 239 973T543 1130Q665 1130 759 1064T904 871T956 582Q956 300 846 142T543 -16ZM543 43Q711 43 800 182T889 582Q889 805 795 938T543 1071Q377 1071 287 932T197 539Q197 390 241 277T364 103T543 43Z"  />
<glyph unicode="p" horiz-adv-x="1100" d="M971 606Q971 414 912 273T745 58T502 -16Q379 -16 272 59V-385H207V766Q207 976 197 1114H258Q266 918 266 686H270Q408 1130 645 1130Q800 1130 885 994T971 606ZM641 1071Q549 1071 463 966T325 687T272 330V121Q378 43 498 43Q678 43 790 193T903 586Q903 824 837 947T641 1071Z"  />
<glyph unicode="q" horiz-adv-x="1090" d="M883 -385H817V0Q817 196 823 428H821Q762 210 667 97T451 -16Q298 -16 214 115T129 494Q129 682 186 824T353 1048T592 1130Q745 1130 883 1077V-385ZM453 43Q548 43 632 142T767 417T817 786V1034Q721 1071 596 1071Q482 1071 391 1001T249 800T197 502Q197 288 264 166T453 43Z"  />
<glyph unicode="r" horiz-adv-x="750" d="M272 0H207V688Q207 979 197 1114H258Q266 975 266 686H270Q319 890 418 1010T645 1130Q687 1130 725 1120V1065Q690 1071 655 1071Q551 1071 466 978T327 698T272 332V0Z"  />
<glyph unicode="s" horiz-adv-x="819" d="M127 840Q127 973 213 1051T440 1130Q568 1130 684 1087V1036H680Q549 1073 444 1073Q327 1073 261 1012T195 844Q195 795 213 759T267 692T410 608Q550 540 603 498T684 402T713 274Q713 140 623 62T383 -16Q216 -16 106 53V94H111Q177 67 238 55T375 43Q502 43 573 104T645 270Q645 328 621 371T554 448T381 549Q265 607 221 644T152 730T127 840Z"  />
<glyph unicode="t" horiz-adv-x="590" d="M217 1055H27V1096L217 1114V1374L283 1382V1114H522V1055H283V360Q283 200 325 120T461 39Q504 39 551 53H553V10Q497 -16 438 -16Q217 -16 217 350V1055Z"  />
<glyph unicode="u" horiz-adv-x="1130" d="M463 -16Q207 -16 207 317V1114H272V322Q272 187 322 115T475 43Q571 43 656 147T795 434T848 797V1114H913V287Q913 190 927 139T973 65T1073 43V2Q1045 -8 1014 -8Q930 -8 889 54T848 268V428H846Q710 -16 463 -16Z"  />
<glyph unicode="v" horiz-adv-x="1008" d="M506 61Q684 306 753 547T823 1114H889Q889 875 856 693T749 347T537 0H471Q270 270 195 516T119 1114H184Q184 890 216 712T314 383T506 61Z"  />
<glyph unicode="w" horiz-adv-x="1536" d="M463 61Q569 233 624 375T707 677T735 1034H801Q801 757 861 532T1073 61Q1183 238 1239 387T1324 713T1352 1114H1417Q1417 878 1389 698T1295 354T1104 0H1047Q822 338 768 713Q712 339 489 0H432Q307 188 242 352T148 696T119 1114H184Q184 792 246 549T463 61Z"  />
<glyph unicode="x" horiz-adv-x="954" d="M797 0Q783 130 710 255T477 535Q308 369 239 247T158 0H92Q107 144 184 276T438 573Q280 728 211 852T129 1114H195Q206 994 267 879T477 612Q624 759 686 874T760 1114H825Q812 979 743 854T516 573Q699 401 773 271T862 0H797Z"  />
<glyph unicode="y" horiz-adv-x="1120" d="M479 -326Q659 -326 753 -215T848 106V428H846Q711 -8 463 -8Q341 -8 274 73T207 324V1114H272V328Q272 195 322 123T475 51Q573 51 658 157T796 441T848 797V1114H913V104Q913 -129 801 -257T483 -385Q354 -385 219 -332V-283H223Q323 -311 373 -318T479 -326Z"  />
<glyph unicode="z" horiz-adv-x="788" d="M68 0V41L618 1055H106V1114H698V1073L147 59H731V0H68Z"  />
<glyph unicode="{" horiz-adv-x="573" d="M184 606Q253 579 282 517T311 338V-72Q311 -207 367 -266T557 -326H563V-385H541Q385 -385 316 -309T246 -70V340Q246 476 205 527T53 578H41V637H53Q166 637 206 688T246 874V1284Q246 1447 315 1523T541 1599H563V1540H557Q421 1540 366 1480T311 1286V877Q311 760 282 699T184 610V606Z"  />
<glyph unicode="|" horiz-adv-x="516" d="M291 -385H225V1599H291V-385Z"  />
<glyph unicode="}" horiz-adv-x="573" d="M389 608Q320 635 291 697T262 877V1286Q262 1420 207 1480T16 1540H10V1599H33Q189 1599 258 1523T328 1284V874Q328 780 346 730T403 658T520 637H532V578H520Q409 578 369 527T328 340V-70Q328 -233 259 -309T33 -385H10V-326H16Q150 -326 206 -267T262 -72V338Q262 453 290 514T389 604V608Z"  />
<glyph unicode="~" horiz-adv-x="1026" d="M307 729Q254 729 202 702T82 602V672Q142 735 194 760T307 786Q368 786 418 767T516 724T612 682T717 662Q775 662 821 685T944 788V721Q848 604 717 604Q651 604 598 623T498 666T405 709T307 729Z"  />
<glyph unicode="&#xA0;" horiz-adv-x="524" />
<glyph unicode="&#xA1;" horiz-adv-x="459" d="M252 700L264 -369H195L207 700H252ZM285 1063Q285 1038 269 1023T229 1008Q206 1008 190 1023T174 1063Q174 1088 190 1103T229 1118Q252 1118 268 1103T285 1063Z"  />
<glyph unicode="&#xA2;" horiz-adv-x="1026" d="M600 -16H541V176Q432 186 347 252T216 434T170 702Q170 940 268 1103T541 1309V1491H600V1319Q639 1321 647 1321Q744 1321 840 1286V1235H836Q728 1262 645 1262Q616 1262 600 1260V231Q647 231 689 239T829 287H834V244Q718 179 600 174V-16ZM238 715Q238 511 318 384T541 236V1247Q400 1208 319 1063T238 715Z"  />
<glyph unicode="&#xA3;" horiz-adv-x="1026" d="M201 616H383L362 723Q317 926 317 1055Q317 1249 411 1370T668 1491Q741 1491 793 1475T891 1438V1386H887Q777 1430 672 1430Q541 1430 463 1331T385 1061Q385 930 431 723L451 616H676V557H459Q469 489 469 418Q469 177 297 63V61H936V0H74V53H80Q172 53 245 96T359 221T401 414Q401 487 391 557H201V616Z"  />
<glyph unicode="&#xA4;" horiz-adv-x="1026" d="M150 657Q150 793 238 891L104 1024L147 1067L281 932Q380 1012 512 1012Q642 1012 741 930L879 1067L922 1024L784 889Q872 791 872 657Q872 522 784 426L922 293L879 250L741 385Q640 305 512 305Q378 305 281 385L147 250L104 293L238 426Q150 522 150 657ZM217 657Q217 537 303 451T512 365Q589 365 657 403T765 510T805 657Q805 735 765 804T658 913T512 952Q389 952 303 865T217 657Z"  />
<glyph unicode="&#xA5;" horiz-adv-x="1026" d="M137 580H432Q82 987 82 1462V1475H150V1464Q150 1229 243 1001T512 578H516Q689 771 783 995T877 1464V1475H944V1462Q944 987 594 580H889V522H545V319H889V262H545V0H481V262H137V319H481V522H137V580Z"  />
<glyph unicode="&#xA6;" horiz-adv-x="516" d="M291 852H225V1599H291V852ZM291 -385H225V362H291V-385Z"  />
<glyph unicode="&#xA7;" horiz-adv-x="1141" d="M748 61Q748 138 720 206T639 343T438 555Q310 679 250 763T159 932T127 1114Q127 1249 188 1360T363 1535T631 1599Q816 1599 977 1528V1477H973L901 1502Q788 1540 672 1540Q542 1540 466 1456T389 1221Q389 1142 438 1059T587 880Q745 727 807 660T915 524T987 378T1014 213Q1014 52 942 -70T738 -259T444 -326Q345 -326 265 -306T94 -236V-182H98Q176 -219 255 -242T428 -266Q577 -266 662 -179T748 61ZM322 1214Q322 1393 432 1509H422Q316 1454 256 1352T195 1124Q195 1036 221 962T291 823T391 699T505 583T619 469T718 348T788 215T815 61Q815 -8 797 -69T729 -193H745Q848 -117 897 -19T946 213Q946 295 919 366T849 502T749 625T634 740T519 852T420 964T349 1083T322 1214Z"  />
<glyph unicode="&#xA8;" horiz-adv-x="1047" d="M412 1382Q412 1359 397 1346T362 1333Q342 1333 328 1346T313 1382Q313 1405 327 1418T362 1432Q382 1432 397 1419T412 1382ZM731 1382Q731 1359 717 1346T682 1333Q662 1333 648 1346T633 1382Q633 1405 647 1418T682 1432Q702 1432 716 1419T731 1382Z"  />
<glyph unicode="&#xA9;" horiz-adv-x="1696" d="M104 748Q104 961 198 1131T464 1396T848 1491Q1060 1491 1230 1398T1496 1133T1591 748Q1591 529 1496 353T1229 81T848 -16Q636 -16 465 81T199 353T104 748ZM1526 748Q1526 947 1441 1103T1201 1346T848 1432Q651 1432 496 1346T256 1104T170 748Q170 548 256 387T498 134T848 43Q1041 43 1197 134T1440 386T1526 748ZM1133 371Q997 303 858 303Q741 303 645 357T493 510T438 741Q438 871 493 972T648 1130T862 1188Q929 1188 992 1173T1133 1120V1069H1126Q1042 1105 985 1116T862 1128Q765 1128 683 1081T553 947T506 745Q506 631 553 544T682 410T862 362Q930 362 985 374T1126 422H1133V371Z"  />
<glyph unicode="&#xAA;" horiz-adv-x="797" d="M82 1034Q82 1173 125 1277T246 1436T422 1491Q517 1491 610 1454V920Q610 816 636 774T729 731V690Q700 682 686 682Q551 682 551 905V969Q472 678 301 678Q197 678 140 772T82 1034ZM147 1042Q147 903 189 819T307 735Q369 735 425 803T514 986T547 1227V1415Q475 1434 416 1434Q298 1434 223 1327T147 1042Z"  />
<glyph unicode="&#xAB;" horiz-adv-x="860" d="M352 123L104 559L360 995H424L172 559L424 123H352ZM684 123L436 559L692 995H756L504 559L756 123H684Z"  />
<glyph unicode="&#xAC;" horiz-adv-x="1026" d="M922 614V174H862V555H104V614H922Z"  />
<glyph unicode="&#xAD;" horiz-adv-x="705" d="M104 616H600V557H104V616Z"  />
<glyph unicode="&#xAE;" horiz-adv-x="1696" d="M104 748Q104 961 198 1131T464 1396T848 1491Q1060 1491 1230 1398T1496 1133T1591 748Q1591 529 1496 353T1229 81T848 -16Q636 -16 465 81T199 353T104 748ZM1526 748Q1526 947 1441 1103T1201 1346T848 1432Q651 1432 496 1346T256 1104T170 748Q170 548 256 387T498 134T848 43Q1041 43 1197 134T1440 386T1526 748ZM784 1188Q1139 1188 1139 942Q1139 864 1086 805T938 715Q1017 523 1084 443T1223 362H1237V324Q1216 317 1190 317Q1107 317 1038 399T874 707Q780 700 664 700V322H600V1169Q688 1188 784 1188ZM1071 942Q1071 1133 784 1133Q739 1133 664 1122V760H915Q1071 807 1071 942Z"  />
<glyph unicode="&#xAF;" horiz-adv-x="1047" d="M231 1405H815V1356H231V1405Z"  />
<glyph unicode="&#xB0;" horiz-adv-x="674" d="M338 1491Q454 1491 534 1412T614 1212Q614 1093 534 1014T336 934Q217 934 138 1014T59 1212Q59 1332 140 1411T338 1491ZM547 1210Q547 1305 488 1368T338 1432Q247 1432 187 1368T127 1210Q127 1118 186 1056T338 993Q428 993 487 1054T547 1210Z"  />
<glyph unicode="&#xB1;" horiz-adv-x="1026" d="M104 59H922V0H104V59ZM104 713H483V1092H543V713H922V653H543V272H483V653H104V713Z"  />
<glyph unicode="&#xB2;" horiz-adv-x="766" d="M668 598H98V639Q98 729 153 805T326 962Q452 1048 502 1114T553 1255Q553 1336 507 1383T383 1430Q327 1430 276 1418T154 1374H152V1421Q225 1460 278 1473T383 1487Q484 1487 551 1426T618 1260Q618 1200 596 1151T532 1056T394 942Q280 860 243 823T184 744T160 653H668V598Z"  />
<glyph unicode="&#xB3;" horiz-adv-x="766" d="M602 1264Q602 1101 438 1057V1055Q533 1038 581 986T629 852Q629 723 548 655T311 586Q200 586 92 639V686H94Q214 643 303 643Q563 643 563 852Q563 934 501 980T322 1026H215V1081H322Q425 1081 481 1126T537 1262Q537 1339 489 1384T362 1430Q313 1430 267 1420T137 1374H135V1421Q256 1487 365 1487Q471 1487 536 1424T602 1264Z"  />
<glyph unicode="&#xB4;" horiz-adv-x="1047" d="M373 1260Q444 1339 497 1409T610 1579H684V1575Q575 1412 414 1255H373V1260Z"  />
<glyph unicode="&#xB5;" horiz-adv-x="1130" d="M463 -16Q338 -16 272 96V-385H207V1114H272V322Q272 187 322 115T475 43Q571 43 656 147T795 434T848 797V1114H913V287Q913 190 927 139T973 65T1073 43V2Q1045 -8 1014 -8Q930 -8 889 54T848 268V428H846Q710 -16 463 -16Z"  />
<glyph unicode="&#xB6;" horiz-adv-x="1098" d="M807 -201V1413Q708 1432 592 1432V-201H526V639Q341 639 235 749T129 1053Q129 1185 189 1284T355 1437T592 1491Q744 1491 872 1462V-201H807Z"  />
<glyph unicode="&#xB7;" horiz-adv-x="319" d="M104 727Q104 752 120 767T160 782Q183 782 199 767T215 727Q215 702 199 687T160 672Q137 672 121 687T104 727Z"  />
<glyph unicode="&#xB8;" horiz-adv-x="1047" d="M598 -205Q598 -158 571 -136T481 -111L434 -109L481 14H526L500 -63Q662 -73 662 -203Q662 -279 609 -322T465 -365Q420 -365 387 -354T317 -324V-279H322Q392 -309 463 -309Q523 -309 560 -284T598 -205Z"  />
<glyph unicode="&#xB9;" horiz-adv-x="766" d="M131 1284V1339H145Q235 1339 289 1369T367 1475H416V598H352V1350H350Q311 1313 263 1299T147 1284H131Z"  />
<glyph unicode="&#xBA;" horiz-adv-x="754" d="M377 678Q244 678 163 783T82 1071Q82 1270 161 1380T377 1491Q512 1491 592 1387T672 1102Q672 903 595 791T377 678ZM377 735Q487 735 546 830T606 1102Q606 1255 544 1344T377 1434Q268 1434 208 1340T147 1071Q147 919 210 827T377 735Z"  />
<glyph unicode="&#xBB;" horiz-adv-x="860" d="M508 995L756 559L500 123H436L688 559L436 995H508ZM176 995L424 559L168 123H104L356 559L104 995H176Z"  />
<glyph unicode="&#xBC;" horiz-adv-x="1452" d="M61 1284V1339H76Q165 1339 219 1370T297 1475H346V598H283V1350H281Q243 1314 195 1299T78 1284H61ZM178 0L1034 1475H1102L244 0H178ZM1104 293H680V334L1118 877H1165V346H1319V293H1165V0H1104V293ZM760 346H1104V772H1100L760 350V346Z"  />
<glyph unicode="&#xBD;" horiz-adv-x="1577" d="M61 1284V1339H76Q165 1339 219 1370T297 1475H346V598H283V1350H281Q243 1314 195 1299T78 1284H61ZM178 0L1034 1475H1102L244 0H178ZM1407 0H838V41Q838 126 886 198T1065 364Q1167 436 1207 477T1270 561T1292 657Q1292 737 1247 784T1122 831Q1068 831 1015 820T893 776H891V823Q964 862 1017 875T1122 889Q1224 889 1291 826T1358 662Q1358 605 1339 560T1288 477T1216 407T1133 344T1050 283T976 218T922 144T899 55H1407V0Z"  />
<glyph unicode="&#xBE;" horiz-adv-x="1538" d="M584 1264Q584 1102 420 1057V1055Q514 1039 562 986T610 852Q610 723 529 655T293 586Q180 586 74 639V686H76Q196 643 285 643Q545 643 545 852Q545 934 482 980T303 1026H197V1081H303Q406 1081 462 1126T518 1262Q518 1339 470 1384T344 1430Q295 1430 249 1420T119 1374H117V1421Q238 1487 346 1487Q453 1487 518 1424T584 1264ZM373 0L1229 1475H1296L438 0H373ZM1249 293H825V334L1264 877H1311V346H1464V293H1311V0H1249V293ZM905 346H1249V772H1245L905 350V346Z"  />
<glyph unicode="&#xBF;" horiz-adv-x="645" d="M444 700V672Q444 572 411 482T308 293Q235 188 204 111T172 -51Q172 -180 238 -252T416 -324Q473 -324 519 -311T633 -264H639V-313Q572 -353 517 -369T403 -385Q271 -385 188 -294T104 -57Q104 35 138 121T245 306Q317 406 351 492T385 672V700H444ZM471 1063Q471 1038 455 1023T416 1008Q393 1008 377 1023T360 1063Q360 1088 376 1103T416 1118Q439 1118 455 1103T471 1063Z"  />
<glyph unicode="&#xC0;" horiz-adv-x="1145" d="M106 16Q106 408 221 788T547 1475H598Q808 1171 923 792T1038 16V0H971V16Q971 296 905 590H238Q174 296 174 16V0H106V16ZM571 1397Q356 1064 254 651H891Q785 1071 573 1397H571ZM676 1620H635Q481 1766 365 1940V1944H438Q491 1855 540 1788T676 1625V1620Z"  />
<glyph unicode="&#xC1;" horiz-adv-x="1145" d="M106 16Q106 408 221 788T547 1475H598Q808 1171 923 792T1038 16V0H971V16Q971 296 905 590H238Q174 296 174 16V0H106V16ZM571 1397Q356 1064 254 651H891Q785 1071 573 1397H571ZM469 1625Q540 1704 593 1774T706 1944H780V1940Q671 1777 510 1620H469V1625Z"  />
<glyph unicode="&#xC2;" horiz-adv-x="1145" d="M106 16Q106 408 221 788T547 1475H598Q808 1171 923 792T1038 16V0H971V16Q971 296 905 590H238Q174 296 174 16V0H106V16ZM571 1397Q356 1064 254 651H891Q785 1071 573 1397H571ZM850 1620H811Q708 1780 571 1887Q434 1779 332 1620H293V1625Q400 1811 545 1944H598Q745 1808 850 1625V1620Z"  />
<glyph unicode="&#xC3;" horiz-adv-x="1145" d="M106 16Q106 408 221 788T547 1475H598Q808 1171 923 792T1038 16V0H971V16Q971 296 905 590H238Q174 296 174 16V0H106V16ZM571 1397Q356 1064 254 651H891Q785 1071 573 1397H571ZM446 1806Q490 1806 529 1784T629 1708Q676 1667 721 1667Q766 1667 794 1705T829 1806H868Q866 1719 825 1667T721 1615Q684 1615 656 1627T557 1697Q522 1726 499 1740T440 1755Q395 1755 367 1716T331 1615H293Q295 1698 337 1752T446 1806Z"  />
<glyph unicode="&#xC4;" horiz-adv-x="1145" d="M106 16Q106 408 221 788T547 1475H598Q808 1171 923 792T1038 16V0H971V16Q971 296 905 590H238Q174 296 174 16V0H106V16ZM571 1397Q356 1064 254 651H891Q785 1071 573 1397H571ZM461 1747Q461 1724 446 1711T411 1698Q391 1698 377 1711T362 1747Q362 1770 376 1783T411 1797Q431 1797 446 1784T461 1747ZM780 1747Q780 1724 766 1711T731 1698Q711 1698 697 1711T682 1747Q682 1770 696 1783T731 1797Q751 1797 765 1784T780 1747Z"  />
<glyph unicode="&#xC5;" horiz-adv-x="1145" d="M403 1589Q403 1661 451 1707T573 1753Q645 1753 693 1708T741 1589Q741 1529 708 1488T625 1434Q819 1141 928 770T1038 16V0H971V16Q971 296 905 590H238Q174 296 174 16V0H106V16Q106 395 213 764T520 1434Q469 1449 436 1489T403 1589ZM571 1397Q356 1064 254 651H891Q785 1071 573 1397H571ZM457 1589Q457 1542 490 1509T573 1475Q621 1475 654 1506T688 1589Q688 1642 655 1673T573 1704Q521 1704 489 1671T457 1589Z"  />
<glyph unicode="&#xC6;" horiz-adv-x="1538" d="M90 0Q94 411 225 778T625 1475H1405V1413H782V797H1313V735H782V61H1415V0H715V590H240Q163 311 158 0H90ZM715 651V1413H657Q383 1083 256 651H715Z"  />
<glyph unicode="&#xC7;" horiz-adv-x="1114" d="M760 -205Q760 -158 733 -136T643 -111L596 -109L633 -12Q486 5 379 95T214 342T156 711Q156 934 237 1113T460 1392T772 1491Q919 1491 1044 1444V1386H1040Q961 1411 903 1420T774 1430Q622 1430 495 1339T297 1085T225 717Q225 518 280 368T445 131T696 45Q782 45 855 62T1018 127H1022V74Q947 30 870 7T698 -16H678L662 -63Q823 -73 823 -203Q823 -279 770 -322T627 -365Q559 -365 479 -324V-279H483Q553 -309 625 -309Q685 -309 722 -284T760 -205Z"  />
<glyph unicode="&#xC8;" horiz-adv-x="1049" d="M225 1475H915V1413H293V797H823V735H293V61H926V0H225V1475ZM676 1620H635Q481 1766 365 1940V1944H438Q491 1855 540 1788T676 1625V1620Z"  />
<glyph unicode="&#xC9;" horiz-adv-x="1049" d="M225 1475H915V1413H293V797H823V735H293V61H926V0H225V1475ZM469 1625Q540 1704 593 1774T706 1944H780V1940Q671 1777 510 1620H469V1625Z"  />
<glyph unicode="&#xCA;" horiz-adv-x="1049" d="M225 1475H915V1413H293V797H823V735H293V61H926V0H225V1475ZM844 1620H805Q702 1780 565 1887Q428 1779 326 1620H287V1625Q394 1811 539 1944H592Q739 1808 844 1625V1620Z"  />
<glyph unicode="&#xCB;" horiz-adv-x="1049" d="M225 1475H915V1413H293V797H823V735H293V61H926V0H225V1475ZM457 1706Q457 1683 442 1670T407 1657Q387 1657 373 1670T358 1706Q358 1729 372 1742T407 1756Q427 1756 442 1743T457 1706ZM776 1706Q776 1683 762 1670T727 1657Q707 1657 693 1670T678 1706Q678 1729 692 1742T727 1756Q747 1756 761 1743T776 1706Z"  />
<glyph unicode="&#xCC;" horiz-adv-x="518" d="M293 0H225V1475H293V0ZM365 1620H324Q170 1766 54 1940V1944H127Q180 1855 229 1788T365 1625V1620Z"  />
<glyph unicode="&#xCD;" horiz-adv-x="518" d="M293 0H225V1475H293V0ZM160 1625Q231 1704 284 1774T397 1944H471V1940Q362 1777 201 1620H160V1625Z"  />
<glyph unicode="&#xCE;" horiz-adv-x="518" d="M293 0H225V1475H293V0ZM541 1620H502Q399 1780 262 1887Q125 1779 23 1620H-16V1625Q91 1811 236 1944H289Q436 1808 541 1625V1620Z"  />
<glyph unicode="&#xCF;" horiz-adv-x="518" d="M293 0H225V1475H293V0ZM152 1706Q152 1683 137 1670T102 1657Q82 1657 68 1670T53 1706Q53 1729 67 1742T102 1756Q122 1756 137 1743T152 1706ZM471 1706Q471 1683 457 1670T422 1657Q402 1657 388 1670T373 1706Q373 1729 387 1742T422 1756Q442 1756 456 1743T471 1706Z"  />
<glyph unicode="&#xD0;" horiz-adv-x="1366" d="M31 795H225V1462Q350 1491 518 1491Q723 1491 880 1404T1124 1150T1210 764Q1210 395 1033 198T524 0H225V735H31V795ZM1141 758Q1141 963 1062 1115T838 1349T508 1430Q400 1430 293 1413V795H686V735H293V61H524Q825 61 983 240T1141 758Z"  />
<glyph unicode="&#xD1;" horiz-adv-x="1362" d="M1069 137H1073Q1069 263 1069 403V1475H1137V0H1075L293 1343H289Q293 1217 293 1077V0H225V1475H287L1069 137ZM553 1811Q597 1811 636 1789T736 1713Q783 1672 828 1672Q873 1672 901 1710T936 1811H975Q973 1724 932 1672T828 1620Q791 1620 763 1632T664 1702Q629 1731 606 1745T547 1760Q502 1760 474 1721T438 1620H400Q402 1703 444 1757T553 1811Z"  />
<glyph unicode="&#xD2;" horiz-adv-x="1397" d="M698 1491Q862 1491 985 1404T1174 1151T1241 752Q1241 527 1172 352T978 80T698 -16Q532 -16 410 71T222 325T156 723Q156 947 225 1123T419 1395T698 1491ZM698 1430Q559 1430 452 1342T285 1092T225 723Q225 523 281 369T445 130T698 45Q910 45 1040 239T1171 752Q1171 953 1114 1108T950 1346T698 1430ZM801 1620H760Q606 1766 490 1940V1944H563Q616 1855 665 1788T801 1625V1620Z"  />
<glyph unicode="&#xD3;" horiz-adv-x="1397" d="M698 1491Q862 1491 985 1404T1174 1151T1241 752Q1241 527 1172 352T978 80T698 -16Q532 -16 410 71T222 325T156 723Q156 947 225 1123T419 1395T698 1491ZM698 1430Q559 1430 452 1342T285 1092T225 723Q225 523 281 369T445 130T698 45Q910 45 1040 239T1171 752Q1171 953 1114 1108T950 1346T698 1430ZM596 1625Q667 1704 720 1774T833 1944H907V1940Q798 1777 637 1620H596V1625Z"  />
<glyph unicode="&#xD4;" horiz-adv-x="1397" d="M698 1491Q862 1491 985 1404T1174 1151T1241 752Q1241 527 1172 352T978 80T698 -16Q532 -16 410 71T222 325T156 723Q156 947 225 1123T419 1395T698 1491ZM698 1430Q559 1430 452 1342T285 1092T225 723Q225 523 281 369T445 130T698 45Q910 45 1040 239T1171 752Q1171 953 1114 1108T950 1346T698 1430ZM977 1620H938Q835 1780 698 1887Q561 1779 459 1620H420V1625Q527 1811 672 1944H725Q872 1808 977 1625V1620Z"  />
<glyph unicode="&#xD5;" horiz-adv-x="1397" d="M698 1491Q862 1491 985 1404T1174 1151T1241 752Q1241 527 1172 352T978 80T698 -16Q532 -16 410 71T222 325T156 723Q156 947 225 1123T419 1395T698 1491ZM698 1430Q559 1430 452 1342T285 1092T225 723Q225 523 281 369T445 130T698 45Q910 45 1040 239T1171 752Q1171 953 1114 1108T950 1346T698 1430ZM571 1811Q615 1811 654 1789T754 1713Q801 1672 846 1672Q891 1672 919 1710T954 1811H993Q991 1724 950 1672T846 1620Q809 1620 781 1632T682 1702Q647 1731 624 1745T565 1760Q520 1760 492 1721T456 1620H418Q420 1703 462 1757T571 1811Z"  />
<glyph unicode="&#xD6;" horiz-adv-x="1397" d="M698 1491Q862 1491 985 1404T1174 1151T1241 752Q1241 527 1172 352T978 80T698 -16Q532 -16 410 71T222 325T156 723Q156 947 225 1123T419 1395T698 1491ZM698 1430Q559 1430 452 1342T285 1092T225 723Q225 523 281 369T445 130T698 45Q910 45 1040 239T1171 752Q1171 953 1114 1108T950 1346T698 1430ZM588 1747Q588 1724 573 1711T538 1698Q518 1698 504 1711T489 1747Q489 1770 503 1783T538 1797Q558 1797 573 1784T588 1747ZM907 1747Q907 1724 893 1711T858 1698Q838 1698 824 1711T809 1747Q809 1770 823 1783T858 1797Q878 1797 892 1784T907 1747Z"  />
<glyph unicode="&#xD7;" horiz-adv-x="1026" d="M174 289L473 584L174 881L217 924L514 623L809 924L852 881L553 584L852 289L809 246L512 545L217 246L174 289Z"  />
<glyph unicode="&#xD8;" horiz-adv-x="1397" d="M698 1491Q921 1491 1061 1337L1161 1491H1231L1098 1290Q1241 1099 1241 752Q1241 527 1172 352T978 80T698 -16Q477 -16 336 139L233 -16H166L299 184Q156 379 156 723Q156 947 225 1123T419 1395T698 1491ZM1171 752Q1171 1047 1057 1229L375 199Q499 45 698 45Q910 45 1040 239T1171 752ZM698 1430Q559 1430 452 1342T285 1092T225 723Q225 429 340 248L1022 1278Q891 1430 698 1430Z"  />
<glyph unicode="&#xD9;" horiz-adv-x="1348" d="M623 -16Q413 -16 312 120T211 535V1475H279V537Q279 286 363 167T625 47Q837 47 946 235T1055 797V1475H1122V565Q1122 251 1151 0H1090Q1069 154 1061 358H1057Q949 -16 623 -16ZM764 1620H723Q569 1766 453 1940V1944H526Q579 1855 628 1788T764 1625V1620Z"  />
<glyph unicode="&#xDA;" horiz-adv-x="1348" d="M623 -16Q413 -16 312 120T211 535V1475H279V537Q279 286 363 167T625 47Q837 47 946 235T1055 797V1475H1122V565Q1122 251 1151 0H1090Q1069 154 1061 358H1057Q949 -16 623 -16ZM568 1625Q639 1704 692 1774T805 1944H879V1940Q770 1777 609 1620H568V1625Z"  />
<glyph unicode="&#xDB;" horiz-adv-x="1348" d="M623 -16Q413 -16 312 120T211 535V1475H279V537Q279 286 363 167T625 47Q837 47 946 235T1055 797V1475H1122V565Q1122 251 1151 0H1090Q1069 154 1061 358H1057Q949 -16 623 -16ZM948 1620H909Q806 1780 669 1887Q532 1779 430 1620H391V1625Q498 1811 643 1944H696Q843 1808 948 1625V1620Z"  />
<glyph unicode="&#xDC;" horiz-adv-x="1348" d="M623 -16Q413 -16 312 120T211 535V1475H279V537Q279 286 363 167T625 47Q837 47 946 235T1055 797V1475H1122V565Q1122 251 1151 0H1090Q1069 154 1061 358H1057Q949 -16 623 -16ZM557 1747Q557 1724 542 1711T507 1698Q487 1698 473 1711T458 1747Q458 1770 472 1783T507 1797Q527 1797 542 1784T557 1747ZM876 1747Q876 1724 862 1711T827 1698Q807 1698 793 1711T778 1747Q778 1770 792 1783T827 1797Q847 1797 861 1784T876 1747Z"  />
<glyph unicode="&#xDD;" horiz-adv-x="1116" d="M524 0V524Q315 738 211 975T106 1462V1475H174V1464Q174 1235 270 1010T555 580H561Q746 781 844 1007T942 1464V1475H1010V1462Q1010 1212 906 975T592 524V0H524ZM457 1625Q528 1704 581 1774T694 1944H768V1940Q659 1777 498 1620H457V1625Z"  />
<glyph unicode="&#xDE;" horiz-adv-x="1124" d="M969 778Q969 558 838 445T446 332H293V0H225V1475H293V1196Q377 1212 485 1212Q704 1212 836 1095T969 778ZM899 774Q899 890 846 975T697 1105T479 1151Q385 1151 293 1135V393H449Q899 393 899 774Z"  />
<glyph unicode="&#xDF;" horiz-adv-x="1180" d="M569 829Q569 897 607 954T726 1068Q806 1124 844 1178T883 1296Q883 1404 806 1472T612 1540Q449 1540 361 1441T272 1159V8Q272 -174 192 -279T-29 -385Q-58 -385 -91 -377T-145 -356V-315H-141Q-97 -326 -49 -326Q207 -326 207 25V1159Q207 1364 312 1481T598 1599Q757 1599 851 1517T946 1292Q946 1221 908 1162T792 1046Q712 989 675 939T637 829Q637 763 674 715T821 600Q939 529 982 488T1051 395T1077 274Q1077 137 994 61T768 -16Q604 -16 496 53V94H500Q566 67 627 55T764 43Q883 43 946 104T1010 270Q1010 323 991 363T942 435T872 493T791 545Q698 600 656 640T591 726T569 829Z"  />
<glyph unicode="&#xE0;" horiz-adv-x="1087" d="M129 485Q129 683 189 829T356 1053T600 1130Q731 1130 870 1077V315Q870 168 908 106T1036 43V2Q1008 -8 977 -8Q811 -8 811 303V428H809Q751 211 657 98T440 -16Q293 -16 211 114T129 485ZM197 496Q197 282 263 163T446 43Q538 43 622 142T755 411T805 776V1034Q705 1071 592 1071Q477 1071 387 1001T247 799T197 496ZM676 1255H635Q481 1401 365 1575V1579H438Q491 1490 540 1423T676 1260V1255Z"  />
<glyph unicode="&#xE1;" horiz-adv-x="1087" d="M129 485Q129 683 189 829T356 1053T600 1130Q731 1130 870 1077V315Q870 168 908 106T1036 43V2Q1008 -8 977 -8Q811 -8 811 303V428H809Q751 211 657 98T440 -16Q293 -16 211 114T129 485ZM197 496Q197 282 263 163T446 43Q538 43 622 142T755 411T805 776V1034Q705 1071 592 1071Q477 1071 387 1001T247 799T197 496ZM469 1260Q540 1339 593 1409T706 1579H780V1575Q671 1412 510 1255H469V1260Z"  />
<glyph unicode="&#xE2;" horiz-adv-x="1087" d="M129 485Q129 683 189 829T356 1053T600 1130Q731 1130 870 1077V315Q870 168 908 106T1036 43V2Q1008 -8 977 -8Q811 -8 811 303V428H809Q751 211 657 98T440 -16Q293 -16 211 114T129 485ZM197 496Q197 282 263 163T446 43Q538 43 622 142T755 411T805 776V1034Q705 1071 592 1071Q477 1071 387 1001T247 799T197 496ZM850 1255H811Q708 1415 571 1522Q434 1414 332 1255H293V1260Q400 1446 545 1579H598Q745 1443 850 1260V1255Z"  />
<glyph unicode="&#xE3;" horiz-adv-x="1087" d="M129 485Q129 683 189 829T356 1053T600 1130Q731 1130 870 1077V315Q870 168 908 106T1036 43V2Q1008 -8 977 -8Q811 -8 811 303V428H809Q751 211 657 98T440 -16Q293 -16 211 114T129 485ZM197 496Q197 282 263 163T446 43Q538 43 622 142T755 411T805 776V1034Q705 1071 592 1071Q477 1071 387 1001T247 799T197 496ZM444 1446Q488 1446 527 1424T627 1348Q674 1307 719 1307Q764 1307 792 1345T827 1446H866Q864 1359 823 1307T719 1255Q682 1255 654 1267T555 1337Q520 1366 497 1380T438 1395Q393 1395 365 1356T329 1255H291Q293 1338 335 1392T444 1446Z"  />
<glyph unicode="&#xE4;" horiz-adv-x="1087" d="M129 485Q129 683 189 829T356 1053T600 1130Q731 1130 870 1077V315Q870 168 908 106T1036 43V2Q1008 -8 977 -8Q811 -8 811 303V428H809Q751 211 657 98T440 -16Q293 -16 211 114T129 485ZM197 496Q197 282 263 163T446 43Q538 43 622 142T755 411T805 776V1034Q705 1071 592 1071Q477 1071 387 1001T247 799T197 496ZM461 1382Q461 1359 446 1346T411 1333Q391 1333 377 1346T362 1382Q362 1405 376 1418T411 1432Q431 1432 446 1419T461 1382ZM780 1382Q780 1359 766 1346T731 1333Q711 1333 697 1346T682 1382Q682 1405 696 1418T731 1432Q751 1432 765 1419T780 1382Z"  />
<glyph unicode="&#xE5;" horiz-adv-x="1087" d="M129 485Q129 683 189 829T356 1053T600 1130Q731 1130 870 1077V315Q870 168 908 106T1036 43V2Q1008 -8 977 -8Q811 -8 811 303V428H809Q751 211 657 98T440 -16Q293 -16 211 114T129 485ZM197 496Q197 282 263 163T446 43Q538 43 622 142T755 411T805 776V1034Q705 1071 592 1071Q477 1071 387 1001T247 799T197 496ZM403 1454Q403 1526 453 1572T573 1618Q645 1618 693 1571T741 1454Q741 1384 693 1337T573 1290Q503 1290 453 1336T403 1454ZM457 1454Q457 1405 490 1372T573 1339Q621 1339 654 1370T688 1454Q688 1507 655 1538T573 1569Q521 1569 489 1536T457 1454Z"  />
<glyph unicode="&#xE6;" horiz-adv-x="1571" d="M772 512Q776 295 871 169T1130 43Q1194 43 1257 57T1411 115H1417V74Q1328 23 1257 4T1114 -16Q1015 -16 928 29T782 178H780Q703 78 617 31T424 -16Q287 -16 202 65T117 274Q117 423 228 501T555 580Q623 580 707 569Q715 694 715 764Q715 917 658 994T479 1071Q418 1071 359 1056T203 993H197V1042Q281 1090 347 1110T487 1130Q620 1130 694 1048T768 821H772Q823 961 928 1045T1161 1130Q1294 1130 1373 1057T1452 860Q1452 679 1307 596T862 512H772ZM862 565Q1137 565 1261 633T1386 858Q1386 955 1326 1013T1159 1071Q1060 1071 976 1012T837 839T772 565H862ZM557 526Q373 526 279 462T184 274Q184 168 255 106T438 43Q532 43 615 92T752 233Q705 349 705 518Q604 526 557 526Z"  />
<glyph unicode="&#xE7;" horiz-adv-x="872" d="M606 -205Q606 -158 579 -136T489 -111L442 -109L479 -12Q317 10 222 149T127 512Q127 694 186 835T354 1053T604 1130Q697 1130 797 1096V1044H793Q685 1071 602 1071Q476 1071 385 1002T245 808T195 524Q195 299 292 171T557 43Q608 43 651 51T786 96H791V53Q665 -16 532 -16H524L508 -63Q670 -73 670 -203Q670 -279 617 -322T473 -365Q428 -365 395 -354T326 -324V-279H330Q400 -309 471 -309Q531 -309 568 -284T606 -205Z"  />
<glyph unicode="&#xE8;" horiz-adv-x="993" d="M285 565Q558 565 683 633T809 858Q809 955 749 1013T582 1071Q482 1071 397 1011T259 838T195 565H285ZM195 512Q199 292 294 168T553 43Q617 43 680 57T834 115H840V74Q754 25 683 5T535 -16Q416 -16 323 47T179 229T127 512Q127 694 186 834T350 1052T584 1130Q717 1130 795 1056T874 860Q874 679 729 596T285 512H195ZM627 1255H586Q432 1401 316 1575V1579H389Q442 1490 491 1423T627 1260V1255Z"  />
<glyph unicode="&#xE9;" horiz-adv-x="993" d="M285 565Q558 565 683 633T809 858Q809 955 749 1013T582 1071Q482 1071 397 1011T259 838T195 565H285ZM195 512Q199 292 294 168T553 43Q617 43 680 57T834 115H840V74Q754 25 683 5T535 -16Q416 -16 323 47T179 229T127 512Q127 694 186 834T350 1052T584 1130Q717 1130 795 1056T874 860Q874 679 729 596T285 512H195ZM420 1260Q491 1339 544 1409T657 1579H731V1575Q622 1412 461 1255H420V1260Z"  />
<glyph unicode="&#xEA;" horiz-adv-x="993" d="M285 565Q558 565 683 633T809 858Q809 955 749 1013T582 1071Q482 1071 397 1011T259 838T195 565H285ZM195 512Q199 292 294 168T553 43Q617 43 680 57T834 115H840V74Q754 25 683 5T535 -16Q416 -16 323 47T179 229T127 512Q127 694 186 834T350 1052T584 1130Q717 1130 795 1056T874 860Q874 679 729 596T285 512H195ZM801 1255H762Q659 1415 522 1522Q385 1414 283 1255H244V1260Q351 1446 496 1579H549Q696 1443 801 1260V1255Z"  />
<glyph unicode="&#xEB;" horiz-adv-x="993" d="M285 565Q558 565 683 633T809 858Q809 955 749 1013T582 1071Q482 1071 397 1011T259 838T195 565H285ZM195 512Q199 292 294 168T553 43Q617 43 680 57T834 115H840V74Q754 25 683 5T535 -16Q416 -16 323 47T179 229T127 512Q127 694 186 834T350 1052T584 1130Q717 1130 795 1056T874 860Q874 679 729 596T285 512H195ZM412 1382Q412 1359 397 1346T362 1333Q342 1333 328 1346T313 1382Q313 1405 327 1418T362 1432Q382 1432 397 1419T412 1382ZM731 1382Q731 1359 717 1346T682 1333Q662 1333 648 1346T633 1382Q633 1405 647 1418T682 1432Q702 1432 716 1419T731 1382Z"  />
<glyph unicode="&#xEC;" horiz-adv-x="489" d="M375 -8Q287 -8 247 57T207 262V1114H272V287Q272 190 286 139T332 65T432 43V2Q404 -8 375 -8ZM344 1255H303Q149 1401 33 1575V1579H106Q159 1490 208 1423T344 1260V1255Z"  />
<glyph unicode="&#xED;" horiz-adv-x="489" d="M375 -8Q287 -8 247 57T207 262V1114H272V287Q272 190 286 139T332 65T432 43V2Q404 -8 375 -8ZM139 1260Q210 1339 263 1409T376 1579H450V1575Q341 1412 180 1255H139V1260Z"  />
<glyph unicode="&#xEE;" horiz-adv-x="489" d="M375 -8Q287 -8 247 57T207 262V1114H272V287Q272 190 286 139T332 65T432 43V2Q404 -8 375 -8ZM520 1255H481Q378 1415 241 1522Q104 1414 2 1255H-37V1260Q70 1446 215 1579H268Q415 1443 520 1260V1255Z"  />
<glyph unicode="&#xEF;" horiz-adv-x="489" d="M375 -8Q287 -8 247 57T207 262V1114H272V287Q272 190 286 139T332 65T432 43V2Q404 -8 375 -8ZM131 1382Q131 1359 116 1346T81 1333Q61 1333 47 1346T32 1382Q32 1405 46 1418T81 1432Q101 1432 116 1419T131 1382ZM450 1382Q450 1359 436 1346T401 1333Q381 1333 367 1346T352 1382Q352 1405 366 1418T401 1432Q421 1432 435 1419T450 1382Z"  />
<glyph unicode="&#xF0;" horiz-adv-x="1085" d="M406 1280L590 1403Q461 1509 274 1540V1599Q497 1560 643 1440L881 1599V1534L684 1403Q817 1274 886 1066T956 580Q956 299 849 142T545 -16Q352 -16 241 124T129 512Q129 757 246 903T561 1049Q648 1049 726 1011T858 907H862Q806 1203 631 1368L406 1214V1280ZM543 43Q709 43 799 182T889 586Q889 777 803 883T561 989Q453 989 371 933T243 771T197 514Q197 293 289 168T543 43Z"  />
<glyph unicode="&#xF1;" horiz-adv-x="1130" d="M272 0H207V688Q207 979 197 1114H258Q266 975 266 686H270Q336 894 434 1012T645 1130Q774 1130 843 1047T913 807V287Q913 190 927 139T973 65T1073 43V2Q1045 -8 1016 -8Q928 -8 888 57T848 262V791Q848 1071 643 1071Q554 1071 469 965T328 685T272 354V0ZM440 1446Q484 1446 523 1424T623 1348Q670 1307 715 1307Q760 1307 788 1345T823 1446H862Q860 1359 819 1307T715 1255Q678 1255 650 1267T551 1337Q516 1366 493 1380T434 1395Q389 1395 361 1356T325 1255H287Q289 1338 331 1392T440 1446Z"  />
<glyph unicode="&#xF2;" horiz-adv-x="1085" d="M543 -16Q422 -16 327 52T181 248T129 539Q129 817 239 973T543 1130Q665 1130 759 1064T904 871T956 582Q956 300 846 142T543 -16ZM543 43Q711 43 800 182T889 582Q889 805 795 938T543 1071Q377 1071 287 932T197 539Q197 390 241 277T364 103T543 43ZM647 1255H606Q452 1401 336 1575V1579H409Q462 1490 511 1423T647 1260V1255Z"  />
<glyph unicode="&#xF3;" horiz-adv-x="1085" d="M543 -16Q422 -16 327 52T181 248T129 539Q129 817 239 973T543 1130Q665 1130 759 1064T904 871T956 582Q956 300 846 142T543 -16ZM543 43Q711 43 800 182T889 582Q889 805 795 938T543 1071Q377 1071 287 932T197 539Q197 390 241 277T364 103T543 43ZM441 1260Q512 1339 565 1409T678 1579H752V1575Q643 1412 482 1255H441V1260Z"  />
<glyph unicode="&#xF4;" horiz-adv-x="1085" d="M543 -16Q422 -16 327 52T181 248T129 539Q129 817 239 973T543 1130Q665 1130 759 1064T904 871T956 582Q956 300 846 142T543 -16ZM543 43Q711 43 800 182T889 582Q889 805 795 938T543 1071Q377 1071 287 932T197 539Q197 390 241 277T364 103T543 43ZM821 1255H782Q679 1415 542 1522Q405 1414 303 1255H264V1260Q371 1446 516 1579H569Q716 1443 821 1260V1255Z"  />
<glyph unicode="&#xF5;" horiz-adv-x="1085" d="M543 -16Q422 -16 327 52T181 248T129 539Q129 817 239 973T543 1130Q665 1130 759 1064T904 871T956 582Q956 300 846 142T543 -16ZM543 43Q711 43 800 182T889 582Q889 805 795 938T543 1071Q377 1071 287 932T197 539Q197 390 241 277T364 103T543 43ZM416 1446Q460 1446 499 1424T599 1348Q646 1307 691 1307Q736 1307 764 1345T799 1446H838Q836 1359 795 1307T691 1255Q654 1255 626 1267T527 1337Q492 1366 469 1380T410 1395Q365 1395 337 1356T301 1255H263Q265 1338 307 1392T416 1446Z"  />
<glyph unicode="&#xF6;" horiz-adv-x="1085" d="M543 -16Q422 -16 327 52T181 248T129 539Q129 817 239 973T543 1130Q665 1130 759 1064T904 871T956 582Q956 300 846 142T543 -16ZM543 43Q711 43 800 182T889 582Q889 805 795 938T543 1071Q377 1071 287 932T197 539Q197 390 241 277T364 103T543 43ZM432 1382Q432 1359 417 1346T382 1333Q362 1333 348 1346T333 1382Q333 1405 347 1418T382 1432Q402 1432 417 1419T432 1382ZM751 1382Q751 1359 737 1346T702 1333Q682 1333 668 1346T653 1382Q653 1405 667 1418T702 1432Q722 1432 736 1419T751 1382Z"  />
<glyph unicode="&#xF7;" horiz-adv-x="1026" d="M104 614H922V555H104V614ZM457 221Q457 246 473 261T512 276Q535 276 551 261T567 221Q567 196 551 181T512 166Q489 166 473 181T457 221ZM457 946Q457 971 473 986T512 1001Q535 1001 551 986T567 946Q567 921 551 906T512 891Q489 891 473 906T457 946Z"  />
<glyph unicode="&#xF8;" horiz-adv-x="1085" d="M543 -16Q389 -16 279 94L207 -16H139L240 139Q129 292 129 539Q129 817 239 973T543 1130Q699 1130 807 1022L877 1130H946L846 977Q956 831 956 582Q956 300 846 142T543 -16ZM543 43Q711 43 800 182T889 582Q889 788 809 918L313 150Q408 43 543 43ZM197 539Q197 329 279 199L772 967Q680 1071 543 1071Q377 1071 287 932T197 539Z"  />
<glyph unicode="&#xF9;" horiz-adv-x="1130" d="M463 -16Q207 -16 207 317V1114H272V322Q272 187 322 115T475 43Q571 43 656 147T795 434T848 797V1114H913V287Q913 190 927 139T973 65T1073 43V2Q1045 -8 1014 -8Q930 -8 889 54T848 268V428H846Q710 -16 463 -16ZM664 1255H623Q469 1401 353 1575V1579H426Q479 1490 528 1423T664 1260V1255Z"  />
<glyph unicode="&#xFA;" horiz-adv-x="1130" d="M463 -16Q207 -16 207 317V1114H272V322Q272 187 322 115T475 43Q571 43 656 147T795 434T848 797V1114H913V287Q913 190 927 139T973 65T1073 43V2Q1045 -8 1014 -8Q930 -8 889 54T848 268V428H846Q710 -16 463 -16ZM457 1260Q528 1339 581 1409T694 1579H768V1575Q659 1412 498 1255H457V1260Z"  />
<glyph unicode="&#xFB;" horiz-adv-x="1130" d="M463 -16Q207 -16 207 317V1114H272V322Q272 187 322 115T475 43Q571 43 656 147T795 434T848 797V1114H913V287Q913 190 927 139T973 65T1073 43V2Q1045 -8 1014 -8Q930 -8 889 54T848 268V428H846Q710 -16 463 -16ZM840 1255H801Q698 1415 561 1522Q424 1414 322 1255H283V1260Q390 1446 535 1579H588Q735 1443 840 1260V1255Z"  />
<glyph unicode="&#xFC;" horiz-adv-x="1130" d="M463 -16Q207 -16 207 317V1114H272V322Q272 187 322 115T475 43Q571 43 656 147T795 434T848 797V1114H913V287Q913 190 927 139T973 65T1073 43V2Q1045 -8 1014 -8Q930 -8 889 54T848 268V428H846Q710 -16 463 -16ZM449 1382Q449 1359 434 1346T399 1333Q379 1333 365 1346T350 1382Q350 1405 364 1418T399 1432Q419 1432 434 1419T449 1382ZM768 1382Q768 1359 754 1346T719 1333Q699 1333 685 1346T670 1382Q670 1405 684 1418T719 1432Q739 1432 753 1419T768 1382Z"  />
<glyph unicode="&#xFD;" horiz-adv-x="1120" d="M479 -326Q659 -326 753 -215T848 106V428H846Q711 -8 463 -8Q341 -8 274 73T207 324V1114H272V328Q272 195 322 123T475 51Q573 51 658 157T796 441T848 797V1114H913V104Q913 -129 801 -257T483 -385Q354 -385 219 -332V-283H223Q323 -311 373 -318T479 -326ZM457 1260Q528 1339 581 1409T694 1579H768V1575Q659 1412 498 1255H457V1260Z"  />
<glyph unicode="&#xFE;" horiz-adv-x="1100" d="M971 606Q971 414 912 273T745 58T502 -16Q379 -16 272 59V-385H207V1599H272V1112Q272 1022 266 686H270Q408 1130 645 1130Q800 1130 885 994T971 606ZM641 1071Q549 1071 463 966T325 687T272 330V121Q378 43 498 43Q678 43 790 193T903 586Q903 824 837 947T641 1071Z"  />
<glyph unicode="&#xFF;" horiz-adv-x="1120" d="M479 -326Q659 -326 753 -215T848 106V428H846Q711 -8 463 -8Q341 -8 274 73T207 324V1114H272V328Q272 195 322 123T475 51Q573 51 658 157T796 441T848 797V1114H913V104Q913 -129 801 -257T483 -385Q354 -385 219 -332V-283H223Q323 -311 373 -318T479 -326ZM449 1382Q449 1359 434 1346T399 1333Q379 1333 365 1346T350 1382Q350 1405 364 1418T399 1432Q419 1432 434 1419T449 1382ZM768 1382Q768 1359 754 1346T719 1333Q699 1333 685 1346T670 1382Q670 1405 684 1418T719 1432Q739 1432 753 1419T768 1382Z"  />
<glyph unicode="&#x131;" horiz-adv-x="489" d="M375 -8Q287 -8 247 57T207 262V1114H272V287Q272 190 286 139T332 65T432 43V2Q404 -8 375 -8Z"  />
<glyph unicode="&#x152;" horiz-adv-x="1712" d="M1579 1475V1413H956V797H1487V735H956V61H1589V0H889Q804 -16 684 -16Q522 -16 403 71T220 326T156 723Q156 948 223 1123T411 1394T684 1491Q756 1491 889 1475H1579ZM684 1430Q549 1430 444 1341T282 1089T225 723Q225 524 280 370T439 131T684 45Q800 45 889 61V1413Q789 1430 684 1430Z"  />
<glyph unicode="&#x153;" horiz-adv-x="1710" d="M911 512Q917 290 1012 167T1270 43Q1333 43 1395 57T1550 115H1556V74Q1404 -16 1251 -16Q1110 -16 1007 75T877 319Q798 -16 541 -16Q420 -16 326 52T180 246T129 539Q129 814 238 972T537 1130Q673 1130 765 1037T887 770Q939 937 1048 1033T1300 1130Q1433 1130 1512 1057T1591 860Q1591 679 1446 596T1001 512H911ZM537 43Q688 43 766 183T844 582Q844 811 764 941T543 1071Q377 1071 287 932T197 539Q197 393 241 280T363 105T537 43ZM1001 565Q1276 565 1401 633T1526 858Q1526 954 1465 1012T1298 1071Q1199 1071 1115 1012T976 839T911 565H1001Z"  />
<glyph unicode="&#x160;" horiz-adv-x="1012" d="M123 1116Q123 1282 233 1386T518 1491Q675 1491 825 1434V1376H823Q748 1403 680 1416T518 1430Q376 1430 285 1345T193 1120Q193 1049 221 996T304 897T502 782Q663 704 727 652T827 533T864 375Q864 190 752 87T442 -16Q350 -16 277 1T90 74V127H94Q197 82 272 64T442 45Q607 45 701 133T795 369Q795 442 768 495T695 589T590 662T469 725Q309 805 249 855T156 969T123 1116ZM219 1944H258Q361 1785 497 1678Q633 1783 737 1944H776V1940Q675 1761 524 1620H471Q322 1758 219 1940V1944Z"  />
<glyph unicode="&#x161;" horiz-adv-x="819" d="M127 840Q127 973 213 1051T440 1130Q568 1130 684 1087V1036H680Q549 1073 444 1073Q327 1073 261 1012T195 844Q195 795 213 759T267 692T410 608Q550 540 603 498T684 402T713 274Q713 140 623 62T383 -16Q216 -16 106 53V94H111Q177 67 238 55T375 43Q502 43 573 104T645 270Q645 328 621 371T554 448T381 549Q265 607 221 644T152 730T127 840ZM142 1579H181Q284 1420 420 1313Q556 1418 660 1579H699V1575Q598 1396 447 1255H394Q245 1393 142 1575V1579Z"  />
<glyph unicode="&#x178;" horiz-adv-x="1116" d="M524 0V524Q315 738 211 975T106 1462V1475H174V1464Q174 1235 270 1010T555 580H561Q746 781 844 1007T942 1464V1475H1010V1462Q1010 1212 906 975T592 524V0H524ZM449 1747Q449 1724 434 1711T399 1698Q379 1698 365 1711T350 1747Q350 1770 364 1783T399 1797Q419 1797 434 1784T449 1747ZM768 1747Q768 1724 754 1711T719 1698Q699 1698 685 1711T670 1747Q670 1770 684 1783T719 1797Q739 1797 753 1784T768 1747Z"  />
<glyph unicode="&#x17D;" horiz-adv-x="942" d="M860 1475V1434L131 61V57Q250 61 397 61H860V0H47V41L778 1415V1419Q654 1413 492 1413H88V1475H860ZM199 1944H238Q341 1785 477 1678Q613 1783 717 1944H756V1940Q655 1761 504 1620H451Q302 1758 199 1940V1944Z"  />
<glyph unicode="&#x17E;" horiz-adv-x="788" d="M68 0V41L618 1055H106V1114H698V1073L147 59H731V0H68ZM129 1579H168Q271 1420 407 1313Q543 1418 647 1579H686V1575Q585 1396 434 1255H381Q232 1393 129 1575V1579Z"  />
<glyph unicode="&#x192;" horiz-adv-x="1026" d="M500 1055H309V1096L508 1114L524 1225Q551 1409 632 1504T854 1599Q916 1599 985 1573V1522H981Q925 1540 854 1540Q735 1540 670 1450T580 1161L573 1114H805V1055H565L418 8Q391 -185 301 -285T70 -385Q41 -385 10 -377T-41 -356V-315H-37Q11 -326 70 -326Q186 -326 259 -235T356 25L500 1055Z"  />
<glyph unicode="&#x2C6;" horiz-adv-x="1047" d="M801 1255H762Q659 1415 522 1522Q385 1414 283 1255H244V1260Q351 1446 496 1579H549Q696 1443 801 1260V1255Z"  />
<glyph unicode="&#x2C7;" horiz-adv-x="1047" d="M244 1579H283Q386 1420 522 1313Q658 1418 762 1579H801V1575Q700 1396 549 1255H496Q347 1393 244 1575V1579Z"  />
<glyph unicode="&#x2DA;" horiz-adv-x="1047" d="M354 1454Q354 1526 404 1572T524 1618Q596 1618 644 1571T692 1454Q692 1384 644 1337T524 1290Q454 1290 404 1336T354 1454ZM408 1454Q408 1405 441 1372T524 1339Q572 1339 605 1370T639 1454Q639 1507 606 1538T524 1569Q472 1569 440 1536T408 1454Z"  />
<glyph unicode="&#x2DC;" horiz-adv-x="1047" d="M389 1446Q433 1446 472 1424T572 1348Q619 1307 664 1307Q709 1307 737 1345T772 1446H811Q809 1359 768 1307T664 1255Q627 1255 599 1267T500 1337Q465 1366 442 1380T383 1395Q338 1395 310 1356T274 1255H236Q238 1338 280 1392T389 1446Z"  />
<glyph unicode="&#x3BC;" horiz-adv-x="1130" d="M463 -16Q338 -16 272 96V-385H207V1114H272V322Q272 187 322 115T475 43Q571 43 656 147T795 434T848 797V1114H913V287Q913 190 927 139T973 65T1073 43V2Q1045 -8 1014 -8Q930 -8 889 54T848 268V428H846Q710 -16 463 -16Z"  />
<glyph unicode="&#x2013;" horiz-adv-x="1026" d="M104 616H922V557H104V616Z"  />
<glyph unicode="&#x2014;" horiz-adv-x="1565" d="M104 616H1460V557H104V616Z"  />
<glyph unicode="&#x2018;" horiz-adv-x="432" d="M391 1475V1470Q297 1374 260 1298T223 1135Q223 1083 244 1024V1020H176Q156 1069 156 1133Q156 1219 198 1300T338 1475H391Z"  />
<glyph unicode="&#x2019;" horiz-adv-x="432" d="M41 1020V1024Q138 1126 173 1201T209 1360Q209 1413 188 1470V1475H256Q276 1426 276 1362Q276 1188 94 1020H41Z"  />
<glyph unicode="&#x201A;" horiz-adv-x="432" d="M41 -246V-242Q138 -140 173 -65T209 94Q209 147 188 204V209H256Q276 160 276 96Q276 -78 94 -246H41Z"  />
<glyph unicode="&#x201C;" horiz-adv-x="741" d="M700 1475V1470Q606 1374 569 1298T532 1135Q532 1089 553 1024V1020H485Q465 1069 465 1133Q465 1219 507 1300T647 1475H700ZM391 1475V1470Q297 1374 260 1298T223 1135Q223 1083 244 1024V1020H176Q156 1069 156 1133Q156 1219 198 1300T338 1475H391Z"  />
<glyph unicode="&#x201D;" horiz-adv-x="741" d="M41 1020V1024Q138 1126 173 1201T209 1360Q209 1413 188 1470V1475H256Q276 1426 276 1362Q276 1188 94 1020H41ZM350 1020V1024Q450 1129 484 1202T518 1360Q518 1410 498 1470V1475H565Q586 1429 586 1362Q586 1271 541 1188T403 1020H350Z"  />
<glyph unicode="&#x201E;" horiz-adv-x="741" d="M41 -246V-242Q138 -140 173 -65T209 94Q209 147 188 204V209H256Q276 160 276 96Q276 -78 94 -246H41ZM350 -246V-242Q450 -137 484 -64T518 94Q518 144 498 204V209H565Q586 163 586 96Q586 5 541 -78T403 -246H350Z"  />
<glyph unicode="&#x2020;" horiz-adv-x="1026" d="M162 1114H481L477 1475H547L543 1114H864V1055L543 1063L535 -16H489L481 1063L162 1055V1114Z"  />
<glyph unicode="&#x2021;" horiz-adv-x="1026" d="M162 1114H481L477 1475H547L543 1114H864V1055L543 1063L539 682L864 690V631H539L535 -16H489L485 631H162V690L485 682L481 1063L162 1055V1114Z"  />
<glyph unicode="&#x2022;" horiz-adv-x="813" d="M252 737Q252 805 295 849T406 893Q474 893 517 850T561 737Q561 667 517 625T406 582Q338 582 295 625T252 737Z"  />
<glyph unicode="&#x2026;" horiz-adv-x="958" d="M104 43Q104 68 120 83T160 98Q183 98 199 83T215 43Q215 18 199 3T160 -12Q137 -12 121 3T104 43ZM424 43Q424 68 440 83T479 98Q502 98 518 83T535 43Q535 18 519 3T479 -12Q456 -12 440 3T424 43ZM743 43Q743 68 759 83T799 98Q822 98 838 83T854 43Q854 18 838 3T799 -12Q776 -12 760 3T743 43Z"  />
<glyph unicode="&#x2030;" horiz-adv-x="2226" d="M365 1491Q497 1491 567 1373T637 1036Q637 821 567 702T365 582Q233 582 163 700T92 1036Q92 1253 162 1372T365 1491ZM1190 893Q1322 893 1392 775T1462 438Q1462 223 1392 104T1190 -16Q1058 -16 988 102T918 438Q918 655 988 774T1190 893ZM571 1036Q571 1227 519 1330T365 1434Q263 1434 211 1331T158 1036Q158 846 210 743T365 639Q466 639 518 742T571 1036ZM1397 438Q1397 629 1345 732T1190 836Q1088 836 1036 733T983 438Q983 248 1035 145T1190 41Q1292 41 1344 144T1397 438ZM317 -16L1161 1475H1229L383 -16H317ZM1862 893Q1994 893 2064 775T2134 438Q2134 223 2064 104T1862 -16Q1730 -16 1660 102T1589 438Q1589 655 1659 774T1862 893ZM2068 438Q2068 632 2016 734T1862 836Q1760 836 1708 733T1655 438Q1655 248 1707 145T1862 41Q1963 41 2015 143T2068 438Z"  />
<glyph unicode="&#x2039;" horiz-adv-x="528" d="M352 123L104 559L360 995H424L172 559L424 123H352Z"  />
<glyph unicode="&#x203A;" horiz-adv-x="528" d="M176 995L424 559L168 123H104L356 559L104 995H176Z"  />
<glyph unicode="&#x20AC;" horiz-adv-x="1026" d="M57 616H223Q221 694 221 711Q221 768 225 819H57V879H231Q266 1158 404 1324T735 1491Q806 1491 859 1479T969 1444V1386H967Q898 1411 849 1420T737 1430Q631 1430 538 1362T382 1167T299 879H817V819H293Q289 772 289 717Q289 650 291 616H817V557H295Q311 393 363 278T493 104T670 45Q746 45 810 63T946 127H950V74Q885 30 819 7T672 -16Q487 -16 370 133T227 557H57V616Z"  />
<glyph unicode="&#x2122;" horiz-adv-x="1325" d="M629 1319H627L629 1216V735H575V1475H614L838 995L858 946H860L905 1047L1106 1475H1145V735H1090Q1090 1262 1092 1319H1090L877 866H842L629 1319ZM205 735V1423H0V1475H463V1423H260V735H205Z"  />

<hkern u1="A" u2="T" k="102" />
<hkern u1="A" u2="U" k="20" />
<hkern u1="A" u2="V" k="61" />
<hkern u1="A" u2="W" k="41" />
<hkern u1="A" u2="Y" k="102" />
<hkern u1="A" u2="&apos;" k="122" />
<hkern u1="A" u2="&#x2019;" k="102" />
<hkern u1="A" u2="\" k="122" />
<hkern u1="&#xc6;" u2="J" k="-61" />
<hkern u1="&#xc6;" u2="&apos;" k="-20" />
<hkern u1="B" u2="T" k="20" />
<hkern u1="B" u2="V" k="20" />
<hkern u1="B" u2="X" k="20" />
<hkern u1="B" u2="Y" k="20" />
<hkern u1="C" u2="C" k="41" />
<hkern u1="C" u2="G" k="41" />
<hkern u1="C" u2="O" k="41" />
<hkern u1="C" u2="&#x152;" k="41" />
<hkern u1="C" u2="&apos;" k="-61" />
<hkern u1="C" u2="&#x2019;" k="-61" />
<hkern u1="C" u2="-" k="41" />
<hkern u1="C" u2=")" k="-41" />
<hkern u1="D" u2="&#xc6;" k="61" />
<hkern u1="D" u2="T" k="61" />
<hkern u1="D" u2="W" k="20" />
<hkern u1="D" u2="X" k="20" />
<hkern u1="D" u2="Y" k="41" />
<hkern u1="D" u2="Z" k="20" />
<hkern u1="D" u2="&#x2c;" k="61" />
<hkern u1="F" u2="A" k="61" />
<hkern u1="F" u2="&#xc6;" k="61" />
<hkern u1="F" u2="&amp;" k="41" />
<hkern u1="F" u2="a" k="20" />
<hkern u1="F" u2="c" k="20" />
<hkern u1="F" u2="d" k="20" />
<hkern u1="F" u2="&#xf0;" k="20" />
<hkern u1="F" u2="e" k="20" />
<hkern u1="F" u2="g" k="20" />
<hkern u1="F" u2="o" k="20" />
<hkern u1="F" u2="q" k="20" />
<hkern u1="F" u2="s" k="20" />
<hkern u1="F" u2="?" k="-41" />
<hkern u1="F" u2="&#x2c;" k="102" />
<hkern u1="F" u2="&apos;" k="-41" />
<hkern u1="F" u2="&#x2019;" k="-61" />
<hkern u1="F" u2=")" k="-41" />
<hkern u1="G" u2="&apos;" k="20" />
<hkern u1="K" u2="C" k="61" />
<hkern u1="K" u2="G" k="41" />
<hkern u1="K" u2="O" k="41" />
<hkern u1="K" u2="&#x152;" k="41" />
<hkern u1="K" u2="T" k="41" />
<hkern u1="K" u2="U" k="20" />
<hkern u1="K" u2="V" k="61" />
<hkern u1="K" u2="W" k="41" />
<hkern u1="K" u2="Y" k="61" />
<hkern u1="K" u2="c" k="20" />
<hkern u1="K" u2="&#xf0;" k="20" />
<hkern u1="K" u2="e" k="20" />
<hkern u1="K" u2="o" k="20" />
<hkern u1="K" u2="v" k="82" />
<hkern u1="K" u2="w" k="82" />
<hkern u1="K" u2="y" k="20" />
<hkern u1="K" u2="&apos;" k="-41" />
<hkern u1="K" u2="&#x2019;" k="41" />
<hkern u1="K" u2="-" k="61" />
<hkern u1="L" u2="C" k="20" />
<hkern u1="L" u2="G" k="20" />
<hkern u1="L" u2="O" k="20" />
<hkern u1="L" u2="&#x152;" k="20" />
<hkern u1="L" u2="T" k="122" />
<hkern u1="L" u2="U" k="20" />
<hkern u1="L" u2="V" k="122" />
<hkern u1="L" u2="W" k="102" />
<hkern u1="L" u2="Y" k="122" />
<hkern u1="L" u2="v" k="82" />
<hkern u1="L" u2="w" k="61" />
<hkern u1="L" u2="&apos;" k="102" />
<hkern u1="L" u2="&#x2019;" k="102" />
<hkern u1="L" u2="\" k="204" />
<hkern u1="L" u2="-" k="61" />
<hkern u1="O" u2="&#xc6;" k="41" />
<hkern u1="O" u2="X" k="41" />
<hkern u1="O" u2="Y" k="10" />
<hkern u1="O" u2="Z" k="20" />
<hkern u1="O" u2="&#x2c;" k="41" />
<hkern u1="P" u2="A" k="82" />
<hkern u1="P" u2="&#xc6;" k="82" />
<hkern u1="P" u2="C" k="20" />
<hkern u1="P" u2="G" k="20" />
<hkern u1="P" u2="O" k="20" />
<hkern u1="P" u2="&#x152;" k="20" />
<hkern u1="P" u2="X" k="20" />
<hkern u1="P" u2="Z" k="61" />
<hkern u1="P" u2="&amp;" k="61" />
<hkern u1="P" u2="a" k="41" />
<hkern u1="P" u2="c" k="51" />
<hkern u1="P" u2="d" k="41" />
<hkern u1="P" u2="&#xf0;" k="61" />
<hkern u1="P" u2="e" k="51" />
<hkern u1="P" u2="g" k="41" />
<hkern u1="P" u2="o" k="41" />
<hkern u1="P" u2="q" k="41" />
<hkern u1="P" u2="&#x2c;" k="204" />
<hkern u1="P" u2="&apos;" k="-20" />
<hkern u1="P" u2="&#x2019;" k="-41" />
<hkern u1="P" u2="/" k="143" />
<hkern u1="P" u2="-" k="41" />
<hkern u1="&#xde;" u2="A" k="10" />
<hkern u1="&#xde;" u2="Z" k="82" />
<hkern u1="&#xde;" u2="/" k="61" />
<hkern u1="R" u2="C" k="61" />
<hkern u1="R" u2="O" k="41" />
<hkern u1="R" u2="T" k="20" />
<hkern u1="R" u2="U" k="31" />
<hkern u1="R" u2="V" k="41" />
<hkern u1="R" u2="W" k="41" />
<hkern u1="R" u2="Y" k="41" />
<hkern u1="R" u2="c" k="20" />
<hkern u1="R" u2="&#xf0;" k="20" />
<hkern u1="R" u2="e" k="20" />
<hkern u1="R" u2="o" k="20" />
<hkern u1="R" u2="t" k="20" />
<hkern u1="R" u2="v" k="20" />
<hkern u1="R" u2="w" k="20" />
<hkern u1="R" u2="&apos;" k="41" />
<hkern u1="R" u2="/" k="-20" />
<hkern u1="R" u2="-" k="41" />
<hkern u1="S" u2="v" k="20" />
<hkern u1="S" u2="w" k="20" />
<hkern u1="S" u2="/" k="-41" />
<hkern u1="T" u2="A" k="102" />
<hkern u1="T" u2="&#xc6;" k="143" />
<hkern u1="T" u2="C" k="20" />
<hkern u1="T" u2="G" k="61" />
<hkern u1="T" u2="&#x152;" k="61" />
<hkern u1="T" u2="&amp;" k="102" />
<hkern u1="T" u2="a" k="143" />
<hkern u1="T" u2="&#xe6;" k="163" />
<hkern u1="T" u2="c" k="143" />
<hkern u1="T" u2="d" k="143" />
<hkern u1="T" u2="&#xf0;" k="143" />
<hkern u1="T" u2="e" k="143" />
<hkern u1="T" u2="g" k="143" />
<hkern u1="T" u2="m" k="122" />
<hkern u1="T" u2="n" k="122" />
<hkern u1="T" u2="o" k="143" />
<hkern u1="T" u2="p" k="122" />
<hkern u1="T" u2="q" k="143" />
<hkern u1="T" u2="r" k="122" />
<hkern u1="T" u2="s" k="143" />
<hkern u1="T" u2="&#x161;" k="122" />
<hkern u1="T" u2="u" k="122" />
<hkern u1="T" u2="v" k="102" />
<hkern u1="T" u2="w" k="102" />
<hkern u1="T" u2="x" k="102" />
<hkern u1="T" u2="y" k="122" />
<hkern u1="T" u2="z" k="102" />
<hkern u1="T" u2="?" k="-41" />
<hkern u1="T" u2="&#x2c;" k="102" />
<hkern u1="T" u2="&apos;" k="-82" />
<hkern u1="T" u2="&#x2019;" k="-82" />
<hkern u1="T" u2="/" k="82" />
<hkern u1="T" u2="\" k="-41" />
<hkern u1="T" u2="-" k="41" />
<hkern u1="U" u2="A" k="20" />
<hkern u1="U" u2="&#xc6;" k="41" />
<hkern u1="U" u2="&#x2c;" k="41" />
<hkern u1="V" u2="A" k="61" />
<hkern u1="V" u2="&#xc6;" k="122" />
<hkern u1="V" u2="&#x152;" k="41" />
<hkern u1="V" u2="&amp;" k="61" />
<hkern u1="V" u2="a" k="61" />
<hkern u1="V" u2="c" k="61" />
<hkern u1="V" u2="d" k="61" />
<hkern u1="V" u2="&#xf0;" k="61" />
<hkern u1="V" u2="e" k="61" />
<hkern u1="V" u2="g" k="61" />
<hkern u1="V" u2="m" k="41" />
<hkern u1="V" u2="n" k="41" />
<hkern u1="V" u2="o" k="61" />
<hkern u1="V" u2="p" k="41" />
<hkern u1="V" u2="q" k="61" />
<hkern u1="V" u2="r" k="41" />
<hkern u1="V" u2="s" k="20" />
<hkern u1="V" u2="u" k="41" />
<hkern u1="V" u2="y" k="41" />
<hkern u1="V" u2="?" k="-41" />
<hkern u1="V" u2="&#x2c;" k="102" />
<hkern u1="V" u2="&apos;" k="-82" />
<hkern u1="V" u2="&#x2019;" k="-82" />
<hkern u1="V" u2="/" k="122" />
<hkern u1="W" u2="A" k="41" />
<hkern u1="W" u2="&#xc6;" k="82" />
<hkern u1="W" u2="&#xd2;" k="20" />
<hkern u1="W" u2="&#xd3;" k="20" />
<hkern u1="W" u2="&#xd4;" k="20" />
<hkern u1="W" u2="&#xd6;" k="20" />
<hkern u1="W" u2="&#xd8;" k="20" />
<hkern u1="W" u2="&#x152;" k="20" />
<hkern u1="W" u2="&amp;" k="41" />
<hkern u1="W" u2="a" k="41" />
<hkern u1="W" u2="c" k="41" />
<hkern u1="W" u2="d" k="41" />
<hkern u1="W" u2="&#xf0;" k="41" />
<hkern u1="W" u2="e" k="41" />
<hkern u1="W" u2="g" k="41" />
<hkern u1="W" u2="m" k="20" />
<hkern u1="W" u2="n" k="20" />
<hkern u1="W" u2="o" k="41" />
<hkern u1="W" u2="p" k="20" />
<hkern u1="W" u2="q" k="41" />
<hkern u1="W" u2="r" k="20" />
<hkern u1="W" u2="s" k="10" />
<hkern u1="W" u2="u" k="20" />
<hkern u1="W" u2="y" k="20" />
<hkern u1="W" u2="&#x2c;" k="82" />
<hkern u1="W" u2="&apos;" k="-82" />
<hkern u1="W" u2="&#x2019;" k="-82" />
<hkern u1="W" u2="/" k="102" />
<hkern u1="X" u2="C" k="41" />
<hkern u1="X" u2="G" k="41" />
<hkern u1="X" u2="O" k="41" />
<hkern u1="X" u2="&#x152;" k="41" />
<hkern u1="X" u2="&apos;" k="-41" />
<hkern u1="X" u2="&#x2019;" k="-41" />
<hkern u1="Y" u2="A" k="102" />
<hkern u1="Y" u2="&#xc6;" k="143" />
<hkern u1="Y" u2="C" k="41" />
<hkern u1="Y" u2="G" k="41" />
<hkern u1="Y" u2="O" k="10" />
<hkern u1="Y" u2="&#x152;" k="41" />
<hkern u1="Y" u2="&amp;" k="102" />
<hkern u1="Y" u2="a" k="102" />
<hkern u1="Y" u2="c" k="102" />
<hkern u1="Y" u2="d" k="102" />
<hkern u1="Y" u2="&#xf0;" k="102" />
<hkern u1="Y" u2="e" k="102" />
<hkern u1="Y" u2="g" k="102" />
<hkern u1="Y" u2="m" k="41" />
<hkern u1="Y" u2="n" k="41" />
<hkern u1="Y" u2="o" k="102" />
<hkern u1="Y" u2="p" k="41" />
<hkern u1="Y" u2="q" k="102" />
<hkern u1="Y" u2="r" k="41" />
<hkern u1="Y" u2="s" k="51" />
<hkern u1="Y" u2="u" k="41" />
<hkern u1="Y" u2="y" k="41" />
<hkern u1="Y" u2="?" k="-41" />
<hkern u1="Y" u2="&#x2c;" k="163" />
<hkern u1="Y" u2="&apos;" k="-82" />
<hkern u1="Y" u2="&#x2019;" k="-82" />
<hkern u1="Y" u2="/" k="163" />
<hkern u1="Y" u2="-" k="41" />
<hkern u1="Z" u2="C" k="20" />
<hkern u1="Z" u2="G" k="20" />
<hkern u1="Z" u2="O" k="20" />
<hkern u1="Z" u2="&#x152;" k="41" />
<hkern u1="Z" u2="c" k="20" />
<hkern u1="Z" u2="&#xf0;" k="20" />
<hkern u1="Z" u2="e" k="20" />
<hkern u1="Z" u2="o" k="20" />
<hkern u1="Z" u2="t" k="20" />
<hkern u1="Z" u2="u" k="20" />
<hkern u1="Z" u2="v" k="20" />
<hkern u1="Z" u2="w" k="20" />
<hkern u1="Z" u2="y" k="20" />
<hkern u1="Z" u2="&apos;" k="-41" />
<hkern u1="Z" u2="&#x2019;" k="-41" />
<hkern u1="Z" u2="-" k="82" />
<hkern u1="&amp;" u2="T" k="102" />
<hkern u1="&amp;" u2="V" k="61" />
<hkern u1="&amp;" u2="W" k="61" />
<hkern u1="&amp;" u2="Y" k="102" />
<hkern u1="a" u2="&apos;" k="41" />
<hkern u1="b" u2="&apos;" k="20" />
<hkern u1="b" u2="\" k="102" />
<hkern u1="c" u2="c" k="20" />
<hkern u1="c" u2="e" k="20" />
<hkern u1="c" u2="o" k="20" />
<hkern u1="c" u2="&apos;" k="-61" />
<hkern u1="c" u2="&#x2019;" k="-61" />
<hkern u1="f" u2="a" k="20" />
<hkern u1="f" u2="c" k="41" />
<hkern u1="f" u2="e" k="41" />
<hkern u1="f" u2="g" k="20" />
<hkern u1="f" u2="o" k="31" />
<hkern u1="f" u2="v" k="-20" />
<hkern u1="f" u2="w" k="-20" />
<hkern u1="f" u2="y" k="-20" />
<hkern u1="f" u2="&#x2c;" k="61" />
<hkern u1="f" u2="&apos;" k="-102" />
<hkern u1="f" u2="&#x2019;" k="-102" />
<hkern u1="f" u2="\" k="-143" />
<hkern u1="f" u2="-" k="41" />
<hkern u1="g" u2="&apos;" k="-41" />
<hkern u1="g" u2="&#x2019;" k="-41" />
<hkern u1="h" u2="&apos;" k="61" />
<hkern u1="h" u2="\" k="102" />
<hkern u1="k" u2="a" k="20" />
<hkern u1="k" u2="c" k="41" />
<hkern u1="k" u2="d" k="20" />
<hkern u1="k" u2="e" k="41" />
<hkern u1="k" u2="o" k="41" />
<hkern u1="k" u2="q" k="20" />
<hkern u1="k" u2="y" k="20" />
<hkern u1="k" u2="&apos;" k="31" />
<hkern u1="k" u2="&#x2019;" k="-41" />
<hkern u1="k" u2="\" k="102" />
<hkern u1="m" u2="&apos;" k="41" />
<hkern u1="m" u2="\" k="102" />
<hkern u1="n" u2="&apos;" k="61" />
<hkern u1="n" u2="\" k="122" />
<hkern u1="o" u2="x" k="51" />
<hkern u1="o" u2="z" k="20" />
<hkern u1="o" u2="&apos;" k="41" />
<hkern u1="o" u2="\" k="102" />
<hkern u1="p" u2="x" k="20" />
<hkern u1="p" u2="&apos;" k="41" />
<hkern u1="p" u2="\" k="102" />
<hkern u1="r" u2="a" k="20" />
<hkern u1="r" u2="c" k="20" />
<hkern u1="r" u2="e" k="20" />
<hkern u1="r" u2="g" k="20" />
<hkern u1="r" u2="o" k="20" />
<hkern u1="r" u2="z" k="20" />
<hkern u1="r" u2="&#x2c;" k="102" />
<hkern u1="r" u2="&apos;" k="-61" />
<hkern u1="r" u2="&#x2019;" k="-102" />
<hkern u1="r" u2="-" k="41" />
<hkern u1="s" u2="c" k="10" />
<hkern u1="s" u2="e" k="10" />
<hkern u1="s" u2="&apos;" k="-61" />
<hkern u1="s" u2="&#x2019;" k="-41" />
<hkern u1="&#xdf;" u2="v" k="41" />
<hkern u1="&#xdf;" u2="w" k="41" />
<hkern u1="&#xdf;" u2="&#x2019;" k="41" />
<hkern u1="&#xdf;" u2="\" k="61" />
<hkern u1="t" u2="c" k="20" />
<hkern u1="t" u2="e" k="20" />
<hkern u1="t" u2="o" k="20" />
<hkern u1="t" u2="t" k="41" />
<hkern u1="t" u2="&apos;" k="-41" />
<hkern u1="t" u2="&#x2019;" k="-82" />
<hkern u1="t" u2="-" k="41" />
<hkern u1="u" u2="&apos;" k="20" />
<hkern u1="v" u2="f" k="-20" />
<hkern u1="v" u2="&#x2c;" k="61" />
<hkern u1="v" u2="&apos;" k="-41" />
<hkern u1="v" u2="&#x2019;" k="-82" />
<hkern u1="w" u2="f" k="-20" />
<hkern u1="w" u2="&#x2c;" k="51" />
<hkern u1="w" u2="&apos;" k="-82" />
<hkern u1="w" u2="&#x2019;" k="-82" />
<hkern u1="x" u2="a" k="20" />
<hkern u1="x" u2="c" k="51" />
<hkern u1="x" u2="d" k="20" />
<hkern u1="x" u2="e" k="51" />
<hkern u1="x" u2="g" k="20" />
<hkern u1="x" u2="o" k="51" />
<hkern u1="x" u2="q" k="20" />
<hkern u1="x" u2="u" k="20" />
<hkern u1="x" u2="y" k="31" />
<hkern u1="x" u2="&apos;" k="-41" />
<hkern u1="x" u2="&#x2019;" k="-41" />
<hkern u1="x" u2="-" k="61" />
<hkern u1="y" u2="f" k="-20" />
<hkern u1="y" u2="&apos;" k="-41" />
<hkern u1="y" u2="&#x2019;" k="-61" />
<hkern u1="z" u2="a" k="41" />
<hkern u1="z" u2="c" k="41" />
<hkern u1="z" u2="d" k="41" />
<hkern u1="z" u2="e" k="41" />
<hkern u1="z" u2="g" k="41" />
<hkern u1="z" u2="o" k="41" />
<hkern u1="z" u2="q" k="41" />
<hkern u1="z" u2="s" k="20" />
<hkern u1="z" u2="t" k="20" />
<hkern u1="z" u2="u" k="20" />
<hkern u1="z" u2="v" k="20" />
<hkern u1="z" u2="w" k="20" />
<hkern u1="z" u2="y" k="41" />
<hkern u1="z" u2="-" k="61" />
<hkern u1="&#x2c;" u2="C" k="61" />
<hkern u1="&#x2c;" u2="G" k="61" />
<hkern u1="&#x2c;" u2="O" k="61" />
<hkern u1="&#x2c;" u2="T" k="102" />
<hkern u1="&#x2c;" u2="U" k="41" />
<hkern u1="&#x2c;" u2="V" k="102" />
<hkern u1="&#x2c;" u2="W" k="82" />
<hkern u1="&#x2c;" u2="Y" k="102" />
<hkern u1="." u2="C" k="20" />
<hkern u1="." u2="G" k="41" />
<hkern u1="." u2="O" k="41" />
<hkern u1="." u2="T" k="102" />
<hkern u1="." u2="U" k="41" />
<hkern u1="." u2="V" k="102" />
<hkern u1="." u2="W" k="82" />
<hkern u1="." u2="Y" k="163" />
<hkern u1="." u2="t" k="20" />
<hkern u1="." u2="u" k="20" />
<hkern u1="." u2="v" k="61" />
<hkern u1="." u2="w" k="51" />
<hkern u1="." u2="y" k="20" />
<hkern u1="." u2="1" k="41" />
<hkern u1="." u2="4" k="41" />
<hkern u1="." u2="7" k="122" />
<hkern u1="." u2="8" k="-20" />
<hkern u1="&apos;" u2="A" k="122" />
<hkern u1="&apos;" u2="&#xc6;" k="163" />
<hkern u1="&apos;" u2="T" k="-82" />
<hkern u1="&apos;" u2="V" k="-82" />
<hkern u1="&apos;" u2="W" k="-82" />
<hkern u1="&apos;" u2="X" k="-41" />
<hkern u1="&apos;" u2="Y" k="-82" />
<hkern u1="&apos;" u2="a" k="41" />
<hkern u1="&apos;" u2="c" k="41" />
<hkern u1="&apos;" u2="d" k="41" />
<hkern u1="&apos;" u2="e" k="41" />
<hkern u1="&apos;" u2="g" k="41" />
<hkern u1="&apos;" u2="o" k="41" />
<hkern u1="&apos;" u2="q" k="41" />
<hkern u1="&apos;" u2="t" k="-41" />
<hkern u1="&apos;" u2="u" k="10" />
<hkern u1="&apos;" u2="v" k="-41" />
<hkern u1="&apos;" u2="w" k="-20" />
<hkern u1="&apos;" u2="y" k="10" />
<hkern u1="&#x2018;" u2="A" k="102" />
<hkern u1="&#x2018;" u2="&#xc6;" k="102" />
<hkern u1="&#x2018;" u2="C" k="20" />
<hkern u1="&#x2018;" u2="T" k="-82" />
<hkern u1="&#x2018;" u2="V" k="-82" />
<hkern u1="&#x2018;" u2="W" k="-82" />
<hkern u1="&#x2018;" u2="X" k="-41" />
<hkern u1="&#x2018;" u2="Y" k="-82" />
<hkern u1="&#x2018;" u2="Z" k="-41" />
<hkern u1="&#x2018;" u2="a" k="82" />
<hkern u1="&#x2018;" u2="c" k="82" />
<hkern u1="&#x2018;" u2="d" k="82" />
<hkern u1="&#x2018;" u2="&#xf0;" k="82" />
<hkern u1="&#x2018;" u2="e" k="82" />
<hkern u1="&#x2018;" u2="g" k="82" />
<hkern u1="&#x2018;" u2="o" k="61" />
<hkern u1="&#x2018;" u2="q" k="82" />
<hkern u1="&#x2018;" u2="t" k="-41" />
<hkern u1="&#x2018;" u2="u" k="20" />
<hkern u1="&#x2018;" u2="v" k="-41" />
<hkern u1="&#x2018;" u2="w" k="-41" />
<hkern u1="&#x2018;" u2="y" k="20" />
<hkern u1="/" u2="A" k="122" />
<hkern u1="/" u2="&#xc6;" k="122" />
<hkern u1="/" u2="S" k="-41" />
<hkern u1="/" u2="T" k="-41" />
<hkern u1="/" u2="a" k="102" />
<hkern u1="/" u2="c" k="102" />
<hkern u1="/" u2="d" k="102" />
<hkern u1="/" u2="&#xf0;" k="102" />
<hkern u1="/" u2="e" k="102" />
<hkern u1="/" u2="g" k="102" />
<hkern u1="/" u2="o" k="102" />
<hkern u1="/" u2="q" k="102" />
<hkern u1="/" u2="s" k="20" />
<hkern u1="/" u2="u" k="20" />
<hkern u1="/" u2="y" k="20" />
<hkern u1="\" u2="V" k="122" />
<hkern u1="\" u2="W" k="102" />
<hkern u1="\" u2="Y" k="163" />
<hkern u1="-" u2="T" k="41" />
<hkern u1="-" u2="Y" k="41" />
<hkern u1="-" u2="x" k="61" />
<hkern u1="-" u2="z" k="61" />
<hkern u1="-" u2="1" k="143" />
<hkern u1="(" u2="J" k="-122" />
<hkern u1="1" u2="-" k="61" />
<hkern u1="3" u2="&#x2c;" k="41" />
<hkern u1="4" u2="&#x2c;" k="41" />
<hkern u1="7" u2="&#x2c;" k="286" />
<hkern u1="8" u2="&#x2c;" k="-20" />
<hkern u1="9" u2="&#x2c;" k="41" />

</font>
</defs>
<text x="40" y="40" font-family="Ayita W01 Thin" font-size="30" fill="#933" >ABCDEFGHIJKLMNOPQRSTUVWXYZ abcdefghijklmnopqrstuvwxyz AÁÀÂÄÅÃÆ CÇ DÐ EÉÈÊË I Í Ì Î Ï NÑ</text>
<text x="40" y="80" font-family="Ayita W01 Thin" font-size="30" fill="#933" >OÓÒÔÖÕØŒ SŠ UÚÙÛÜ YÝŸ ZŽ Þ aáàâäåãæ cç dð eéèêë i ı í ì î ï nñ oóòôöõøœ sšß uúùûü yýÿ zž</text>
<text x="40" y="120" font-family="Ayita W01 Thin" font-size="30" fill="#933" >þ 1234567890 ½ ¼ ¾ % ‰ $¢£¥ƒ€¤ † ‡ § ¶ # ^~µ +×± &lt; = &gt; ÷¬ !¡?¿ &quot; &amp; &apos; * ° . , : ; () [ \ ] {} / |</text>
<text x="40" y="160" font-family="Ayita W01 Thin" font-size="30" fill="#933" >¦ _ ‚ „ … ‹› «» ‘ ’ “ ” • ­ - – — @ © ® ™ ªº ¹²³ ´ ` ˆ ˜ ¨ ¯ · ¸</text>
</svg>
