
<svg width="20px" height="27px" viewBox="0 0 25 35" version="1.1" xmlns="http://www.w3.org/2000/svg" xmlns:xlink="http://www.w3.org/1999/xlink" style="stroke-width:2px;stroke:rgb(0,0,0);fill:transparent;">
        <g id="mijlpaal_line" transform="translate(-12.000000, -4.000000)">
            <path d="M15.2,9.2 L15.2,38"></path>
            <polyline points="15.2 11.9 34.5 17.9 15.2 25.2"></polyline>
            <path d="M12.2,38 L18.4,38"></path>
            <circle id="Oval" cx="15.3" cy="7.1" r="2"></circle>
            <rect id="Rectangle-path" x="0" y="0" width="43" height="43"></rect>
        </g>
</svg>