<?xml version="1.0" encoding="UTF-8"?>
<svg width="60px" height="60px" viewBox="0 0 60 60" version="1.1" xmlns="http://www.w3.org/2000/svg" xmlns:xlink="http://www.w3.org/1999/xlink">
    <g id="Page-1" stroke="none" stroke-width="1" fill="none" fill-rule="evenodd">
        <g id="noun_articles_1748036" fill="#000000" fill-rule="nonzero">
            <path d="M1,60 L59,60 C59.5522847,60 60,59.5522847 60,59 L60,1 C60,0.44771525 59.5522847,0 59,0 L1,0 C0.44771525,0 0,0.44771525 0,1 L0,59 C0,59.5522847 0.44771525,60 1,60 Z M54,2 L58,2 L58,58 L54,58 L54,2 Z M48,2 L52,2 L52,58 L48,58 L48,2 Z M42,2 L46,2 L46,58 L42,58 L42,2 Z M2,2 L40,2 L40,58 L2,58 L2,2 Z" id="Shape"></path>
            <rect id="Rectangle-path" x="4" y="12" width="34" height="2"></rect>
            <rect id="Rectangle-path" x="4" y="16" width="34" height="2"></rect>
            <rect id="Rectangle-path" x="4" y="20" width="34" height="2"></rect>
            <rect id="Rectangle-path" x="4" y="24" width="34" height="2"></rect>
            <rect id="Rectangle-path" x="4" y="28" width="34" height="2"></rect>
            <rect id="Rectangle-path" x="23" y="32" width="15" height="2"></rect>
            <rect id="Rectangle-path" x="23" y="36" width="15" height="2"></rect>
            <rect id="Rectangle-path" x="23" y="40" width="15" height="2"></rect>
            <rect id="Rectangle-path" x="23" y="44" width="15" height="2"></rect>
            <rect id="Rectangle-path" x="23" y="48" width="15" height="2"></rect>
            <rect id="Rectangle-path" x="23" y="52" width="15" height="2"></rect>
            <path d="M21,45 L21,33 C21,32.4477153 20.5522847,32 20,32 L5,32 C4.44771525,32 4,32.4477153 4,33 L4,45 C4,45.5522847 4.44771525,46 5,46 L20,46 C20.5522847,46 21,45.5522847 21,45 Z M19,44 L6,44 L6,34 L19,34 L19,44 Z" id="Shape"></path>
            <rect id="Rectangle-path" x="6" y="48" width="13" height="2"></rect>
            <rect id="Rectangle-path" x="6" y="52" width="13" height="2"></rect>
            <rect id="Rectangle-path" x="11" y="6" width="20" height="2"></rect>
        </g>
    </g>
</svg>